<?xml version="1.0" encoding="utf-8"?>
<!-- Generator: Adobe Illustrator 23.0.4, SVG Export Plug-In . SVG Version: 6.00 Build 0)  -->
<svg version="1.1" id="Capa_1" xmlns="http://www.w3.org/2000/svg" xmlns:xlink="http://www.w3.org/1999/xlink" x="0px" y="0px"
	 viewBox="0 0 1069 373.9" style="enable-background:new 0 0 1069 373.9;" xml:space="preserve">
<style type="text/css">
	.st0{clip-path:url(#SVGID_2_);}
	.st1{clip-path:url(#SVGID_4_);}
	.st2{fill:#214477;}
	.st3{fill:#D7F4DD;}
	.st4{fill:#04B3AD;}
	.st5{fill:#04B1AC;}
	.st6{fill:#05B3AD;}
	.st7{fill:#F38383;}
	.st8{fill:#D6F4DD;}
	.st9{fill:#EE8283;}
	.st10{fill:#D5F3DC;}
	.st11{fill:#EF8283;}
	.st12{fill:#F18283;}
	.st13{fill:#06B1AC;}
	.st14{fill:#07B3AE;}
	.st15{fill:#F28384;}
	.st16{fill:#CEEBD8;}
	.st17{clip-path:url(#SVGID_6_);}
	.st18{clip-path:url(#SVGID_8_);}
	.st19{clip-path:url(#SVGID_10_);}
	.st20{clip-path:url(#SVGID_12_);}
	.st21{clip-path:url(#SVGID_14_);}
	.st22{clip-path:url(#SVGID_16_);}
	.st23{fill:#204478;}
	.st24{fill:#264376;}
	.st25{fill:#374B78;}
	.st26{fill:#F28283;}
	.st27{fill:#CCE8D6;}
	.st28{fill:#D9F1DA;}
	.st29{fill:#06A9D7;}
	.st30{fill:#07ACD9;}
	.st31{fill:#0BA9D6;}
	.st32{fill:#2665AC;}
	.st33{fill:#CDECD9;}
	.st34{fill:#B9DCD0;}
	.st35{fill:#08A6D4;}
	.st36{fill:#0AA0CF;}
	.st37{fill:#1D4578;}
	.st38{fill:#04ADAA;}
	.st39{fill:#DDE7D2;}
	.st40{fill:#F08384;}
	.st41{fill:#0483C3;}
	.st42{fill:#E88385;}
	.st43{fill:#04B0AC;}
	.st44{fill:#F48383;}
	.st45{fill:#0CAFDC;}
	.st46{fill:#D3F2DC;}
	.st47{fill:#08B0DD;}
	.st48{fill:#03B2AD;}
	.st49{fill:#0483C4;}
	.st50{fill:#03B1AC;}
	.st51{clip-path:url(#SVGID_18_);}
	.st52{clip-path:url(#SVGID_20_);}
	.st53{fill:#214578;}
	.st54{fill:#D0EED9;}
	.st55{fill:#C6E4D4;}
	.st56{fill:#EE8183;}
	.st57{fill:#0A84C2;}
	.st58{fill:#05B0AC;}
	.st59{fill:#E98083;}
	.st60{fill:#06ABA9;}
	.st61{fill:#CCE9D7;}
	.st62{fill:#09ABD8;}
	.st63{fill:#E37E82;}
	.st64{fill:#09A5A6;}
	.st65{fill:#BFDACE;}
	.st66{fill:#D87A81;}
	.st67{fill:#AECBC5;}
	.st68{fill:#F05A5E;}
	.st69{clip-path:url(#SVGID_22_);}
	.st70{clip-path:url(#SVGID_26_);}
	.st71{clip-path:url(#SVGID_30_);}
	.st72{clip-path:url(#SVGID_34_);}
	.st73{fill:none;stroke:#000000;stroke-miterlimit:10;}
</style>
<g>
	<path class="st37" d="M806.3,14.6c3.1,0.6,4.7,3,6.2,5.4c4.5,7,9,14,13.6,20.8c5.1,7.6,11.5,14,18.5,19.9c3.6,3,7.9,5.1,12.1,7.3
		c3.5,1.8,6.8,3.8,10.6,4.8c5.7,1.6,11.4,3.2,17.2,4.1c0,0,0.1,0,0.1,0c2.7,1.3,5.2,0.3,7.8-0.4c6.4-1.7,12.9-2.9,19.5-3.4
		c5.8-0.5,11.5-0.2,17.3-0.4c4.5-0.2,9-0.3,13.4-0.8c3.6-0.4,7.1-0.2,10.6,0.3c3.7,0.5,7.3-0.2,10.9-0.7c0.8-0.1,1.7-0.2,2.6-0.3
		c0.8-0.1,1.5,0.3,2,1c0.5,0.7,0.2,1.4-0.2,2.1c-1.3,2.1-3.5,3-5.5,3.9c-2.7,1.3-5.5,2.5-8.5,3c-0.1,0.3,0.1,0.2,0.2,0.2
		c4.4,0,8.9,0.6,13.3-0.2c1-0.2,1.9-0.4,2.9-0.3c1,0.1,1.7,0.5,2.1,1.4c0.4,1-0.4,1.4-1,1.9c-1.6,1.4-3.7,2-5.6,2.8
		c-5.4,2.3-11.2,3.8-16.7,5.9c-6.8,2.6-13.4,5.8-20.4,8c-15.5,5.1-30.4,12-45.8,17.5c-9.4,3.4-18.7,6.9-28.1,10.2
		c-13.2,4.5-26.3,9.3-39.1,15c-5.2,2.3-10.1,5.2-15,8.1c-2.6,1.6-5.1,3.2-7.7,4.9c-1.6,1.1-3.4,1.7-5.2,2.2c-3.4,1-5.9,2.9-8.1,5.6
		c-2.3,2.7-5.2,4.5-8.9,4.8c-1.6,0.1-2.7,1.3-3.8,2.3c-2.3,2.2-4,4.9-5.7,7.5c-5.4,8.8-10.3,17.9-15.6,26.8
		c-5.8,9.9-12.9,18.6-22.2,25.5c-1.2,0.9-2.5,1.3-3.8,2.1c-0.6,0.3-1.2,0.3-1.6-0.3c-0.4-0.6,0-1,0.4-1.4c1.9-1.9,4.1-3.5,6-5.4
		c4.5-4.3,8.1-9.3,11.4-14.4c3.7-5.8,7.2-11.7,10.7-17.5c4.5-7.5,9.4-14.8,13.9-22.3c0.6-1.1,1.5-2,1.8-3.4
		c-0.7,0.4-1.4,0.9-2.1,1.3c-0.5,0.3-1,0.6-1.5,0.8c-0.6,0.2-1.2,0.3-1.6-0.2c-0.5-0.5-0.4-1.1-0.2-1.6c1.6-3,3-6.2,6.5-7.7
		c1-0.4,2-1.1,2.8-2c0.8-0.9,0.6-1.6-0.3-2.2c-1.4-1.1-2.8-2.2-4.2-3.4c-0.7-0.7-1.5-1.4-1.9-2.4c-0.9-2-0.4-3.3,1.7-3.8
		c3.1-0.8,6.1-1.8,9.3-2.2c0.8-0.1,1.4-0.5,1.9-1.1c3.2-3.8,5.3-8.1,6.5-12.9c1.1-4.4,2.5-8.8,3.5-13.2c0.7-3.1,0.7-6.3,0.9-9.4
		c0.3-3.4,0.9-6.7,1.7-10c1.3-5.2,4.4-9.6,6.7-14.4c2-4.1,4.3-8.1,5.7-12.5c0.6-1.7,0.4-3.2-0.5-4.8c-0.8-1.4-1.5-3-2.2-4.5
		c-0.3-0.7-0.5-1.4,0-2c0.6-0.7,1.3-0.4,1.9-0.1c1.2,0.5,2.3,1.1,3.4,1.8c0.8,0.5,1.1,0.3,1.4-0.5c2-5,3.5-10.1,3.7-15.4
		c0.1-3.2,0.4-6.5,0.4-9.7c0-3.7-0.3-7.3-0.9-10.9c-0.4-2.3-0.7-4.5-1.1-6.8c-0.3-1.6,0.1-3,1.2-4.2C806,14.6,806.1,14.6,806.3,14.6
		z M785,150.5c-0.1,0-0.2,0.1-0.3,0.2c-0.4,0.1-0.6,0.4-0.9,0.7c-1.9,1.6-3.8,3.3-5.8,4.8c-1.1,0.8-2.3,1.4-3,2.6
		c1.7-0.5,3.4-0.8,4.7-2.3c0.9-1.2,2.1-2.1,3.2-3.2c0.7-0.7,1.6-1.4,2-2.4C784.9,150.7,785,150.6,785,150.5c0-0.1,0.1-0.1,0.1-0.1
		c0,0-0.1,0-0.1,0C785,150.4,785,150.4,785,150.5z M732,221.7c-0.4,0.3-0.9,0.7-1.2,1.4c0.7-0.3,1-0.6,1.2-1.2
		c0.2-0.1,0.5-0.1,0.3-0.4C732.3,221.4,732.1,221.5,732,221.7z M946,92.4c0.2,0,0.3,0,0.4-0.2l0,0c2.1-0.5,4.1-1.4,6.1-2.2
		c0.6-0.1,1.2-0.2,1.7-0.6c2.3-0.3,4.5-1.1,6.2-2.8c0.4-0.2,0.7-0.5,0.9-0.9c1-1.1,2.6-1.4,3.7-2.5c-1.1-0.4-1.9,0-2.8,0
		c-2.5,0-5.2-1-7.3,1.3l0,0c-3.2,0.8-6.5,1.7-8.5,4.7c-0.4,0.6-0.8,1.1-1.3,1.7c-0.1,0.1-0.2,0.2-0.3,0.4c-1.2,0.7-1.9,1.8-2.9,2.6
		c0.1,0.1,0.1,0.2,0.2,0.3C943.5,93.5,944.8,92.9,946,92.4L946,92.4z M769,167.3c0.8,0,1.7,0.2,2.5-0.2c-0.3-0.5-0.8-0.9-0.6-1.5
		c0.2-0.9-0.3-1.1-1.1-1.1c-0.2-0.3-0.4-0.7-0.7-1.1c-0.8,1.4-2,2.4-2.5,3.9C767.4,167.3,768.2,167.3,769,167.3z M880.7,100.3
		c1.6-0.1,3.2-0.5,4.7-1.1c0-0.1-0.1-0.2-0.1-0.4c-1.5,0.3-3,0.7-4.6,1c-0.8-0.1-1.5,0.3-2.3,0.5c-2.9,0.9-6,1.2-8.5,3
		c-0.9,0.6-1.9,0.8-3,0.7c-2.4-0.3-4.8-0.6-7.1-1.2c-0.4-0.1-0.8-0.3-1.2-0.1c0.1,0.3,0.3,0.3,0.5,0.4c4.4,1.8,9,2.5,13.8,2.4
		c4.7-0.1,9.3-0.4,14-1c7.6-0.9,14.7-3.5,21.3-7.3c2.2-1.3,4.3-2.8,6-4.7c0,0,0.1,0,0.1,0c0,0,0,0,0-0.1c0,0-0.1,0.1-0.1,0.1
		c-2.6,0.2-5.3,0.4-7.9,0.6c-2,0.1-4,0.1-6,0.8c-1.3,0.5-2.4,1.4-3.6,1.9c-2.8,1.2-5.8,2.1-8.8,2.4c-0.7,0.1-1.4,0.3-1.9,0.8
		c1,0,2-0.1,3-0.2c1.8-0.3,3.5-0.7,5.3-0.8c0.5,0,1.2-0.1,1.3,0.7c0.1,0.7-0.3,1-0.9,1.2c-3.3,1.2-6.6,2.1-10.1,2.8
		c-3.9,0.8-8,0.8-11.9,1.1c-0.7,0.1-1.4,0.2-2.1,0.2c-0.6,0-0.2-0.3,0-0.4c1.9-1,3.8-1.8,5.9-2.1
		C877.9,101.2,879.3,100.9,880.7,100.3z M877.2,118.4L877.2,118.4c2.1-0.4,4.2-1.1,6.2-2.1c2.6-0.8,5-1.8,7.5-2.9
		c2.8-0.9,5.6-2,8.3-3.3c1.4-0.4,2.8-1,4.1-1.7c1.1-0.3,2.1-0.7,3-1.2c1-0.3,2-0.6,2.9-1.1c1-0.2,1.9-0.6,2.8-1
		c0.7-0.2,1.4-0.4,2.2-0.9c-0.9,0-1.5,0.3-2.2,0.5c-0.3,0-0.6,0-0.9,0c-1.4-0.1-2.3-1-2.6-2.3c-0.3-1.4,0.3-2.4,0.9-3.5
		c0.2-0.3,0.6-0.5,0.3-1.1c-1.7,1.3-3.7,2-5.5,3.1c-0.3,0.1-0.6,0.3-0.9,0.4c-7.5,3.5-15.5,4.9-23.7,5.4c-2.5,0.1-5,0-7.5,0.3
		c-0.4,0-0.9,0-1.3,0c-0.5,0-1,0-1.5,0c-2.4-0.3-4.8-0.6-7.2-1.2c-1.8-0.5-3.6-1.3-5.4-1.9c-3.4-1.8-7.1-2.9-10.6-4.5
		c-0.2-0.1-0.5-0.3-0.7-0.4c-0.1-0.1-0.2-0.2-0.3-0.3c-5.2-3.5-10.1-7.4-15.2-11.2c-2.3-1.7-4.7-3.1-7.4-4.1c-2.7-0.9-5.3-2-8.2-1.2
		c-0.7,0.2-0.9,0.4-0.7,1c0.3,0.9,0.7,1.6,1.2,2.4c0.8,1.2,0.6,1.9-0.6,2.6c-0.8,0.4-0.8,0.8-0.2,1.4c2,1.8,3.2,4.3,5.5,5.8
		c0.3,0.2,0.8,0.7,0.4,1.2c-0.3,0.4-0.8,0.3-1.2,0.2c-1.4-0.3-2.8-0.6-4.2-1c-0.6-0.2-0.8,0-0.8,0.7c0.1,1.3-0.4,1.7-1.6,1.8
		c-0.4,0-0.9,0-1.3-0.1c-1.6-0.2-1.9-0.1-2.1,1.5c-0.2,1-0.7,1.8-1.5,2.4c-0.6,0.4-1,1-1.1,1.7c-0.2,0.7-0.5,1.4-0.9,2
		c-0.8,1.2-1.4,2.6-1.9,4c-0.2,0.6-0.3,1.2-0.1,1.8c0.6,1.7,0.6,3.3-0.7,4.7c-0.4,0.4-0.8,1.1-0.3,1.7c0.9,1.1,0.9,2.3,0.5,3.5
		c-0.2,0.7,0,0.7,0.6,0.7c1.1,0,2.3,0.2,3.4,0.2c3.1,0.1,6.2,0,9.3-0.2c0.4,0,0.8-0.1,1,0.4c0.1,0.4-0.2,0.6-0.5,0.8
		c-1.4,1.3-3.2,1.9-5,2.5c-0.7,0.2-1.4,0.4-0.8,1.4c0.2,0.3,0.2,0.8-0.1,1.1c-1.2,1.6-1.6,3.6-3,5.1c-0.2,0.2-0.3,0.5-0.1,0.8
		c0.7,1.3,0.6,1.8-0.6,2.8c-1.1,1-2.4,1.7-3.7,2.5c-2.6,1.5-4.8,3.5-6.8,5.8c-1.6,1.5-1.6,1.5-0.7,3.5c0,0,0,0.1,0,0.1
		c-0.1,0.9-0.3,1.7-0.8,2.4c-0.4,0.6-0.1,0.7,0.4,0.8c1.3,0.2,2.4-0.4,3.3-1.2c1.5-0.6,2.7-1.6,4-2.4c1.3-0.4,2.4-1.2,3.6-1.9
		c1.8-1,3.6-1.8,5.2-3c2.1-0.9,4.2-1.9,6.4-2.8c3.1-1.3,6.3-2.6,9.4-3.9c1.9-0.6,3.8-1.3,5.6-2.1c2.2-0.6,4.3-1.5,6.3-2.4
		c2-0.7,3.9-1.4,5.9-2.1c3.3-1,6.6-2.1,9.9-3.4c2.2-0.8,4.4-1.5,6.5-2.5c3-0.8,5.8-1.9,8.6-3.2c0.1-0.1,0.2-0.2,0.2-0.2l0,0
		c2.3-0.5,4.4-1.5,6.6-2.4C877.1,118.6,877.3,118.6,877.2,118.4z M793.9,119.1c0.6-1,1-2.1,1.2-3.2c0.4-0.4,0.4-0.8,0.5-1.3
		c1.1-1.8,1.9-3.7,2.5-5.7c0.5-0.8,0.8-1.6,1-2.4c0.6-1.3,1.2-2.7,1.4-4.1c0.3-0.5,0.5-1.1,0.6-1.7c2.2-5.6,2.1-11.5,1.6-17.4
		c0-0.2,0-0.5-0.3-0.6c-0.3-0.1-0.5,0.2-0.7,0.4c-0.4,0.6-0.7,1.2-0.8,1.9c-0.5,2.1-1.4,4-3.4,5c-2.5,1.3-3.8,3.2-4.3,5.9
		c-0.1,0.6-0.3,1.3-0.9,1.6c-1.5,0.6-1.8,1.8-1.7,3.2c0.1,1-0.1,1.9-0.9,2.5c-0.7,0.5-0.6,1.1-0.2,1.7c0.6,0.9,0.4,1.6-0.3,2.3
		c-0.5,0.5-0.6,0.9-0.2,1.5c0.4,0.6,0.4,1.4,0,2c-0.6,0.8-0.3,1.5,0.3,2.1c0.6,0.6,0.8,1.4,0.8,2.1c-0.2,3.1-0.2,6.3-0.7,9.4
		c-0.3,1.6-0.6,3.2-0.6,5c1-0.7,1.8-1.4,2.5-2.1c0.2-0.1,0.3-0.2,0.5-0.3c0.1,0,0.3-0.1,0.3-0.2c0.4-2,0.9-4.1,1.3-6.1
		C793.7,120.2,793.8,119.7,793.9,119.1z M765.3,162.6c-0.3,0.2-0.6,0.3-1,0.5c-2.4,1-3.5,3.1-4.4,5.4c0,0,0,0-0.1,0c0,0,0,0,0.1-0.1
		c1.8-0.8,3.3-2.2,5-3c0.7-0.4,1.4-1.4,2-2.2c0.5-0.9,1.3-1.7,1.2-2.8C767.3,161.4,766.1,161.7,765.3,162.6z M840.7,93
		c0.3,0.3,0.5,0.9,1.2,0.5c1-0.1,2-0.3,3-0.6c3.7-1.2,7-3.3,10.5-4.8c0.5-0.2,1.2-0.4,1.8-1c-2.9,0.4-5.6,0.8-8.3,1.1
		c-4.1,0.6-8.2,1.1-12.3,0.4c-0.3-0.1-0.6,0-0.7,0.3c-0.1,0.3,0.1,0.6,0.4,0.8C837.7,90.9,839.1,92.1,840.7,93z M924.5,91.1
		c-2.2,1.6-3.5,3.7-2.6,6.5c0.6,1.9,0.3,3.2-1.4,4.3c4.9-1.5,9.8-3.1,14.8-5.1c-0.5-0.1-0.7-0.2-0.9-0.2c-2.6-0.4-3.1-1.6-1.7-3.7
		c0.9-1.3,1.2-2.7,0.8-4.3c-0.2-0.8-0.7-1.2-1.5-1.2c-2.8-0.1-5.1,0.6-6.8,3C924.9,90.7,924.7,90.9,924.5,91.1z M895.3,81.4
		c-3.7,1.1-7.5,1.3-11.3,2.2c0.2,0.3,0.6,0.2,0.9,0.3c2,0.2,2.4,0.7,1.7,2.7c-0.3,0.8,0.1,1.2,0.8,1.1c1.2,0,2.4-0.1,3.5-0.5l0,0
		c0.3,0,0.5-0.1,0.8-0.1c3.5-1,7.1-1.8,10.8-2.1c2.9-0.2,5.8-0.4,8.7-0.7c0.5,0.1,0.9,0.1,1.4,0c0.3,0,0.5,0.1,0.8,0.1
		c2.9-0.2,5.8,0,8.7-0.5c1.6-0.3,3.2,0.1,4.7-0.3c0.4,0,0.9-0.1,1.3-0.1c0.8,0.1,1.5,0.1,2.3-0.3c1.6-0.8,3.1-1.8,5.1-2.1
		c-0.2-0.3-0.3-0.4-0.4-0.6c-1-1.5-0.8-3.4,1.5-3.9c3.2-0.8,6.5-1.2,9.8-1.4c2-0.1,3.8,0.5,4.9,2.4c0.5,0.8,1.6,1.2,2,2.1
		c0.1,0.3,0.5,0.1,0.7,0.1c2.8-0.8,5.6-1.5,8.2-2.9c1.4-0.7,2.9-1.2,3.9-2.4c0.5-0.3,1.1-0.7,0.9-1.3c-0.2-0.4-0.8-0.1-1.3,0
		c-1.4-0.1-2.6,0.1-3.4,1.4c-0.9,1.3-2.1,1.4-3.5,0.8c-0.8-0.3-1.6-0.8-2.5-0.9l0,0c-0.1-0.3-0.4-0.2-0.6-0.2
		c-1.6-0.2-3.2-0.2-4.8,0c-2.7,0.3-5.4,0.5-8.1,0.9c-1.4,0.2-2.8,0.4-4.2,0.4c-4.2,0.1-8.4,0.3-12.6,0.7c-0.8-0.1-1.5,0.1-2.2,0.4
		c0.7,0,1.5,0,2.2,0c0.7,0.3,1.4,0.3,2.2,0.4c0.7,0.1,1.3,0.3,1.3,1.1c0,0.8-0.7,0.8-1.3,0.8c-4.8,0.2-9.5,1-14.3,0.7
		c-3.1-0.2-6.2-0.1-9.3-0.2c-2.9,0-5.6,0.7-8.3,1.8C896,81.2,895.7,81.3,895.3,81.4z M791.3,135.2c0.4-1.4,0.2-2.9,0.4-4.3
		c0.1-0.5,0-1.1,0-1.8c-0.8,0.6-1.4,1.1-2.1,1.6c-0.6,0.4-1.3,0.8-2,0.3c-0.6-0.4-0.4-1.2-0.3-1.7c0.3-3.6,1.2-7.2,1.3-10.9
		c0.1-2,0.6-4-0.9-5.8c-0.4-0.5-0.7-1.1-0.2-1.7c0.6-0.7,0.5-1.4,0-2.1c-0.4-0.6-0.4-1.3,0.2-1.8c0.8-0.7,0.7-1.4,0.3-2.2
		c-0.4-0.8-0.3-1.6,0.3-2.1c1-0.8,1.1-1.9,1-3c-0.1-1.2,0.4-2.2,1.3-2.8c1-0.6,1.3-1.5,1.5-2.5c0.5-2.4,1.8-4.2,4-5.2
		c2.1-0.9,3-2.4,3.6-4.4c0.3-1.1,0.7-2.3,1.7-2.9c1-0.6,0.9-1.1,0.7-2c-0.2-0.6-0.2-1.1-0.3-1.7c-0.3-2-1-3.9-1.8-5.9
		c-0.7,1.8-1.4,3.6-2.2,5.3c-1.8,3.9-3.8,7.7-5.8,11.5c-1.2,2.3-2.5,4.5-3.4,6.9c-1.7,4.6-2.5,9.5-2.7,14.4
		c-0.1,2.4-0.1,4.7-0.5,7.1c-1,5.1-2.5,10-3.9,15c-0.4,1.3-0.8,2.7-1.2,4.1c0.8-0.2,1.1-0.6,1.6-0.9c0.7-0.5,1-0.2,1.1,0.5
		c0,0.3,0,0.7-0.1,1c-0.7,1.8-1.2,3.6-1.8,5.4c-0.3,1.1-1,1.9-2,2.4c-2.7,1.5-5.6,1.7-8.5,2.2c-2.6,0.4-5,1.3-7.5,2
		c1.1,0.1,2.1,0.1,3.2,0.1c0.6,0,1,0.1,1.2,0.7c0,0.6-0.3,1.2-0.6,1.7c-1,1.7-1,2,0.7,3.1c1.6,1.1,2.3,2.6,2.7,4.3
		c0.3,1,0.1,1.9-0.1,3c0.8-0.9,1.8-1.4,2.7-2.2c0.3-0.2,0.4-0.5,0.5-0.9c0.2-1.2,1-2,1.9-2.6c3.4-2.4,6.8-4.9,9.9-7.8
		c0.5-0.4,1.1-1.1,1.7-0.6c0.7,0.5,0.3,1.3-0.1,1.9c-1.2,2.5-3.3,4.3-5.3,6.2c-0.3,0.3-0.7,0.4-0.8,1c1.7-0.2,3.1-0.9,4.5-1.5
		c2.4-1,3.8-2.8,4.1-5.4c0.2-1.4,0.5-2.8,0.8-4.2C790.5,142.5,791.2,138.9,791.3,135.2z M807.2,66.8c4.2,3.4,8.3,6.9,12.7,10.1
		c3.2,2.4,6.3,5,9.3,7.6c2.3,2,4.9,3.1,8,2.9c4.7-0.3,9.3-0.2,13.9-0.9c2.6-0.4,5.2-0.6,7.7-1.3c1.1-0.2,2.2-0.4,3.3-0.7
		c7-2.1,14.1-3.6,21.1-5.5c0.5-0.1,1.1-0.1,1.5-0.5c-6-1.1-11.9-2.4-17.7-4c-4.9-1.4-9.4-4-13.9-6.4c-3.7-1.9-7.4-4.1-10.7-6.7
		c-5.7-4.6-10.7-9.9-15.1-15.7c-5.8-7.5-10.4-15.8-15.5-23.8c-1.2-1.8-2.2-3.7-3.9-5c-0.4-0.3-0.8-0.6-1.3-0.3
		c-0.5,0.3-0.3,0.8-0.3,1.3c0.9,4.7,1.8,9.5,2.1,14.3c0.4,5.8,0.2,11.5-0.4,17.3c-0.5,4.6-1.8,9.1-3.8,13.3
		c-0.4,0.9-0.4,1.6,0.5,2.2C805.5,65.5,806.3,66.3,807.2,66.8z M850.9,98.7c0,0.4,0.3,0.4,0.5,0.5c4,1.5,8.2,2.5,12.4,3.2
		c2.5,0.5,5,0.8,7.3-0.8c0.6-0.4,1.3-0.5,2-0.8c5.3-1.7,10.7-2.8,16.1-3.8c3.4-0.7,6.6-1.5,9.7-3.3c1.4-0.8,3.1-1.2,4.8-1.5
		c3.6-0.5,7.2-0.3,10.8-1.1c0.5-0.1,1.3-0.3,1.6,0.3c0.4,0.7-0.1,1.3-0.5,1.8c-0.2,0.2-0.4,0.4-0.6,0.6c-2.5,1.6-3.5,4.4-5,6.8
		c-0.4,0.7-0.5,1.3-0.1,2c0.4,0.7,1.1,0.9,1.8,0.7c2.7-0.7,5.3-1.5,7.8-2.7c1-0.5,1.3-1.3,1-2.5c-0.8-2.8-0.3-5.2,2-7.2
		c0.7-0.6,1.4-1.3,2-2c2.2-2.4,4.9-3,7.9-2.5c0.8,0.1,1.4,0.6,1.7,1.4c0.6,2,0.8,4-0.9,5.7c-0.3,0.3-0.6,0.8-0.4,1.3
		c0.2,0.5,0.7,0.5,1.2,0.5c0.6,0,1.2,0,1.9-0.1c4-0.6,6.6-3.4,9.1-6.1c2.1-2.3,4.3-4.3,7.4-5.2c0.9-0.2,1.8-0.5,2.8-1.1
		c-0.4,0-0.6-0.1-0.8-0.1c-1.4,0.1-2.9-0.2-4.3-0.1c-1.4,0-2.8-0.3-4.3-0.3c-2.8-0.1-5.5,0-8.3-0.3c-2-0.2-3.6,0.2-5.1,1.3
		c-0.8,0.6-1.8,1.1-2.8,1.1c-4.1,0.3-8.3,0.8-12.4,0.8c-5.1,0.1-10.1,0.4-15.2,0.8c-2.5,0.2-4.9,0.5-7.3,1.2
		c-2.1,0.6-4.2,1.3-6.5,1.5c-2.1,0.2-3.1-0.9-2.5-2.9c0.2-0.6-0.1-0.9-0.6-1c-1.1-0.1-2.2-0.4-3.4-0.3c-3.8,0.3-7.5,0.8-11.2,1.6
		c-1.9,0.4-3.8,0.8-5.4,1.8c-1.5,1-2.9,2-4.6,2.4c-0.9,0.3-1.8,0.6-2.7,1c-0.6,0.2-1.2,0.6-1.1,1.4c0.1,0.7,0.7,0.8,1.3,0.9
		c2.5,0.6,4.5,2.1,6.2,3.9c0.2,0.2,0.5,0.5,0.3,0.9c-0.1,0.3-0.4,0.5-0.7,0.5c-1.9,0.1-3.9,0.2-5.8-0.1
		C855.7,98.8,853.3,98.6,850.9,98.7z M772.8,162.2c0.7,0.3,1.1,0,1.6-0.2c4.6-1.4,9.1-3.2,13.7-4.9c2.4-0.9,4.8-1.8,6.8-3.6
		c-1.8-0.9-1.8-0.9-0.9-2.6c0.2-0.3,0.3-0.6,0.5-0.9c0.1-0.3,0.2-0.6,0-1c-1-1.7-0.9-2.4,0.4-3.8c2.5-2.7,5.2-5.1,8.3-6.9
		c1.1-0.7,2.3-1.3,3.2-2.3c0.3-0.3,0.6-0.6-0.1-0.8c-0.7-0.3-0.7-0.9-0.3-1.4c1.4-1.6,2.2-3.5,3.2-5.3c0.3-0.5,0.8-1,0.2-1.7
		c-0.3-0.3-0.2-0.8,0.3-1.1c0.4-0.3,0.9-0.5,1.3-0.7c1.2-0.5,2.4-0.9,3.6-1.8c-0.7,0-1.2,0.1-1.7,0.1c-3.5,0.4-7.1,0.1-10.6-0.2
		c-1.3-0.1-1.4-0.6-0.9-1.7c0.4-0.8,0.7-1.8,0.1-2.6c-1-1.3-0.7-2.5,0.2-3.6c0.8-1,0.9-2,0.5-3.2c-0.4-1.1-0.3-2.1,0.1-3.1
		c0.3-0.6,0.4-1.4,0.8-1.9c1.5-2,1.5-5,3.9-6.5c0.2-0.1,0.3-0.4,0.4-0.7c1.1-2.9,1.1-2.9,4.1-2.8c0.8,0,1.4-0.2,1.1-1.2
		c-0.4-1.3,0.1-1.7,1.4-1.4c1.1,0.2,2.1,0.4,3.5,0.7c-1.7-1.8-2.8-3.6-4.4-5.1c-1.2-1.2-1.2-1.9,0.3-2.8c0.8-0.5,0.8-0.9,0.3-1.6
		c-0.7-0.9-1.2-2-1.4-3.2c-0.2-1.1,0.2-1.6,1.4-1.6c0.5,0,1.1,0.1,1.5-0.1c0.8-0.4,1.5-0.3,2.2-0.2c1.9,0.4,3.7,0.9,5.5,1.5
		c0-0.4-0.3-0.5-0.5-0.7c-2-1.7-4-3.3-6-5c-5.2-4.1-10.3-8.4-15.5-12.6c-0.9-0.7-1.9-1.3-3.1-1.5c0,0.5,0.2,0.9,0.4,1.2
		c1.6,3,2.8,6.2,4,9.5c1.3,3.9,2.1,7.9,2.4,12c0.3,3.8,0.4,7.7-0.4,11.4c-1.2,5.6-3.3,11-5.6,16.2c-1.3,2.9-2.4,5.7-3.4,8.7
		c-1.3,4.1-1.6,8.3-1.9,12.5c-0.3,5.9-1.3,11.6-2.8,17.2c-0.7,2.5-2.1,4.3-4.4,5.5c-2.4,1.2-4.9,2-7.5,2.5
		C776.6,159.8,774.5,160.6,772.8,162.2z M950.5,73.6c-2.7-0.6-5.4-0.5-8-0.3c-5.7,0.4-11.5,1.1-17.2,1.1c-1.4,0-2.7,0-4.1,0.1
		c-3.3,0.2-6.7,0.2-10,0.5c-5.5,0.5-10.9,1.4-16.2,2.8c-7.3,1.9-14.5,3.8-21.8,5.7c-0.7,0.2-1.5,0.4-2,1.1c0.6,0,0.9,0,1.3-0.1
		c3.8-0.7,7.7-1.1,11.5-2c4.3-1.1,8.9-1.2,13.1-2.9c2-0.8,4-1.3,6.1-1.3c4.1-0.1,8.1,0,12.2,0c1.2,0,2.4,0.3,3.6,0.1
		c1.9-0.2,3.7-0.5,5.6-0.4c0.8,0,1.6-0.1,2.4-0.3c-0.7-0.3-1.4-0.3-2.1-0.4c-0.9,0-1.7,0.1-2.6-0.2c-0.4-0.2-1-0.2-0.9-0.8
		c0.1-0.5,0.6-0.5,1-0.6c2.8-0.7,5.7-0.7,8.5-0.9c5-0.3,10-0.3,15-0.8C947.4,73.9,948.9,73.7,950.5,73.6z M862.3,97.9
		c-0.2-0.5-0.5-0.7-0.8-0.9c-1.3-1-2.8-1.6-4.4-2.1c-1.9-0.6-2.2-2.4-0.7-3.8c0.7-0.7,1.6-0.9,2.5-1.3c1.3-0.5,3-0.5,3.8-1.6
		c0.8-1.1,1.8-1.5,2.8-2.1c0.2-0.2,0.6-0.2,0.6-0.7c-1.6,0.4-3.2,0.8-4.7,1.4c-6.2,2.3-11.7,6.2-18.4,8.1c1.9,1,3.4,2.3,5.5,2.2
		c2.2,0,4.4,0.3,6.6,0.4C857.4,97.5,859.8,98.3,862.3,97.9z M762.8,174.9c-1,0-1.6,0.3-2,1c-2.7,5.1-6.4,9.7-9.2,14.8
		c-2.7,4.9-5.9,9.4-8.7,14.2c-3,5.2-6.1,10.4-9.9,15.2c-0.2,0.3-0.6,0.6-0.5,1.1c0.6-0.2,0.9-0.6,1.2-1c4-4.2,7.1-9.1,10.2-14
		c2.8-4.4,5.2-9.2,7.9-13.7C755.5,186.6,758.6,180.6,762.8,174.9z M946.1,80.9c2,0,3.9,0.1,5.8-0.7c0.3-0.1,0.6-0.1,0.7-0.5
		c0.1-0.4-0.2-0.7-0.5-0.8c-0.8-0.4-1.3-1.1-1.9-1.7c-0.5-0.5-1.1-0.8-1.9-1c-1.6-0.4-3.2,0.2-4.7,0.3c-2.3,0.2-4.5,0.5-6.7,1.2
		c-1.1,0.3-1.2,0.7-0.7,1.7c0.3,0.5,0.7,0.7,1.2,0.8C940.3,80.8,943.2,80.9,946.1,80.9z M781.4,137.5c-1.3,0.2-2,0.9-2.5,2
		c-0.3,0.7-0.8,1.3-1.2,1.9c-0.7,1-1.4,2.1-2.2,3.2C778.7,144.3,780.4,142.2,781.4,137.5z M962,86.8c0.3-0.1,0.5-0.1,0.6-0.1
		c1.6-0.6,3.1-1.2,4.7-1.9c1.2-0.5,2.5-0.9,3.5-1.7c0.2-0.2,0.6-0.2,0.3-0.6c-0.2-0.3-4.9,0.2-5,0.6c-0.3,1.2-1.4,1.6-2.3,2.1
		C963.1,85.6,962.5,85.9,962,86.8z M893,99.3c-1.9-0.1-13.7,2.3-16,3.2C882.6,101.9,887.9,101.5,893,99.3z M779.7,162.1
		c-2.5,0.8-4.8,1.5-7,2.4c-0.5,0.2-0.4,0.7-0.2,1.1c0.2,0.4,2.2,0.8,2.6,0.6C776.8,165.2,778.3,163.9,779.7,162.1z M767.7,169.3
		c-0.9,0.1-2.2-0.5-2.7-0.1c-1.1,1-1.9,2.3-2.5,3.8C764.5,172.1,766,170.7,767.7,169.3z M766,150.6c-1.1,0-2,0-2.9,0
		c-0.2,0-0.7,0-0.4,0.4c0.5,0.8,1.2,1.5,2,1.7c0.5,0.1,0.6-0.9,0.9-1.3C765.7,151.2,765.8,151,766,150.6z M959.2,74.1
		c0.7,0.3,1.3,0.5,1.9,0c0.1,0,0.1-0.3,0.1-0.3c-0.6-0.3-1.3-0.1-1.9,0.1C959.2,73.9,959.2,74,959.2,74.1z M870.8,84.6
		c-0.5,0.1-1,0-1.3,0.5C870,85.1,870.4,85.1,870.8,84.6z M868.9,85.2C868.8,85.2,868.8,85.2,868.9,85.2c-0.1,0-0.1,0-0.1,0
		C868.8,85.3,868.8,85.3,868.9,85.2C868.8,85.3,868.8,85.2,868.9,85.2z M858,102.6C858.1,102.6,858.1,102.6,858,102.6
		c0.1-0.1,0-0.1,0-0.1C858,102.5,858,102.6,858,102.6C858,102.6,858,102.6,858,102.6z M893.7,99.1c-0.1,0-0.1,0-0.2,0
		C893.6,99.1,893.6,99.1,893.7,99.1C893.6,99.1,893.7,99.1,893.7,99.1z M857.5,87.1L857.5,87.1L857.5,87.1L857.5,87.1z M941.7,94.2
		L941.7,94.2L941.7,94.2L941.7,94.2z"/>
	<path class="st44" d="M911.9,105.2c-0.9,0.4-1.8,0.8-2.8,1c-1.7-0.9-3.4-1.8-5.3-2.4c-0.4-0.1-0.7-0.3-1,0.2
		c-1.3,2-2.7,3.9-3.7,6.1c-2.7,1.3-5.4,2.3-8.3,3.3c-0.4-0.1-0.9-0.3-1.3-0.4c-1.9-0.4-3.8-0.7-5.7-1.3c-1.8-0.6-3.7-1-5.5-1.5
		c-0.8-0.2-1.2,0-1.7,0.6c-0.9,1.3-1.8,2.6-2.7,3.9c-1.4,2-2.4,4.1-3.6,6.2c0,0,0,0,0,0c-0.1,0.1-0.2,0.2-0.2,0.2
		c-2.8,1.2-5.6,2.4-8.6,3.2c-5.2-1.6-10.4-3.5-15.6-5c-0.9-0.3-1.3-0.1-1.6,0.7c-1.8,4.1-3.9,8-5.1,12.4c-2.1,0.9-4.1,1.8-6.3,2.4
		c-4.6-1.7-9.4-2.5-14-3.9c-0.8-0.2-1.4,0.1-1.7,0.9c-0.3,0.8-0.7,1.6-1,2.4c-1.4,3.3-3.1,6.4-4.6,9.5c-1.6,1.3-3.4,2.1-5.2,3
		c-1.2,0.6-2.3,1.5-3.6,1.9c-2-1.4-4.3-2.1-6.4-3.2c2-2.2,4.2-4.2,6.8-5.8c1.3-0.8,2.6-1.4,3.7-2.5c1.1-1,1.2-1.5,0.6-2.8
		c-0.2-0.4-0.1-0.6,0.1-0.8c1.3-1.5,1.7-3.6,3-5.1c0.3-0.3,0.3-0.8,0.1-1.1c-0.6-1,0.1-1.2,0.8-1.4c1.8-0.6,3.5-1.3,5-2.5
		c0.3-0.2,0.6-0.4,0.5-0.8c-0.1-0.5-0.6-0.5-1-0.4c-3.1,0.3-6.2,0.3-9.3,0.2c-1.1,0-2.3-0.1-3.4-0.2c-0.5,0-0.8-0.1-0.6-0.7
		c0.5-1.2,0.5-2.4-0.5-3.5c-0.5-0.6-0.1-1.2,0.3-1.7c1.3-1.4,1.3-3,0.7-4.7c-0.2-0.6-0.2-1.2,0.1-1.8c0.5-1.4,1.1-2.8,1.9-4
		c0.4-0.6,0.7-1.3,0.9-2c0.2-0.7,0.5-1.3,1.1-1.7c0.8-0.6,1.3-1.4,1.5-2.4c0.3-1.6,0.5-1.7,2.1-1.5c0.4,0,0.9,0.1,1.3,0.1
		c1.3-0.1,1.7-0.5,1.6-1.8c0-0.7,0.2-0.8,0.8-0.7c1.4,0.4,2.8,0.7,4.2,1c0.4,0.1,0.9,0.3,1.2-0.2c0.4-0.5-0.1-1-0.4-1.2
		c-2.3-1.5-3.5-4-5.5-5.8c-0.7-0.6-0.6-0.9,0.2-1.4c1.2-0.7,1.4-1.4,0.6-2.6c-0.5-0.8-1-1.5-1.2-2.4c-0.2-0.6,0-0.8,0.7-1
		c3-0.9,5.6,0.2,8.2,1.2c2.7,0.9,5.1,2.3,7.4,4.1c5,3.8,10,7.7,15.2,11.2c0.1,0.1,0.2,0.2,0.3,0.3c-2.2,0.1-4.3-0.1-6.2-1.3
		c-0.6-0.4-1.1-0.4-1.3,0.5c-0.1,0.5-0.4,0.9-0.7,1.3c-1.1,1.9-2.4,3.5-4.3,4.7c3.3-0.2,6.3,0.5,9.2,2c0.5-2.9,2.4-4.8,4.1-6.9
		c3.5,1.6,7.2,2.6,10.6,4.5c-1.8,2.7-3.6,5.3-5.6,7.9c-0.2,0.3-0.5,0.6,0.1,0.8c1.4,0.4,2.7,1.1,4.2,1.2c2.3,0.1,4.5,0.6,6.7,1
		c0.8,0.2,1.4,0.1,1.9-0.6c1.7-2.4,3.5-4.8,5.2-7.1c0.5,0,1,0,1.5,0c-0.1,0.5,0,1,0.6,1c0.7,0,0.8-0.4,0.7-1c2.5-0.2,5-0.1,7.5-0.3
		c8.2-0.5,16.2-1.9,23.7-5.4c0,0.5,0,1,0.6,1c0.3,0,0.6-0.1,0.7-0.4c0.2-0.5,0-0.8-0.5-1c1.8-1.1,3.8-1.8,5.5-3.1
		c0.3,0.6-0.1,0.8-0.3,1.1c-0.6,1.1-1.3,2.1-0.9,3.5c0.3,1.3,1.2,2.2,2.6,2.3c0.3,0,0.6,0,0.9,0C911.9,105,911.9,105.1,911.9,105.2z
		 M829.6,91.1c0.4-0.6,1-1.3-0.3-1.5c-0.2-0.1-0.3-0.2-0.5-0.3c-0.9-0.6-1.2,0.2-1.6,0.8c-0.5,0.8,0.3,0.8,0.7,1.1
		c0.2,0.1,0.4,0.2,0.6,0.3C829,91.9,829.4,91.7,829.6,91.1z M818.8,87.5c0.5,0.2,0.9,1,1.4,0c0.5-1,0.4-1.2-0.9-1.6
		c-0.5-0.2-1.1-0.5-1.3,0.5C817.8,87.1,818,87.4,818.8,87.5L818.8,87.5z M817.8,107.4c-0.4,0-0.8,0-1.2,0c-1.6,0-3.1,0.1-4.6-0.3
		c-1-0.2-1.8-0.9-2.8-1.2c0,2.7-1.9,4.3-3.3,6.4c2.5-0.2,4.7,0.3,6.8,1.4c0.5,0.3,0.7,0,0.8-0.4c0.6-1.9,1.8-3.3,3.1-4.7
		C817,108.2,817.6,108,817.8,107.4C817.8,107.3,817.8,107.3,817.8,107.4c0.1-0.1,0.1-0.1,0.1-0.1
		C817.8,107.3,817.8,107.3,817.8,107.4z M825.4,111.1c-0.5,0-0.5,0-1.1,0.7c-2.5,3-4,6.6-5.7,10c-0.3,0.7-0.1,0.8,0.5,0.9
		c3.7,0.3,7.3,1.3,10.8,2.3c0.7,0.2,1.1,0.1,1.4-0.5c1.9-3.3,4.5-6.3,6.6-9.5c0.5-0.8,0.3-1-0.5-1.2c-2.6-0.5-5.2-1.2-7.7-1.9
		C828.4,111.5,826.9,111.3,825.4,111.1z M819.2,100.2c1.2,0.2,2.2,0.6,3.1,1c0.5,0.2,0.8,0.2,1.1-0.4c0.4-0.9,1-1.7,1.5-2.5
		c-0.3-0.4-0.8-0.4-1.2-0.5c-1.4-0.4-3-1-3.6,1.2C820.1,99.4,819.7,99.7,819.2,100.2z M834,110.4c0.7,0,1.2-0.2,1.1-0.9
		c-0.1-0.8-0.5-1.4-1.3-1.4c-0.6,0-1,0.4-1,1.1C832.8,110,833.4,110.3,834,110.4z M831.1,96c0-0.6-0.4-0.9-1-1c-0.6,0-1.1,0.3-1.1,1
		c0,0.7,0.4,1.1,1.1,1.2C830.7,97.2,831.1,96.9,831.1,96z M807.1,118.1c-0.6,0-1.1,0.3-1.1,1c0,0.7,0.5,1.1,1.2,1.1
		c0.6,0,1-0.5,1-1.1C808.3,118.5,807.8,118.1,807.1,118.1z M825.2,105.9c-0.1-0.5-0.4-0.9-1-0.9c-0.6,0-1,0.3-1,0.9
		c0,0.7,0.5,1.1,1.1,1.1C824.8,107,825.2,106.7,825.2,105.9z M815.4,117.5c0-0.7-0.3-1-1-1c-0.5,0-0.9,0.2-0.9,0.8
		c0,0.6,0.3,1,1,1.1C815.1,118.4,815.4,118.1,815.4,117.5z M822.2,91.9c0-0.6-0.4-0.9-1-0.9c-0.6,0-1,0.4-0.9,1
		c0,0.6,0.5,0.9,1.1,0.9C822.1,92.8,822.2,92.4,822.2,91.9z M802.7,142.7c-0.1-0.5-0.4-0.9-1-0.9c-0.6,0-0.9,0.4-0.9,1
		c0,0.6,0.3,0.8,0.9,0.8C802.4,143.7,802.6,143.3,802.7,142.7z M847.4,114.1c-0.1-0.5-0.4-0.9-1-0.9c-0.5,0-0.9,0.3-0.9,0.9
		c0,0.6,0.4,0.9,1,0.9C847.1,115.1,847.3,114.7,847.4,114.1z M896.9,109.8c0-0.6-0.3-0.9-0.8-0.9c-0.6-0.1-1,0.4-1,0.9
		c0,0.5,0.3,0.8,0.9,0.8C896.5,110.6,896.8,110.4,896.9,109.8z M826.1,86.2c0-0.5-0.3-0.8-0.9-0.9c-0.5-0.1-0.9,0.1-1,0.7
		c-0.1,0.6,0.2,1,0.8,1.1C825.7,87.2,826,86.8,826.1,86.2z M837.4,93.8c-0.2-0.4-0.4-0.8-1-0.8c-0.6,0-0.9,0.3-0.8,0.9
		c0,0.6,0.4,0.9,0.9,0.8C837,94.8,837.3,94.4,837.4,93.8z M863.4,116.7c0-0.6-0.3-1-0.9-1c-0.5,0-0.8,0.3-0.7,0.8c0.1,0.5,0.4,1,1,1
		C863.3,117.6,863.4,117.2,863.4,116.7z M901.5,104.2c-0.1-0.5-0.4-0.9-0.9-0.9c-0.6,0-0.8,0.3-0.8,0.9c0,0.5,0.3,0.8,0.8,0.8
		C901.1,105,901.4,104.8,901.5,104.2z M808,143.9c0.4-0.1,0.8-0.3,0.7-0.9c0-0.5-0.4-0.8-1-0.8c-0.6,0-0.8,0.4-0.8,0.9
		C807,143.7,807.4,143.9,808,143.9z M865.9,121.3c-0.1-0.5-0.4-0.8-0.8-0.8c-0.5,0-0.9,0.3-0.9,0.8c0,0.5,0.4,0.8,0.9,0.8
		C865.6,122.1,865.8,121.8,865.9,121.3z M843,110.8c-0.1-0.5-0.4-0.8-0.9-0.9c-0.5,0-0.8,0.3-0.8,0.8c0,0.5,0.2,0.8,0.7,0.9
		C842.5,111.6,842.8,111.3,843,110.8z M834,131.2c0.4,0,0.8-0.2,0.8-0.7c0-0.6-0.4-0.9-0.9-1c-0.5,0-0.7,0.3-0.7,0.7
		C833.2,130.9,833.5,131.2,834,131.2z M894.4,105c-0.5,0-0.8,0.3-0.8,0.8c0,0.5,0.2,0.8,0.7,0.8c0.5,0,0.8-0.2,0.9-0.7
		C895.2,105.4,894.9,105.1,894.4,105z M837.8,125.1c0-0.5-0.3-0.8-0.8-0.9c-0.5-0.1-0.9,0.2-0.9,0.7c0,0.5,0.4,0.9,0.9,0.9
		C837.5,125.8,837.7,125.5,837.8,125.1z M892.6,108.1c-0.1-0.4-0.4-0.7-0.9-0.7c-0.5,0-0.7,0.4-0.7,0.9c0,0.5,0.3,0.7,0.7,0.7
		C892.3,108.9,892.5,108.6,892.6,108.1z M822.6,128c-0.3,0.1-0.7,0.3-0.6,0.8c0.1,0.5,0.4,0.7,0.9,0.7c0.5,0,0.7-0.3,0.7-0.8
		C823.5,128.3,823.1,128.2,822.6,128z M813.7,103.6c0.6,0,0.9-0.2,0.9-0.6c0-0.4-0.3-0.7-0.7-0.7c-0.4,0-0.8,0.2-0.8,0.7
		C813.1,103.3,813.4,103.6,813.7,103.6z M829.2,127.6c-0.1-0.4-0.4-0.7-0.9-0.7c-0.4,0-0.7,0.2-0.6,0.6c0,0.5,0.3,0.8,0.8,0.8
		C828.9,128.2,829.1,128,829.2,127.6z M849.9,104.6c0.4,0,0.7-0.3,0.7-0.7c0-0.4-0.3-0.7-0.7-0.7c-0.4,0-0.7,0.2-0.8,0.7
		C849.1,104.3,849.4,104.5,849.9,104.6z M821.2,124.5c-0.4,0.1-0.7,0.3-0.7,0.7c0,0.4,0.2,0.6,0.7,0.7c0.4,0,0.8-0.1,0.8-0.6
		C821.9,124.8,821.6,124.6,821.2,124.5z M887,109.4c-0.1-0.4-0.3-0.6-0.7-0.6c-0.4,0-0.6,0.3-0.6,0.7c0,0.3,0.2,0.6,0.5,0.6
		C886.7,110.1,886.9,109.8,887,109.4z M856,119.9c0.4,0,0.7-0.2,0.7-0.6c0-0.4-0.1-0.7-0.6-0.7c-0.4,0-0.7,0.2-0.7,0.6
		C855.4,119.6,855.6,119.8,856,119.9z M804.4,146.2c0-0.3-0.2-0.6-0.5-0.6c-0.4,0-0.6,0.2-0.6,0.6c0,0.4,0.3,0.6,0.6,0.6
		C804.2,146.8,804.4,146.6,804.4,146.2z M852.9,116.7c-0.4,0-0.6,0.2-0.6,0.6c0,0.3,0.1,0.6,0.5,0.6c0.4,0,0.6-0.2,0.6-0.7
		C853.5,116.8,853.3,116.7,852.9,116.7z M810.7,135.4c0-0.3-0.2-0.6-0.6-0.6c-0.4,0-0.6,0.2-0.6,0.6c0,0.4,0.2,0.6,0.6,0.5
		C810.5,135.9,810.7,135.8,810.7,135.4z M873.5,110.4c0.3,0,0.5-0.1,0.6-0.5c0-0.3-0.1-0.4-0.4-0.5c-0.3,0-0.6,0-0.6,0.3
		C873,110.1,873.2,110.3,873.5,110.4z M869.8,114.4c0.3,0,0.4-0.2,0.4-0.5c0-0.3-0.2-0.5-0.5-0.4c-0.3,0-0.4,0.3-0.3,0.5
		C869.3,114.3,869.5,114.4,869.8,114.4z"/>
	<path class="st48" d="M807.2,66.8c-0.9-0.5-1.7-1.3-2.5-1.9c-0.9-0.6-0.9-1.3-0.5-2.2c1.9-4.2,3.3-8.7,3.8-13.3
		c0.6-5.7,0.8-11.5,0.4-17.3c-0.3-4.8-1.2-9.6-2.1-14.3c-0.1-0.4-0.2-1,0.3-1.3c0.5-0.3,0.9,0,1.3,0.3c1.7,1.4,2.8,3.2,3.9,5
		c5.1,8,9.8,16.2,15.5,23.8c4.4,5.8,9.4,11.2,15.1,15.7c3.3,2.6,6.9,4.8,10.7,6.7c4.5,2.3,9,5,13.9,6.4c5.8,1.7,11.7,2.9,17.7,4
		c-0.4,0.4-1,0.4-1.5,0.5c-7,1.9-14.2,3.4-21.1,5.5c-1.1,0.3-2.2,0.5-3.3,0.7c-1.1-1.8-2.8-3-4.3-4.4c-1-1-2.1-1.7-3.6-1.5
		c-1.8,0.3-3.2-0.3-4.4-1.8c-1.8-2.4-4.2-3.6-7.3-3.1c-1,0.2-1.7-0.4-2.2-1.2c-0.6-0.9-1-1.9-1.8-2.7c-2.3-2.2-4.5-4.3-6.7-6.5
		c-0.5-0.5-1.1-0.7-1.7-0.9c-0.7-0.2-1.3-0.4-1.7-1.1c-0.4-0.8-0.9-1.6-1.3-2.5c-1.9-4-3.8-8-5.8-12c-0.9-1.8-2.1-3.4-3.8-4.5
		c-1.3-0.8-1.5-0.6-2.1,0.8c-0.6,1.6-0.9,3.3-1.1,5c-0.6,3.4-0.8,6.9-1.6,10.3C808.5,61.7,807.8,64.3,807.2,66.8z"/>
	<path class="st41" d="M850.9,98.7c2.4-0.1,4.8,0.1,7.2,0.4c1.9,0.2,3.9,0.2,5.8,0.1c0.3,0,0.6-0.2,0.7-0.5c0.2-0.4-0.1-0.7-0.3-0.9
		c-1.8-1.8-3.7-3.3-6.2-3.9c-0.5-0.1-1.2-0.2-1.3-0.9c-0.1-0.8,0.5-1.1,1.1-1.4c0.9-0.4,1.8-0.7,2.7-1c1.7-0.5,3.1-1.5,4.6-2.4
		c1.6-1.1,3.5-1.4,5.4-1.8c3.7-0.8,7.4-1.3,11.2-1.6c1.1-0.1,2.2,0.2,3.4,0.3c0.5,0.1,0.8,0.3,0.6,1c-0.6,2,0.4,3.1,2.5,2.9
		c2.2-0.3,4.3-0.9,6.5-1.5c2.4-0.7,4.9-1,7.3-1.2c5-0.4,10.1-0.7,15.2-0.8c4.2-0.1,8.3-0.5,12.4-0.8c1-0.1,2-0.5,2.8-1.1
		c1.6-1.1,3.2-1.5,5.1-1.3c2.7,0.3,5.5,0.3,8.3,0.3c1.4,0,2.9,0.4,4.3,0.3c1.4,0,2.9,0.3,4.3,0.1c0.2,0,0.4,0,0.8,0.1
		c-1,0.6-1.9,0.8-2.8,1.1c-3.1,0.9-5.3,2.9-7.4,5.2c-2.5,2.8-5.1,5.5-9.1,6.1c-0.6,0.1-1.2,0.1-1.9,0.1c-0.5,0-1-0.1-1.2-0.5
		c-0.2-0.4,0.1-0.9,0.4-1.3c1.6-1.7,1.4-3.7,0.9-5.7c-0.2-0.8-0.9-1.3-1.7-1.4c-3-0.4-5.8,0.1-7.9,2.5c-0.6,0.7-1.3,1.4-2,2
		c-2.3,2-2.8,4.4-2,7.2c0.4,1.2,0,2-1,2.5c-2.5,1.2-5.2,2-7.8,2.7c-0.7,0.2-1.4,0-1.8-0.7c-0.4-0.7-0.3-1.3,0.1-2
		c1.5-2.4,2.4-5.2,5-6.8c0.2-0.1,0.4-0.4,0.6-0.6c0.5-0.5,0.9-1.1,0.5-1.8c-0.3-0.6-1.1-0.5-1.6-0.3c-3.5,0.8-7.2,0.6-10.8,1.1
		c-1.7,0.2-3.4,0.6-4.8,1.5c-3,1.8-6.3,2.6-9.7,3.3c-5.4,1.1-10.9,2.1-16.1,3.8c-0.7,0.2-1.4,0.4-2,0.8c-2.3,1.5-4.8,1.2-7.3,0.8
		c-4.2-0.8-8.4-1.7-12.4-3.2C851.2,99.1,851,99.1,850.9,98.7z"/>
	<path class="st49" d="M807.2,66.8c0.6-2.6,1.3-5.1,1.9-7.7c0.8-3.4,1.1-6.9,1.6-10.3c0.3-1.7,0.5-3.4,1.1-5
		c0.5-1.4,0.8-1.6,2.1-0.8c1.7,1.1,2.9,2.7,3.8,4.5c2,4,3.9,8,5.8,12c0.4,0.8,0.9,1.6,1.3,2.5c0.4,0.7,1,0.9,1.7,1.1
		c0.7,0.2,1.3,0.4,1.7,0.9c2.2,2.2,4.5,4.3,6.7,6.5c0.8,0.8,1.2,1.8,1.8,2.7c0.5,0.8,1.3,1.3,2.2,1.2c3.1-0.5,5.5,0.7,7.3,3.1
		c1.1,1.5,2.5,2.1,4.4,1.8c1.5-0.2,2.6,0.5,3.6,1.5c1.5,1.4,3.1,2.7,4.3,4.4c-2.5,0.8-5.1,0.9-7.7,1.3c-4.6,0.7-9.3,0.6-13.9,0.9
		c-3,0.2-5.6-0.8-8-2.9c-3-2.6-6.1-5.2-9.3-7.6C815.5,73.7,811.4,70.2,807.2,66.8z"/>
	<path class="st50" d="M772.8,162.2c1.7-1.6,3.8-2.5,5.9-2.9c2.6-0.5,5.1-1.3,7.5-2.5c2.3-1.2,3.7-3,4.4-5.5
		c1.5-5.7,2.5-11.4,2.8-17.2c0.2-4.2,0.6-8.5,1.9-12.5c0.9-3,2.1-5.9,3.4-8.7c2.3-5.2,4.4-10.6,5.6-16.2c0.8-3.7,0.8-7.6,0.4-11.4
		c-0.3-4.1-1.1-8.1-2.4-12c-1.1-3.2-2.4-6.4-4-9.5c-0.2-0.3-0.4-0.6-0.4-1.2c1.2,0.2,2.2,0.8,3.1,1.5c5.2,4.2,10.3,8.4,15.5,12.6
		c2,1.6,4,3.3,6,5c0.2,0.1,0.4,0.2,0.5,0.7c-1.8-0.6-3.6-1.1-5.5-1.5c-0.8-0.1-1.5-0.3-2.2,0.2c-0.4,0.2-1,0.1-1.5,0.1
		c-1.2,0-1.6,0.4-1.4,1.6c0.2,1.2,0.6,2.3,1.4,3.2c0.5,0.7,0.5,1.1-0.3,1.6c-1.4,0.9-1.5,1.6-0.3,2.8c1.6,1.5,2.7,3.3,4.4,5.1
		c-1.4-0.3-2.4-0.5-3.5-0.7c-1.4-0.3-1.8,0.1-1.4,1.4c0.3,1.1-0.2,1.3-1.1,1.2c-3-0.1-3-0.1-4.1,2.8c-0.1,0.2-0.2,0.6-0.4,0.7
		c-2.4,1.5-2.4,4.4-3.9,6.5c-0.4,0.6-0.5,1.3-0.8,1.9c-0.5,1-0.5,2-0.1,3.1c0.4,1.1,0.3,2.2-0.5,3.2c-0.9,1.1-1.3,2.2-0.2,3.6
		c0.6,0.8,0.3,1.7-0.1,2.6c-0.6,1.2-0.4,1.6,0.9,1.7c3.5,0.2,7.1,0.6,10.6,0.2c0.5-0.1,1-0.1,1.7-0.1c-1.2,1-2.5,1.3-3.6,1.8
		c-0.5,0.2-0.9,0.4-1.3,0.7c-0.4,0.3-0.6,0.8-0.3,1.1c0.6,0.7,0.2,1.1-0.2,1.7c-1,1.8-1.9,3.7-3.2,5.3c-0.4,0.5-0.4,1.1,0.3,1.4
		c0.6,0.3,0.4,0.5,0.1,0.8c-0.9,1-2.1,1.6-3.2,2.3c-3.2,1.8-5.9,4.3-8.3,6.9c-1.3,1.4-1.4,2.1-0.4,3.8c0.2,0.3,0.2,0.7,0,1
		c-0.1,0.3-0.3,0.6-0.5,0.9c-0.9,1.7-0.8,1.8,0.9,2.6c-2,1.8-4.4,2.7-6.8,3.6c-4.5,1.7-9,3.4-13.7,4.9
		C773.9,162.2,773.5,162.5,772.8,162.2z"/>
	<path class="st43" d="M767.2,150.2c-0.1-0.6-0.6-0.7-1.2-0.7c-1,0-2.1,0-3.2-0.1c2.5-0.7,4.9-1.6,7.5-2c2.9-0.5,5.9-0.7,8.5-2.2
		c1-0.6,1.7-1.3,2-2.4c0.5-1.8,1-3.7,1.8-5.4c0.1-0.3,0.2-0.7,0.1-1c0-0.8-0.4-1-1.1-0.5c-0.4,0.3-0.8,0.7-1.6,0.9
		c0.4-1.4,0.8-2.8,1.2-4.1c1.4-5,2.9-9.9,3.9-15c0.5-2.4,0.4-4.7,0.5-7.1c0.3-4.9,1.1-9.8,2.7-14.4c0.9-2.4,2.2-4.7,3.4-6.9
		c2-3.8,4-7.6,5.8-11.5c0.8-1.7,1.4-3.5,2.2-5.3c0.8,1.9,1.5,3.8,1.8,5.9c0.1,0.6,0.2,1.2,0.3,1.7c0.2,0.8,0.3,1.4-0.7,2
		c-1,0.5-1.4,1.8-1.7,2.9c-0.6,2-1.5,3.5-3.6,4.4c-2.2,1-3.5,2.8-4,5.2c-0.2,1-0.5,1.9-1.5,2.5c-0.9,0.6-1.5,1.6-1.3,2.8
		c0.1,1.2,0,2.2-1,3c-0.6,0.5-0.8,1.4-0.3,2.1c0.4,0.8,0.5,1.5-0.3,2.2c-0.6,0.5-0.6,1.2-0.2,1.8c0.5,0.7,0.6,1.4,0,2.1
		c-0.5,0.6-0.2,1.2,0.2,1.7c1.5,1.8,1,3.8,0.9,5.8c-0.1,3.7-1,7.2-1.3,10.9c-0.1,0.6-0.3,1.3,0.3,1.7c0.7,0.4,1.4,0.1,2-0.3
		c0.7-0.5,1.3-1,2.1-1.6c0,0.7,0.1,1.2,0,1.8c-0.2,1.4,0,2.9-0.4,4.3c-0.3,0-0.5,0.1-0.8,0.2c-2.1,0.9-3.3,2.4-3.4,4.7
		c-0.1,0.9-0.5,1.4-1.4,1.6c-1.4,0.3-2.1,1.2-2.2,2.7c0,0.7,0,1.6-1,1.8c-1.5,0.2-2.2,1.1-2.7,2.4c-0.5,1.4-1.6,2.2-3.1,2.1
		C773.5,150.4,770.4,150.1,767.2,150.2z"/>
	<path class="st11" d="M911.3,84.3c-2.9,0.4-5.8,0.5-8.7,0.7c-3.7,0.3-7.3,1-10.8,2.1c-0.3,0.1-0.5,0.1-0.8,0.1
		c0.1-0.2,0.3-0.3,0.4-0.5c0.2-0.4,0.1-0.7-0.3-0.9c-0.3-0.2-0.6-0.1-0.8,0.2c-0.3,0.3-0.3,0.6,0,0.9c0.2,0.2,0.5,0.2,0.7,0.4
		c-1.1,0.5-2.3,0.5-3.5,0.5c-0.7,0-1.1-0.4-0.8-1.1c0.7-2,0.3-2.5-1.7-2.7c-0.3,0-0.7,0-0.9-0.3c3.7-0.9,7.6-1.1,11.3-2.2
		c-0.1,0.4,0.1,0.8,0.5,1c0.3,0.1,0.6,0,0.7-0.2c0.3-0.4,0.1-0.7-0.2-1.1c2.7-1.1,5.4-1.8,8.3-1.8c3.1,0,6.2,0,9.3,0.2
		c4.8,0.3,9.6-0.5,14.3-0.7c0.6,0,1.3,0,1.3-0.8c0-0.7-0.6-1-1.3-1.1c-0.7-0.1-1.5-0.1-2.2-0.4c0-0.1,0-0.2,0-0.4
		c4.2-0.4,8.4-0.6,12.6-0.7c1.4,0,2.8-0.3,4.2-0.4c2.7-0.4,5.4-0.6,8.1-0.9c1.6-0.2,3.2-0.2,4.8,0c0.2,0,0.5,0,0.6,0.2
		c-0.2,0-0.4,0-0.6,0.1c-0.3,0.1-0.6,0.3-0.5,0.8c0.1,0.3,0.4,0.4,0.7,0.3c0.4-0.1,0.6-0.3,0.5-0.7c0-0.1-0.1-0.3-0.1-0.4
		c0.9,0.1,1.7,0.5,2.5,0.9c1.4,0.5,2.6,0.5,3.5-0.8c0.8-1.3,2.1-1.5,3.4-1.4c-0.3,0.6-0.2,1,0.4,1.3c-1.1,1.2-2.6,1.7-3.9,2.4
		c-2.6,1.3-5.4,2-8.2,2.9c-0.3,0.1-0.6,0.2-0.7-0.1c-0.4-0.9-1.5-1.2-2-2.1c-1.1-1.9-2.9-2.5-4.9-2.4c-3.3,0.2-6.6,0.6-9.8,1.4
		c-2.2,0.5-2.4,2.4-1.5,3.9c0.1,0.2,0.2,0.3,0.4,0.6c-2,0.3-3.5,1.3-5.1,2.1c-0.7,0.3-1.5,0.4-2.3,0.3c0-0.5-0.1-0.8-0.7-0.8
		c-0.6,0-0.7,0.4-0.6,1c-1.6,0.4-3.1,0.1-4.7,0.3c-2.9,0.5-5.8,0.3-8.7,0.5c-0.3,0-0.5-0.1-0.8-0.1c0.2-0.5,0.2-1-0.4-1.3
		c-0.3-0.2-0.5-0.1-0.8,0C911,83.3,911.2,83.8,911.3,84.3z M911.6,81.3c-0.1-0.5-0.4-0.9-1-0.8c-0.5,0.1-0.8,0.4-0.7,0.9
		c0.1,0.5,0.3,0.8,0.8,0.8C911.3,82.1,911.6,81.9,911.6,81.3z M918.9,83.1c0-0.5-0.3-0.8-0.8-0.8c-0.5,0-0.8,0.3-0.8,0.8
		c0,0.5,0.3,0.8,0.8,0.8C918.7,83.9,918.9,83.6,918.9,83.1z M930.6,79.8c-0.1-0.4-0.3-0.8-0.8-0.8c-0.5,0-0.8,0.3-0.8,0.8
		c0,0.5,0.3,0.7,0.7,0.7C930.2,80.7,930.5,80.5,930.6,79.8z M934.3,80.2c-0.1-0.5-0.5-0.7-1-0.7c-0.4,0-0.8,0.2-0.8,0.7
		c0,0.4,0.2,0.7,0.6,0.6C933.6,80.7,934.1,80.8,934.3,80.2z M893.5,85c0.4,0,0.7-0.3,0.7-0.7c0.1-0.5-0.2-0.8-0.7-0.8
		c-0.5,0-0.8,0.3-0.9,0.8C892.7,84.7,893.1,84.9,893.5,85z M924.8,81.6c-0.4,0-0.7,0.2-0.7,0.7c0,0.4,0.2,0.7,0.6,0.7
		c0.4,0,0.8-0.1,0.8-0.6C925.5,81.9,925.2,81.7,924.8,81.6z M920.5,79.7c-0.4,0.1-0.7,0.3-0.6,0.8c0,0.4,0.3,0.6,0.7,0.6
		c0.4,0,0.7-0.2,0.7-0.7C921.2,80,921,79.8,920.5,79.7z M952.6,75.7c-0.1-0.4-0.3-0.6-0.7-0.6c-0.4,0-0.7,0.2-0.7,0.6
		c0,0.4,0.3,0.7,0.8,0.7C952.4,76.4,952.6,76.1,952.6,75.7z M954.1,77c0-0.4-0.3-0.6-0.6-0.7c-0.4,0-0.6,0.2-0.6,0.5
		c-0.1,0.4,0.1,0.7,0.5,0.8C953.8,77.6,954,77.3,954.1,77z M907.1,80.5c-0.1-0.4-0.4-0.6-0.8-0.5c-0.3,0-0.6,0.3-0.5,0.6
		c0.1,0.4,0.4,0.6,0.7,0.5C907,81.1,907.1,80.9,907.1,80.5z M965.3,74c-0.1-0.3-0.3-0.6-0.6-0.5c-0.4,0-0.5,0.3-0.5,0.7
		c0,0.3,0.3,0.4,0.6,0.4C965.1,74.6,965.3,74.4,965.3,74z"/>
	<path class="st40" d="M791.3,127.3c-0.8,0.7-1.5,1.4-2.5,2.1c0-1.8,0.3-3.4,0.6-5c0.6-3.1,0.5-6.3,0.7-9.4c0.1-0.8-0.2-1.5-0.8-2.1
		c-0.6-0.6-0.8-1.3-0.3-2.1c0.4-0.6,0.3-1.4,0-2c-0.4-0.6-0.2-1.1,0.2-1.5c0.7-0.7,0.8-1.4,0.3-2.3c-0.4-0.6-0.5-1.3,0.2-1.7
		c0.9-0.6,1-1.5,0.9-2.5c-0.2-1.5,0.2-2.6,1.7-3.2c0.6-0.3,0.8-1,0.9-1.6c0.5-2.7,1.8-4.7,4.3-5.9c2-1,2.9-2.9,3.4-5
		c0.2-0.7,0.4-1.3,0.8-1.9c0.2-0.2,0.3-0.5,0.7-0.4c0.3,0.1,0.3,0.3,0.3,0.6c0.4,5.9,0.5,11.7-1.6,17.4c-0.3-0.1-0.7-0.2-1-0.3
		c-1.6-0.5-1.7-0.4-2,1.2c-0.2,1.2-0.8,2.3-1.4,3.3c-0.5,0.9-1.9,1.7-1.5,2.6c0.4,0.8,1.8,1,2.9,1.3c-0.6,2-1.4,3.9-2.5,5.7
		c-0.8-0.5-1.7-0.9-2.4-1.4c-0.6-0.4-0.8-0.2-0.9,0.4c-0.2,1.3-0.5,2.5-0.7,3.8c-0.2,0.9-1.3,1.8-0.7,2.5c0.5,0.6,1.7,0.6,2.6,0.9
		c-0.4,2-0.9,4.1-1.3,6.1c0,0.1-0.2,0.1-0.3,0.2c0.1-0.5,0.1-0.9-0.5-0.9c-0.3,0-0.6,0.2-0.7,0.5
		C790.5,127.2,790.9,127.3,791.3,127.3z M799.9,92.9c-0.4-0.1-0.8-0.8-1.3,0c-0.5,0.8,0.2,0.9,0.5,1.2c0.1,0.1,0.3,0.2,0.4,0.3
		c0.6,0.6,0.8-0.1,1.2-0.4c0.5-0.5,0-0.7-0.3-0.9C800.1,93.1,800,93,799.9,92.9z M792.5,100.1c-0.2,0.4-0.9,0.8,0,1.2
		c0.3,0.1,0.7,0.7,1,0.4c0.3-0.4,0.6-1,0.6-1.5c0-0.7-0.7-1-1.2-1C792.2,99.1,792.5,99.8,792.5,100.1L792.5,100.1z M794.9,110.7
		c-0.4,0.1-0.7,0.3-0.7,0.6c0,0.4,0.2,0.7,0.6,0.7c0.4,0,0.7-0.2,0.7-0.6C795.5,111,795.3,110.7,794.9,110.7z M790.8,124.9
		c0-0.4-0.2-0.6-0.5-0.7c-0.4,0-0.6,0.2-0.7,0.6c0,0.4,0.2,0.6,0.5,0.7C790.6,125.6,790.8,125.3,790.8,124.9z M793.2,109.9
		c0.4,0,0.6-0.2,0.6-0.6c0-0.3-0.1-0.5-0.5-0.5c-0.3,0-0.6,0-0.7,0.5C792.7,109.6,792.9,109.8,793.2,109.9z M797.1,100.8
		c0.4,0,0.6-0.2,0.6-0.5c0-0.4-0.2-0.6-0.6-0.6c-0.3,0-0.5,0.2-0.5,0.5C796.6,100.5,796.7,100.8,797.1,100.8z"/>
	<path class="st41" d="M767.2,150.2c3.1-0.1,6.3,0.2,9.4,0.5c1.5,0.1,2.6-0.7,3.1-2.1c0.5-1.3,1.2-2.2,2.7-2.4c1-0.1,1-1.1,1-1.8
		c0.1-1.5,0.8-2.4,2.2-2.7c0.9-0.2,1.3-0.7,1.4-1.6c0.1-2.3,1.3-3.8,3.4-4.7c0.3-0.1,0.5-0.2,0.8-0.2c-0.1,3.7-0.8,7.3-1.5,10.9
		c-0.3,1.4-0.6,2.8-0.8,4.2c-0.3,2.6-1.7,4.4-4.1,5.4c-1.4,0.6-2.8,1.4-4.5,1.5c0.1-0.5,0.5-0.7,0.8-1c2-1.9,4-3.7,5.3-6.2
		c0.3-0.6,0.7-1.4,0.1-1.9c-0.6-0.5-1.3,0.2-1.7,0.6c-3.1,2.9-6.5,5.3-9.9,7.8c-0.9,0.6-1.6,1.4-1.9,2.6c-0.1,0.4-0.2,0.6-0.5,0.9
		c-0.9,0.8-1.9,1.3-2.7,2.2c0.2-1,0.3-2,0.1-3c-0.4-1.8-1.1-3.3-2.7-4.3c-1.7-1.1-1.7-1.4-0.7-3.1
		C767,151.4,767.2,150.8,767.2,150.2z"/>
	<path class="st43" d="M914.2,92.6c-1.7,2-3.8,3.4-6,4.7c-6.6,3.8-13.6,6.4-21.3,7.3c-4.6,0.5-9.3,0.8-14,1
		c-4.8,0.1-9.4-0.5-13.8-2.4c-0.2-0.1-0.5-0.1-0.5-0.4c0.4-0.2,0.8,0,1.2,0.1c2.3,0.6,4.7,0.9,7.1,1.2c1.1,0.1,2.1-0.1,3-0.7
		c0.2,0,0.4,0,0.5,0.2c-0.2,0.2-0.6,0.4,0,0.4c0.7,0,1.4-0.1,2.1-0.2c4-0.3,8-0.4,11.9-1.1c3.4-0.7,6.8-1.6,10.1-2.8
		c0.6-0.2,1.1-0.5,0.9-1.2c-0.1-0.7-0.7-0.7-1.3-0.7c-1.8,0.1-3.5,0.5-5.3,0.8c-1,0.2-2,0.2-3,0.2c0.6-0.5,1.3-0.7,1.9-0.8
		c3.1-0.4,6-1.3,8.8-2.4c1.3-0.5,2.3-1.4,3.6-1.9c2-0.7,4-0.6,6-0.8C909,93,911.6,92.8,914.2,92.6L914.2,92.6z"/>
	<path class="st38" d="M950.5,73.6c-1.6,0.1-3.1,0.3-4.7,0.5c-5,0.5-10,0.5-15,0.8c-2.9,0.2-5.7,0.1-8.5,0.9c-0.4,0.1-0.9,0.1-1,0.6
		c-0.1,0.6,0.5,0.7,0.9,0.8c0.8,0.3,1.7,0.1,2.6,0.2c0.7,0,1.4,0.1,2.1,0.4c-0.8,0.2-1.6,0.3-2.4,0.3c-1.9,0-3.7,0.2-5.6,0.4
		c-1.2,0.1-2.4-0.1-3.6-0.1c-4.1-0.1-8.1-0.1-12.2,0c-2.1,0-4.2,0.6-6.1,1.3c-4.2,1.6-8.7,1.8-13.1,2.9c-3.8,0.9-7.6,1.4-11.5,2
		c-0.4,0.1-0.8,0.1-1.3,0.1c0.6-0.8,1.3-1,2-1.1c7.3-1.9,14.5-3.8,21.8-5.7c5.3-1.4,10.7-2.4,16.2-2.8c3.3-0.3,6.7-0.3,10-0.5
		c1.3-0.1,2.7-0.1,4.1-0.1c5.8,0,11.5-0.7,17.2-1.1C945.1,73,947.8,73,950.5,73.6z"/>
	<path class="st47" d="M869.3,107c-1.7,2.4-3.5,4.7-5.2,7.1c-0.5,0.7-1.1,0.8-1.9,0.6c-2.2-0.5-4.4-0.9-6.7-1
		c-1.5-0.1-2.8-0.7-4.2-1.2c-0.6-0.2-0.3-0.5-0.1-0.8c2-2.6,3.8-5.2,5.6-7.9c1.8,0.6,3.5,1.4,5.4,1.9
		C864.4,106.3,866.8,106.7,869.3,107z M859.1,106.5c-0.2,0-0.3,0.2-0.4,0.4c-0.3,0.5-0.5,1.1-0.8,1.5c-0.6,0.9-0.4,1.4,0.6,1.6
		c0.8,0.1,1.4,1.2,2.1,0.7c0.6-0.4,0.8-1.4,1.1-2.1c0.1-0.2,0.2-0.4,0-0.5C860.8,107.6,860,107.1,859.1,106.5z"/>
	<path class="st40" d="M925.1,90.5c1.6-2.4,4-3.2,6.8-3c0.8,0,1.3,0.4,1.5,1.2c0.4,1.6,0.1,3-0.8,4.3c-1.5,2.1-0.9,3.3,1.7,3.7
		c0.2,0,0.5,0.1,0.9,0.2c-5,2-9.8,3.6-14.8,5.1c1.7-1.1,2.1-2.4,1.4-4.3c-0.9-2.8,0.4-4.9,2.6-6.5c0.1,0.5,0.4,0.6,0.8,0.6
		c0.2,0,0.3-0.2,0.4-0.4C925.8,90.8,925.6,90.5,925.1,90.5z M932.3,89.9c0-0.5-0.2-0.8-0.8-0.8c-0.6,0-0.9,0.2-0.9,0.8
		c0,0.6,0.3,0.9,0.9,0.8C932,90.7,932.3,90.4,932.3,89.9z M930.1,93.5c-0.1-0.5-0.3-0.9-0.9-0.9c-0.5,0-0.7,0.3-0.7,0.7
		c0,0.5,0.2,0.8,0.7,0.9C929.7,94.3,930,94.1,930.1,93.5z M930.9,97.4c0-0.5-0.2-0.8-0.8-0.8c-0.5,0-0.8,0.3-0.8,0.8
		c0,0.4,0.3,0.7,0.8,0.7C930.6,98.2,930.8,97.9,930.9,97.4z M925.3,98.2c0.5,0,0.8-0.3,0.8-0.8c0-0.5-0.3-0.8-0.8-0.8
		c-0.5,0-0.8,0.3-0.7,0.8C924.5,97.9,924.8,98.2,925.3,98.2z M924.5,95.6c0.4-0.1,0.7-0.3,0.7-0.8c0-0.4-0.3-0.7-0.7-0.6
		c-0.4,0-0.7,0.3-0.7,0.8C923.8,95.3,924.1,95.5,924.5,95.6z M929.8,90.5c-0.1-0.4-0.3-0.6-0.7-0.6c-0.4,0-0.6,0.3-0.6,0.7
		c0,0.4,0.2,0.6,0.7,0.6C929.6,91.2,929.7,90.9,929.8,90.5z"/>
	<path class="st47" d="M839.3,132.4c1.2-4.3,3.3-8.3,5.1-12.4c0.3-0.8,0.7-1,1.6-0.7c5.3,1.5,10.4,3.4,15.6,5
		c-2.1,1-4.3,1.8-6.5,2.5c-2-1.7-4.8-2.1-6.8-3.9c-0.3-0.3-0.6,0.1-0.7,0.4c-0.7,2.4-1.9,4.6-2.4,7
		C843.2,131,841.3,131.7,839.3,132.4z"/>
	<path class="st43" d="M862.3,97.9c-2.5,0.4-4.9-0.4-7.3-0.5c-2.2-0.1-4.4-0.4-6.6-0.4c-2.1,0-3.7-1.3-5.5-2.2
		c6.7-1.9,12.2-5.8,18.4-8.1c1.5-0.6,3.1-1,4.7-1.4c0,0.5-0.4,0.5-0.6,0.7c-0.9,0.7-2,1.1-2.8,2.1c-0.8,1.1-2.5,1.1-3.8,1.6
		c-0.9,0.3-1.8,0.6-2.5,1.3c-1.5,1.4-1.2,3.2,0.7,3.8c1.6,0.5,3,1.2,4.4,2.1C861.8,97.2,862.1,97.4,862.3,97.9z"/>
	<path class="st47" d="M811.6,143.7c1.6-3.2,3.3-6.3,4.6-9.5c0.3-0.8,0.7-1.6,1-2.4c0.3-0.8,0.9-1.2,1.7-0.9c4.6,1.4,9.4,2.3,14,3.9
		c-1.8,0.8-3.7,1.6-5.6,2.1c-2-0.6-4-1.1-6.1-1.4c-0.6-0.1-1.2-0.4-1.6,0.5c-0.6,1.6-1.2,3.2-1.7,4.8
		C815.8,141.8,813.7,142.7,811.6,143.7z"/>
	<path class="st47" d="M870.4,120.9c1.2-2.1,2.2-4.3,3.6-6.2c0.9-1.3,1.8-2.6,2.7-3.9c0.4-0.6,0.9-0.9,1.7-0.6
		c1.8,0.5,3.7,0.9,5.5,1.5c1.8,0.6,3.8,0.9,5.7,1.3c0.4,0.1,0.9,0.3,1.3,0.4c-2.4,1.1-4.9,2.1-7.5,2.9c-1.2-0.6-2.2-1.4-3.6-1.6
		c-0.4-0.1-0.8-0.2-1,0.3c-0.5,1.1-1.1,2.3-1.6,3.4c0,0,0,0,0,0c-0.1,0.1-0.1,0.1-0.2,0.2C874.8,119.4,872.7,120.5,870.4,120.9z"/>
	<path class="st40" d="M960.4,86.6c-1.7,1.7-3.9,2.5-6.2,2.8c0-0.7-0.4-1-1.1-0.9c-0.8,0.2-0.8,0.8-0.6,1.5c-2,0.8-4,1.7-6.1,2.2
		c0.2-1.4,0.1-1.5-1.2-1.4c0.4-0.6,0.9-1.1,1.3-1.7c2.1-3,5.3-3.9,8.5-4.7c0,0.2,0,0.4,0,0.6c0.1,0.3,0.3,0.4,0.6,0.3
		c0.2,0,0.4-0.2,0.4-0.4c0-0.3-0.2-0.5-0.5-0.5c-0.2,0-0.4,0-0.6,0c2.1-2.2,4.8-1.3,7.3-1.3c0.9,0,1.7-0.4,2.8,0
		c-1.1,1.1-2.7,1.4-3.7,2.5c-0.3-0.2-0.7-0.4-1-0.1C960,85.9,960.1,86.3,960.4,86.6z M954.7,87.7c0.5,0,0.8-0.3,0.7-0.8
		c0-0.5-0.3-0.8-0.8-0.8c-0.5,0-0.8,0.4-0.8,0.9C953.8,87.5,954.2,87.7,954.7,87.7z M959.3,83.7c-0.3,0-0.6,0.1-0.6,0.5
		c0,0.4,0.2,0.7,0.6,0.7c0.4,0,0.6-0.2,0.6-0.6C959.9,83.9,959.7,83.7,959.3,83.7z"/>
	<path class="st38" d="M762.8,174.9c-4.2,5.6-7.3,11.7-10.8,17.6c-2.7,4.5-5.1,9.2-7.9,13.7c-3.1,4.9-6.2,9.8-10.2,14
		c-0.3,0.4-0.6,0.8-1.2,1c-0.2-0.5,0.2-0.8,0.5-1.1c3.7-4.8,6.8-10,9.9-15.2c2.8-4.8,6-9.3,8.7-14.2c2.8-5.1,6.4-9.7,9.2-14.8
		C761.2,175.2,761.8,174.9,762.8,174.9z"/>
	<path class="st41" d="M946.1,80.9c-2.9,0-5.8-0.1-8.7-0.7c-0.5-0.1-1-0.3-1.2-0.8c-0.5-1-0.4-1.4,0.7-1.7c2.2-0.7,4.5-1,6.7-1.2
		c1.6-0.2,3.1-0.7,4.7-0.3c0.8,0.2,1.4,0.5,1.9,1c0.6,0.6,1.1,1.3,1.9,1.7c0.3,0.2,0.6,0.4,0.5,0.8c-0.1,0.4-0.5,0.3-0.7,0.5
		C950,81,948,80.9,946.1,80.9z"/>
	<path class="st11" d="M840.7,93c-1.6-1-3-2.2-4.5-3.3c-0.3-0.2-0.5-0.4-0.4-0.8c0.1-0.3,0.4-0.3,0.7-0.3c4.1,0.7,8.2,0.2,12.3-0.4
		c2.7-0.4,5.4-0.7,8.3-1.1c-0.6,0.7-1.2,0.8-1.8,1c-3.5,1.5-6.8,3.6-10.5,4.8c-1,0.3-2,0.5-3,0.6C841.9,92.6,841.5,92.4,840.7,93z
		 M840,90.5c0-0.4-0.2-0.7-0.6-0.7c-0.4,0-0.6,0.2-0.6,0.6c0,0.4,0.1,0.7,0.5,0.7C839.8,91.2,839.9,90.9,840,90.5z M844.1,91.2
		c0.4,0,0.7-0.2,0.7-0.6c0.1-0.4-0.2-0.6-0.6-0.6c-0.4,0-0.7,0.1-0.7,0.6C843.5,91,843.6,91.2,844.1,91.2z M841.6,91.6
		c0-0.3-0.2-0.6-0.6-0.6c-0.4,0-0.6,0.3-0.6,0.6c0,0.4,0.2,0.6,0.6,0.6C841.3,92.2,841.6,92,841.6,91.6z"/>
	<path class="st45" d="M846.1,99.3c-1.7,2.1-3.6,4-4.1,6.9c-2.9-1.5-5.9-2.3-9.2-2c1.9-1.2,3.2-2.8,4.3-4.7c0.3-0.4,0.6-0.9,0.7-1.3
		c0.2-0.9,0.7-0.9,1.3-0.5c1.9,1.1,4,1.3,6.2,1.3C845.6,99.1,845.9,99.2,846.1,99.3z M841.4,100.6c-0.1-0.1-0.1-0.2-0.2-0.3
		c-0.9-1.1-1.9-1.1-2.7,0c-0.9,1.2-0.9,1.2,0.4,1.7c0.1,0.1,0.3,0.1,0.4,0.2C840.1,102.6,841.5,101.5,841.4,100.6z"/>
	<path class="st46" d="M845.2,130.3c0.5-2.4,1.7-4.6,2.4-7c0.1-0.3,0.4-0.7,0.7-0.4c2,1.8,4.8,2.2,6.8,3.9
		C851.8,128.1,848.5,129.3,845.2,130.3z"/>
	<path class="st46" d="M818,140.8c0.6-1.6,1.2-3.2,1.7-4.8c0.3-0.9,1-0.6,1.6-0.5c2.1,0.3,4.1,0.7,6.1,1.4
		C824.2,138.2,821.1,139.5,818,140.8z"/>
	<path class="st45" d="M899.1,110.2c0.9-2.2,2.4-4.1,3.7-6.1c0.3-0.5,0.6-0.3,1-0.2c1.9,0.6,3.6,1.5,5.3,2.4
		c-0.9,0.6-1.9,0.8-2.9,1.1c-0.4-0.3-0.8-0.7-1.1-1c-0.5-0.5-0.9-0.5-1.2,0.3c-0.2,0.7-0.5,1.3-0.8,1.9
		C901.9,109.1,900.5,109.8,899.1,110.2z"/>
	<path class="st47" d="M796.4,145.4c2.1,1.1,4.4,1.8,6.4,3.2c-1.3,0.9-2.6,1.9-4,2.4c-1-0.7-1.8-1.6-3-2c0,0,0-0.1,0-0.1
		C794.8,147,794.8,147,796.4,145.4z"/>
	<path class="st45" d="M798.1,108.9c-1-0.3-2.5-0.5-2.9-1.3c-0.4-0.9,0.9-1.7,1.5-2.6c0.6-1,1.2-2.1,1.4-3.3c0.3-1.7,0.4-1.7,2-1.2
		c0.3,0.1,0.7,0.2,1,0.3c-0.1,0.6-0.3,1.2-0.6,1.7c-0.6-0.4-1-0.3-1.2,0.4c-0.3,1-0.6,1.9-0.9,2.8c-0.3,0.7,0.1,0.9,0.7,0.9
		C798.9,107.3,798.5,108.1,798.1,108.9z"/>
	<path class="st42" d="M759.9,168.5c0.9-2.3,1.9-4.4,4.4-5.4c0.1,0.5,0.3,0.9,0.9,0.6c0.5-0.3,0.5-0.7,0.1-1.1
		c0.9-0.8,2.1-1.2,2.8-2.2c0.1,1.2-0.7,2-1.2,2.8c-0.5,0.8-1.2,1.8-2,2.2C763.2,166.3,761.7,167.7,759.9,168.5L759.9,168.5z"/>
	<path class="st45" d="M793.4,120.7c-0.9-0.3-2.1-0.3-2.6-0.9c-0.5-0.7,0.6-1.6,0.7-2.5c0.2-1.3,0.5-2.5,0.7-3.8
		c0.1-0.6,0.3-0.8,0.9-0.4c0.8,0.5,1.6,0.9,2.4,1.4c0,0.5-0.1,0.9-0.5,1.3c-1.5-0.5-1.5-0.5-2,1.2c0,0.2-0.1,0.4-0.2,0.5
		c-0.5,1-0.1,1.5,0.9,1.5C793.8,119.7,793.7,120.2,793.4,120.7z"/>
	<path class="st42" d="M781.4,137.5c-1,4.8-2.7,6.8-6,7.1c0.8-1.1,1.5-2.1,2.2-3.2c0.4-0.6,0.9-1.2,1.2-1.9
		C779.3,138.4,780.1,137.6,781.4,137.5z"/>
	<path class="st38" d="M962,86.8c0.5-0.9,1.1-1.2,1.8-1.6c0.9-0.5,2-0.9,2.3-2.1c0.1-0.4,4.8-0.9,5-0.6c0.3,0.4-0.1,0.4-0.3,0.6
		c-1,0.9-2.3,1.2-3.5,1.7c-1.5,0.7-3.1,1.2-4.7,1.9C962.5,86.7,962.3,86.7,962,86.8z"/>
	<path class="st41" d="M893,99.3c-5.1,2.2-10.4,2.6-16,3.2C879.3,101.5,891.1,99.2,893,99.3z"/>
	<path class="st42" d="M784.8,150.7c-0.4,1-1.2,1.7-2,2.4c-1.1,1.1-2.3,2-3.2,3.2c-1.2,1.6-3,1.8-4.7,2.3c0.7-1.2,1.9-1.8,3-2.6
		c2-1.5,3.9-3.2,5.8-4.8C784.1,151.1,784.3,150.7,784.8,150.7C784.7,150.7,784.8,150.7,784.8,150.7z"/>
	<path class="st42" d="M779.7,162.1c-1.4,1.9-2.9,3.1-4.7,4c-0.4,0.2-2.4-0.2-2.6-0.6c-0.2-0.4-0.3-0.8,0.2-1.1
		C774.9,163.5,777.1,162.9,779.7,162.1z M775.1,165.1c0-0.3-0.1-0.6-0.4-0.6c-0.4-0.1-0.6,0.1-0.7,0.5c0,0.3,0.1,0.5,0.4,0.6
		C774.8,165.7,775,165.5,775.1,165.1z"/>
	<path class="st46" d="M877.2,118.4c0.5-1.1,1.1-2.3,1.6-3.4c0.2-0.5,0.6-0.3,1-0.3c1.3,0.2,2.4,1,3.6,1.6
		C881.4,117.3,879.4,117.9,877.2,118.4z"/>
	<path class="st42" d="M767.7,169.3c-1.6,1.4-3.2,2.8-5.1,3.7c0.5-1.5,1.4-2.8,2.5-3.8C765.5,168.8,766.7,169.4,767.7,169.3z"/>
	<path class="st46" d="M795.8,149c1.2,0.4,2,1.3,3,2c-1,0.8-2,1.4-3.3,1.2c-0.5-0.1-0.8-0.3-0.4-0.8
		C795.5,150.7,795.7,149.9,795.8,149z"/>
	<path class="st38" d="M870.4,103.6c-0.1-0.2-0.3-0.2-0.5-0.2c2.6-1.8,5.6-2.1,8.5-3c0.7-0.2,1.5-0.6,2.3-0.5c0,0.1,0,0.3,0,0.4
		c-1.4,0.6-2.9,0.9-4.4,1.2C874.3,101.8,872.3,102.6,870.4,103.6z"/>
	<path class="st38" d="M769,167.3c-0.8,0-1.6,0-2.5,0c0.5-1.5,1.8-2.5,2.5-3.9c0.3,0.4,0.5,0.8,0.7,1.1
		C769.1,165.3,768.5,166.1,769,167.3z"/>
	<path class="st41" d="M769,167.3c-0.5-1.1,0.1-2,0.7-2.8c0.8,0,1.3,0.2,1.1,1.1c-0.1,0.6,0.4,1,0.6,1.5
		C770.7,167.5,769.9,167.2,769,167.3z"/>
	<path class="st46" d="M793.9,119.1c-1.1,0-1.5-0.5-0.9-1.5c0.1-0.2,0.1-0.4,0.2-0.5c0.4-1.6,0.4-1.6,2-1.2
		C794.9,117,794.5,118.1,793.9,119.1z"/>
	<path class="st42" d="M766,150.6c-0.2,0.4-0.3,0.6-0.4,0.9c-0.3,0.4-0.4,1.4-0.9,1.3c-0.8-0.2-1.5-0.9-2-1.7
		c-0.3-0.4,0.2-0.4,0.4-0.4C764,150.6,764.9,150.6,766,150.6z"/>
	<path class="st46" d="M799.1,106.4c-0.6,0-1-0.1-0.7-0.9c0.3-0.9,0.7-1.9,0.9-2.8c0.2-0.7,0.6-0.7,1.2-0.4
		C800.3,103.8,799.7,105.1,799.1,106.4z"/>
	<path class="st42" d="M946.1,92.4c-1.3,0.6-2.6,1.1-3.9,1.7c-0.1-0.1-0.1-0.2-0.2-0.3c1-0.8,1.7-1.9,2.9-2.6
		C944.9,92,945.2,92.4,946.1,92.4z"/>
	<path class="st46" d="M903.2,108.5c0.3-0.6,0.5-1.3,0.8-1.9c0.3-0.8,0.6-0.8,1.2-0.3c0.4,0.3,0.7,0.7,1.1,1
		C905.3,107.8,904.3,108.2,903.2,108.5z"/>
	<path class="st43" d="M880.7,100.3c0-0.1,0-0.3,0-0.4c1.5-0.3,3-0.7,4.6-1c0,0.1,0.1,0.2,0.1,0.4
		C883.9,99.8,882.3,100.2,880.7,100.3z"/>
	<path class="st39" d="M911.3,84.3c-0.1-0.5-0.3-1,0.3-1.3c0.2-0.2,0.5-0.2,0.8,0c0.5,0.3,0.6,0.8,0.4,1.3
		C912.2,84.4,911.8,84.4,911.3,84.3z"/>
	<path class="st39" d="M952.5,90c-0.2-0.7-0.2-1.3,0.6-1.5c0.6-0.2,1,0.2,1.1,0.9C953.7,89.7,953.1,89.9,952.5,90z"/>
	<path class="st39" d="M946.1,92.4c-0.8,0-1.2-0.4-1.2-1.2c0.1-0.1,0.2-0.2,0.3-0.4c1.3-0.1,1.5,0,1.2,1.4c0,0,0,0,0,0
		C946.3,92.2,946.2,92.3,946.1,92.4C946,92.4,946.1,92.4,946.1,92.4z"/>
	<path class="st39" d="M966.2,74.3c-0.6-0.3-0.7-0.8-0.4-1.3c0.4-0.1,1.1-0.4,1.3,0C967.3,73.6,966.7,74,966.2,74.3z"/>
	<path class="st39" d="M904.1,101c0.4,0.2,0.6,0.6,0.5,1c-0.1,0.3-0.4,0.5-0.7,0.4c-0.6-0.1-0.6-0.6-0.6-1
		C903.5,101.3,903.8,101.1,904.1,101z"/>
	<path class="st39" d="M872,107c0.1,0.6,0,1.1-0.7,1c-0.6,0-0.7-0.5-0.6-1C871.2,107,871.6,107,872,107z"/>
	<path class="st39" d="M896.3,81.1c0.2,0.3,0.5,0.7,0.2,1.1c-0.2,0.2-0.4,0.4-0.7,0.2c-0.4-0.2-0.6-0.5-0.5-1
		C895.7,81.3,896,81.2,896.3,81.1z"/>
	<path class="st39" d="M791.3,127.3c-0.4-0.1-0.8-0.2-0.7-0.7c0.1-0.4,0.3-0.5,0.7-0.5c0.6,0.1,0.6,0.5,0.5,0.9
		C791.6,127.1,791.5,127.2,791.3,127.3z"/>
	<path class="st41" d="M959.2,74.1c0.1-0.1,0.1-0.2,0.1-0.2c0.6-0.2,1.2-0.4,1.9-0.1c0,0,0,0.3-0.1,0.3
		C960.5,74.5,959.8,74.4,959.2,74.1z"/>
	<path class="st39" d="M925.1,90.5c0.5,0.1,0.7,0.4,0.6,0.8c0,0.2-0.2,0.4-0.4,0.4c-0.5,0.1-0.8-0.1-0.8-0.6
		C924.7,90.9,924.9,90.7,925.1,90.5z"/>
	<path class="st39" d="M926.9,83.5c-0.1-0.5,0-0.9,0.6-1c0.5,0,0.7,0.3,0.7,0.8C927.8,83.4,927.3,83.5,926.9,83.5z"/>
	<path class="st39" d="M765.3,162.6c0.4,0.4,0.4,0.9-0.1,1.1c-0.5,0.3-0.8-0.1-0.9-0.6C764.6,162.9,764.9,162.7,765.3,162.6z"/>
	<path class="st39" d="M960.4,86.6c-0.3-0.3-0.4-0.7-0.1-1c0.3-0.4,0.7-0.1,1,0.1C961.1,86,960.8,86.4,960.4,86.6z"/>
	<path class="st39" d="M840.7,93c0.7-0.6,1.1-0.4,1.2,0.5C841.3,93.9,841,93.4,840.7,93z"/>
	<path class="st42" d="M926.2,76.1c0,0.1,0,0.2,0,0.4c-0.7,0-1.5,0-2.2,0C924.7,76.2,925.4,75.9,926.2,76.1z"/>
	<path class="st42" d="M911.9,105.2c0-0.1,0-0.2,0-0.4c0.6-0.2,1.3-0.5,2.2-0.5C913.2,104.8,912.6,105.1,911.9,105.2z"/>
	<path class="st41" d="M732,221.9c-0.1,0.5-0.5,0.8-1.2,1.2c0.3-0.8,0.7-1.1,1.2-1.4C732,221.7,732,221.8,732,221.9z"/>
	<path class="st41" d="M870.8,84.6c-0.3,0.4-0.8,0.5-1.3,0.5C869.8,84.6,870.3,84.7,870.8,84.6z"/>
	<path class="st38" d="M732,221.9c0-0.1,0-0.2,0-0.3c0.1-0.1,0.2-0.3,0.3-0.2C732.6,221.8,732.2,221.8,732,221.9z"/>
	<path class="st41" d="M868.9,85.2C868.8,85.2,868.8,85.3,868.9,85.2c-0.1,0.1-0.1,0-0.1,0C868.7,85.2,868.8,85.2,868.9,85.2
		C868.8,85.2,868.8,85.2,868.9,85.2z"/>
	<path class="st43" d="M858,102.6C858,102.6,858,102.6,858,102.6c-0.1-0.1,0-0.1,0-0.1C858.1,102.5,858.1,102.6,858,102.6
		C858.1,102.6,858.1,102.6,858,102.6z"/>
	<path class="st41" d="M893.7,99.1C893.7,99.1,893.6,99.1,893.7,99.1c-0.1,0-0.1,0-0.2,0C893.6,99,893.6,99.1,893.7,99.1z"/>
	<polygon class="st11" points="857.5,87.1 857.4,87.1 857.5,87.1 	"/>
	<path class="st42" d="M784.9,150.4c0,0.1,0,0.3-0.2,0.3c0,0,0,0,0,0C784.7,150.5,784.8,150.5,784.9,150.4L784.9,150.4z"/>
	<path class="st47" d="M870.2,121.2c0.1-0.1,0.2-0.2,0.2-0.2C870.3,121,870.3,121.1,870.2,121.2z"/>
	<path class="st46" d="M877,118.6c0.1-0.1,0.1-0.1,0.2-0.2C877.3,118.6,877.1,118.6,877,118.6z"/>
	<path class="st42" d="M785,150.5c0,0,0-0.1,0-0.1c0,0,0,0,0.1,0C785,150.4,785,150.4,785,150.5C784.9,150.4,785,150.5,785,150.5z"
		/>
	<polygon class="st42" points="941.7,94.2 941.7,94.1 941.8,94.1 	"/>
	<path class="st42" d="M759.9,168.5C759.9,168.5,759.9,168.5,759.9,168.5C759.9,168.5,759.9,168.5,759.9,168.5
		C759.9,168.5,759.9,168.5,759.9,168.5z"/>
	<path class="st43" d="M914.2,92.6c0,0,0.1-0.1,0.1-0.1C914.3,92.5,914.3,92.6,914.2,92.6C914.3,92.6,914.2,92.6,914.2,92.6
		C914.2,92.6,914.2,92.6,914.2,92.6z"/>
	<path class="st40" d="M946,92.4c0.1-0.1,0.3-0.1,0.4-0.2C946.4,92.3,946.2,92.4,946,92.4z"/>
	<path class="st47" d="M825.4,111.1c1.5,0.3,2.9,0.5,4.3,0.9c2.5,0.7,5.1,1.4,7.7,1.9c0.8,0.2,1,0.3,0.5,1.2
		c-2.1,3.2-4.7,6.1-6.6,9.5c-0.4,0.6-0.8,0.7-1.4,0.5c-3.6-1-7.1-2-10.8-2.3c-0.6,0-0.9-0.2-0.5-0.9c1.8-3.4,3.2-7,5.7-10
		C824.9,111,824.9,111,825.4,111.1z M830.6,117.7c0-0.4-0.2-0.5-0.5-0.7c-1-0.6-2-1.1-2.9-1.7c-0.4-0.2-0.5,0-0.6,0.2
		c-0.6,1-1.2,2.1-1.9,3.1c-0.4,0.7-0.2,1,0.6,1.2c0.8,0.2,1.6,0.5,2.3,0.7c0.2,0.1,0.5,0.4,0.7,0.1
		C829.2,119.6,829.9,118.6,830.6,117.7z"/>
	<path class="st45" d="M817.7,107.4c-0.2,0.6-0.8,0.8-1.2,1.2c-1.3,1.4-2.5,2.9-3.1,4.7c-0.1,0.4-0.3,0.7-0.8,0.4
		c-2.1-1.1-4.3-1.7-6.8-1.4c1.4-2.1,3.3-3.7,3.3-6.4c1,0.3,1.8,0.9,2.8,1.2c1.5,0.4,3.1,0.3,4.6,0.3
		C817,107.3,817.4,107.4,817.7,107.4L817.7,107.4z M809.4,110.3c0.2,0.1,0.4,0.3,0.6,0.4c1.5,1,2,0.8,2.4-1c0.2-1-0.9-0.7-1.2-1.2
		c-0.3-0.4-0.6-0.2-0.8,0.2C810.1,109.3,809.7,109.8,809.4,110.3z"/>
	<path class="st45" d="M819.2,100.2c0.4-0.5,0.9-0.7,1-1.1c0.6-2.2,2.1-1.6,3.6-1.2c0.4,0.1,0.9,0.1,1.2,0.5c-0.5,0.8-1,1.6-1.5,2.5
		c-0.3,0.6-0.6,0.6-1.1,0.4C821.4,100.8,820.5,100.3,819.2,100.2z M823.1,99.2c-0.2-0.4-0.4-0.7-0.8-0.7c-0.4,0-0.5,0.4-0.5,0.7
		c0,0.5,0.5,0.6,0.8,0.6C822.9,99.9,822.9,99.5,823.1,99.2z"/>
	<path class="st39" d="M834,110.4c-0.6-0.1-1.2-0.4-1.2-1.2c0-0.6,0.4-1.1,1-1.1c0.8,0,1.2,0.6,1.3,1.4
		C835.2,110.2,834.7,110.4,834,110.4z"/>
	<path class="st39" d="M831.1,96c0,0.8-0.4,1.2-1,1.2c-0.6-0.1-1.1-0.5-1.1-1.2c0-0.7,0.5-1,1.1-1C830.7,95.1,831.1,95.5,831.1,96z"
		/>
	<path class="st39" d="M807.1,118.1c0.7,0,1.1,0.4,1.1,1c0,0.6-0.4,1-1,1.1c-0.7,0-1.2-0.4-1.2-1.1
		C806.1,118.4,806.5,118.1,807.1,118.1z"/>
	<path class="st39" d="M825.2,105.9c0,0.7-0.4,1.1-1,1.1c-0.6,0-1.1-0.4-1.1-1.1c0-0.6,0.4-0.9,1-0.9
		C824.9,105,825.2,105.4,825.2,105.9z"/>
	<path class="st45" d="M818.8,87.5c-0.8,0-1-0.4-0.8-1.2c0.2-1,0.8-0.6,1.3-0.5c1.3,0.4,1.4,0.6,0.9,1.6
		C819.7,88.5,819.2,87.7,818.8,87.5c0.6-0.1,1.2-0.2,0.9-1.1c-0.2-0.4-0.6-0.5-1-0.2C818.1,86.6,818.5,87.1,818.8,87.5z"/>
	<path class="st39" d="M815.4,117.5c0,0.6-0.3,0.9-1,0.9c-0.6-0.1-1-0.5-1-1.1c0-0.6,0.4-0.8,0.9-0.8
		C815.1,116.5,815.4,116.8,815.4,117.5z"/>
	<path class="st45" d="M829.6,91.1c-0.2,0.6-0.5,0.8-1.1,0.4c-0.2-0.1-0.4-0.2-0.6-0.3c-0.4-0.3-1.2-0.3-0.7-1.1
		c0.4-0.6,0.6-1.4,1.6-0.8c0.2,0.1,0.3,0.2,0.5,0.3l0,0c-0.5,0.1-1.3,0-1.1,0.9c0.1,0.8,0.7,0.7,1.3,0.5
		C829.5,91,829.5,91,829.6,91.1z"/>
	<path class="st39" d="M822.2,91.9c0,0.5-0.2,0.9-0.8,0.9c-0.6,0-1.1-0.3-1.1-0.9c0-0.6,0.3-1,0.9-1C821.8,91,822.2,91.3,822.2,91.9
		z"/>
	<path class="st39" d="M802.7,142.7c-0.1,0.6-0.3,0.9-1,0.9c-0.5,0-0.9-0.3-0.9-0.8c0-0.6,0.3-1,0.9-1
		C802.4,141.8,802.7,142.2,802.7,142.7z"/>
	<path class="st39" d="M847.4,114.1c-0.1,0.5-0.3,0.9-0.9,0.9c-0.6,0-1-0.4-1-0.9c0-0.5,0.4-0.9,0.9-0.9
		C847,113.3,847.3,113.6,847.4,114.1z"/>
	<path class="st39" d="M896.9,109.8c0,0.6-0.3,0.8-0.9,0.8c-0.6,0-0.9-0.3-0.9-0.8c0-0.6,0.4-1,1-0.9
		C896.5,108.9,896.9,109.3,896.9,109.8z"/>
	<path class="st39" d="M826.1,86.2c-0.1,0.6-0.5,1-1,0.9c-0.6-0.1-0.8-0.5-0.8-1.1c0.1-0.6,0.4-0.8,1-0.7
		C825.8,85.4,826.1,85.7,826.1,86.2z"/>
	<path class="st39" d="M837.4,93.8c-0.1,0.6-0.3,1-0.9,1c-0.5,0-0.9-0.3-0.9-0.8c0-0.6,0.2-0.9,0.8-0.9
		C836.9,93.1,837.2,93.4,837.4,93.8z"/>
	<path class="st39" d="M863.4,116.7c0,0.5-0.1,0.9-0.7,0.9c-0.6,0-0.9-0.4-1-1c-0.1-0.5,0.2-0.8,0.7-0.8
		C863.1,115.8,863.4,116.1,863.4,116.7z"/>
	<path class="st39" d="M901.5,104.2c-0.1,0.5-0.4,0.8-0.9,0.8c-0.5,0-0.8-0.2-0.8-0.8c0-0.6,0.2-0.9,0.8-0.9
		C901.1,103.4,901.3,103.7,901.5,104.2z"/>
	<path class="st39" d="M808,143.9c-0.6,0-1-0.2-1-0.7c0-0.5,0.2-0.9,0.8-0.9c0.5,0,0.9,0.2,1,0.8C808.8,143.6,808.4,143.8,808,143.9
		z"/>
	<path class="st39" d="M865.9,121.3c-0.1,0.5-0.3,0.8-0.8,0.8c-0.6,0-0.9-0.3-0.9-0.8c0-0.5,0.4-0.8,0.9-0.8
		C865.6,120.5,865.8,120.8,865.9,121.3z"/>
	<path class="st39" d="M843,110.8c-0.1,0.5-0.5,0.8-1,0.8c-0.5,0-0.8-0.4-0.7-0.9c0-0.5,0.3-0.8,0.8-0.8
		C842.6,110,842.9,110.3,843,110.8z"/>
	<path class="st39" d="M834,131.2c-0.6,0-0.9-0.3-0.9-0.9c0-0.5,0.2-0.8,0.7-0.7c0.6,0,0.9,0.3,0.9,1
		C834.8,131.1,834.5,131.2,834,131.2z"/>
	<path class="st39" d="M894.4,105c0.5,0.1,0.8,0.4,0.8,0.9c0,0.5-0.4,0.7-0.9,0.7c-0.5,0-0.7-0.3-0.7-0.8
		C893.6,105.3,893.9,105.1,894.4,105z"/>
	<path class="st39" d="M837.8,125.1c-0.1,0.4-0.3,0.7-0.8,0.7c-0.5,0-0.9-0.3-0.9-0.9c0-0.5,0.4-0.7,0.9-0.7
		C837.5,124.3,837.8,124.6,837.8,125.1z"/>
	<path class="st39" d="M892.6,108.1c-0.1,0.5-0.4,0.8-0.8,0.9c-0.5,0-0.7-0.2-0.7-0.7c0-0.5,0.1-0.9,0.7-0.9
		C892.2,107.4,892.5,107.7,892.6,108.1z"/>
	<path class="st39" d="M822.6,128c0.5,0.1,0.9,0.3,1,0.8c0,0.5-0.2,0.8-0.7,0.8c-0.5,0-0.8-0.3-0.9-0.7
		C821.9,128.4,822.3,128.2,822.6,128z"/>
	<path class="st39" d="M813.7,103.6c-0.3,0-0.6-0.3-0.6-0.7c0-0.5,0.3-0.7,0.8-0.7c0.4,0,0.8,0.3,0.7,0.7
		C814.6,103.4,814.3,103.7,813.7,103.6z"/>
	<path class="st39" d="M829.2,127.6c0,0.4-0.3,0.6-0.7,0.6c-0.5,0-0.8-0.3-0.8-0.8c0-0.4,0.2-0.6,0.6-0.6
		C828.8,126.8,829.1,127.1,829.2,127.6z"/>
	<path class="st39" d="M849.9,104.6c-0.5-0.1-0.8-0.3-0.8-0.7c0-0.5,0.3-0.7,0.8-0.7c0.4,0,0.7,0.3,0.7,0.7
		C850.6,104.3,850.3,104.5,849.9,104.6z"/>
	<path class="st39" d="M821.2,124.5c0.4,0.1,0.7,0.3,0.7,0.8c0,0.5-0.4,0.6-0.8,0.6c-0.4,0-0.6-0.3-0.7-0.7
		C820.4,124.8,820.7,124.5,821.2,124.5z"/>
	<path class="st39" d="M887,109.4c-0.1,0.4-0.3,0.7-0.8,0.7c-0.3,0-0.5-0.3-0.5-0.6c0-0.4,0.2-0.6,0.6-0.7
		C886.7,108.8,886.9,109,887,109.4z"/>
	<path class="st39" d="M856,119.9c-0.4-0.1-0.6-0.4-0.6-0.8c0-0.4,0.3-0.6,0.7-0.6c0.4,0,0.6,0.4,0.6,0.7
		C856.7,119.7,856.4,119.9,856,119.9z"/>
	<path class="st46" d="M818.8,87.5c-0.3-0.4-0.7-0.8-0.1-1.3c0.4-0.3,0.8-0.2,1,0.2C820,87.3,819.4,87.4,818.8,87.5
		C818.8,87.5,818.8,87.5,818.8,87.5z"/>
	<path class="st39" d="M804.4,146.2c0,0.3-0.2,0.6-0.6,0.6c-0.3,0-0.6-0.2-0.6-0.6c0-0.4,0.2-0.7,0.6-0.6
		C804.2,145.6,804.4,145.9,804.4,146.2z"/>
	<path class="st39" d="M852.9,116.7c0.3,0,0.6,0.1,0.6,0.5c0,0.4-0.2,0.6-0.6,0.7c-0.4,0-0.5-0.2-0.5-0.6
		C852.4,116.9,852.5,116.7,852.9,116.7z"/>
	<path class="st39" d="M810.7,135.4c0,0.4-0.2,0.5-0.6,0.5c-0.4,0-0.6-0.2-0.6-0.5c0-0.3,0.2-0.6,0.6-0.6
		C810.5,134.8,810.6,135.1,810.7,135.4z"/>
	<path class="st39" d="M873.5,110.4c-0.3-0.1-0.5-0.3-0.4-0.6c0-0.3,0.3-0.4,0.6-0.3c0.3,0,0.4,0.2,0.4,0.5
		C874,110.2,873.8,110.4,873.5,110.4z"/>
	<path class="st39" d="M869.8,114.4c-0.3,0-0.5-0.1-0.5-0.4c0-0.3,0.1-0.5,0.3-0.5c0.3,0,0.5,0.1,0.5,0.4
		C870.2,114.2,870,114.3,869.8,114.4z"/>
	<path class="st45" d="M829.2,89.6c1.4,0.2,0.7,0.9,0.3,1.5c0,0-0.1-0.1-0.1-0.1C829.6,90.4,829.3,90,829.2,89.6L829.2,89.6z"/>
	<path class="st45" d="M817.8,107.4c0,0,0.1-0.1,0.1-0.1C817.8,107.3,817.8,107.3,817.8,107.4C817.8,107.3,817.8,107.3,817.8,107.4
		C817.7,107.4,817.8,107.4,817.8,107.4z"/>
	<path class="st39" d="M911.6,81.3c0,0.6-0.4,0.8-0.8,0.9c-0.5,0.1-0.8-0.3-0.8-0.8c-0.1-0.5,0.2-0.8,0.7-0.9
		C911.3,80.4,911.5,80.8,911.6,81.3z"/>
	<path class="st39" d="M918.9,83.1c0,0.5-0.3,0.8-0.8,0.8c-0.5,0-0.8-0.3-0.8-0.8c0-0.5,0.3-0.8,0.8-0.8
		C918.6,82.3,918.9,82.6,918.9,83.1z"/>
	<path class="st39" d="M930.6,79.8c0,0.6-0.4,0.8-0.9,0.8c-0.4,0-0.7-0.3-0.7-0.7c0-0.5,0.3-0.8,0.8-0.8
		C930.3,79.1,930.5,79.5,930.6,79.8z"/>
	<path class="st39" d="M934.3,80.2c-0.1,0.6-0.7,0.5-1.1,0.6c-0.4,0.1-0.6-0.2-0.6-0.6c0-0.5,0.3-0.7,0.8-0.7
		C933.7,79.5,934.1,79.7,934.3,80.2z"/>
	<path class="st39" d="M893.5,85c-0.4-0.1-0.8-0.3-0.8-0.7c0-0.5,0.4-0.8,0.9-0.8c0.5,0,0.7,0.3,0.7,0.8C894.2,84.7,894,85,893.5,85
		z"/>
	<path class="st39" d="M924.8,81.6c0.5,0.1,0.7,0.3,0.7,0.8c0,0.5-0.4,0.7-0.8,0.6c-0.4,0-0.6-0.3-0.6-0.7
		C924.1,81.8,924.3,81.6,924.8,81.6z"/>
	<path class="st39" d="M920.5,79.7c0.5,0,0.8,0.3,0.8,0.7c0,0.4-0.2,0.6-0.7,0.7c-0.4,0-0.7-0.2-0.7-0.6
		C919.8,80.1,920.1,79.8,920.5,79.7z"/>
	<path class="st39" d="M891,87.2c-0.2-0.1-0.5-0.2-0.7-0.4c-0.3-0.3-0.3-0.6,0-0.9c0.2-0.3,0.5-0.3,0.8-0.2c0.4,0.2,0.4,0.5,0.3,0.9
		C891.3,86.9,891.2,87,891,87.2C891,87.2,891,87.2,891,87.2z"/>
	<path class="st39" d="M952.6,75.7c0,0.4-0.2,0.7-0.6,0.7c-0.4,0-0.7-0.3-0.8-0.7c0-0.4,0.2-0.6,0.7-0.6
		C952.3,75,952.6,75.3,952.6,75.7z"/>
	<path class="st39" d="M954.1,77c-0.1,0.4-0.4,0.6-0.8,0.6c-0.4,0-0.6-0.4-0.5-0.8c0-0.3,0.3-0.6,0.6-0.5
		C953.9,76.3,954.1,76.6,954.1,77z"/>
	<path class="st39" d="M907.1,80.5c0,0.4-0.2,0.6-0.5,0.6c-0.4,0.1-0.7-0.1-0.7-0.5c0-0.4,0.2-0.6,0.5-0.6
		C906.8,79.9,907,80.1,907.1,80.5z"/>
	<path class="st39" d="M956.4,74.3c0,0.1,0.1,0.3,0.1,0.4c0.1,0.4-0.1,0.7-0.5,0.7c-0.3,0.1-0.6,0-0.7-0.3c-0.1-0.4,0.2-0.6,0.5-0.8
		C956,74.4,956.2,74.4,956.4,74.3C956.4,74.3,956.4,74.3,956.4,74.3z"/>
	<path class="st39" d="M965.3,74c0,0.4-0.2,0.6-0.6,0.6c-0.3,0-0.5-0.1-0.6-0.4c0-0.3,0.1-0.6,0.5-0.7C965,73.5,965.2,73.7,965.3,74
		z"/>
	<path class="st45" d="M792.4,100.1c0.1-0.3-0.3-1,0.4-0.9c0.5,0.1,1.2,0.4,1.2,1c0,0.5-0.3,1.1-0.6,1.5c-0.3,0.3-0.6-0.3-1-0.4
		C791.5,100.9,792.3,100.5,792.4,100.1c0,0.1,0,0.3,0.1,0.4c0.1,0.4,0.4,0.6,0.8,0.4c0.2-0.1,0.3-0.3,0.3-0.6
		c-0.1-0.4-0.3-0.6-0.7-0.5C792.7,100,792.6,100.1,792.4,100.1z"/>
	<path class="st45" d="M800.3,93.1c0.4,0.2,0.8,0.4,0.3,0.9c-0.3,0.3-0.5,1-1.2,0.4c-0.1-0.1-0.3-0.2-0.4-0.3
		c-0.3-0.3-1.1-0.4-0.5-1.2c0.5-0.8,0.9-0.1,1.3,0c-0.3,0.2-0.7,0.3-0.5,0.8c0.1,0.2,0.3,0.3,0.5,0.3
		C800.3,93.8,800.4,93.5,800.3,93.1z"/>
	<path class="st39" d="M794.9,110.7c0.4,0.1,0.6,0.3,0.6,0.7c0,0.4-0.3,0.6-0.7,0.6c-0.4,0-0.6-0.3-0.6-0.7
		C794.2,110.9,794.5,110.7,794.9,110.7z"/>
	<path class="st39" d="M790.8,124.9c0,0.4-0.2,0.7-0.7,0.6c-0.4,0-0.5-0.3-0.5-0.7c0-0.4,0.2-0.7,0.7-0.6
		C790.7,124.3,790.8,124.6,790.8,124.9z"/>
	<path class="st39" d="M793.2,109.9c-0.4-0.1-0.5-0.3-0.5-0.7c0-0.4,0.3-0.5,0.7-0.5c0.3,0,0.5,0.2,0.5,0.5
		C793.8,109.7,793.6,109.9,793.2,109.9z"/>
	<path class="st39" d="M797.1,100.8c-0.4,0-0.5-0.3-0.5-0.6c0-0.3,0.2-0.5,0.5-0.5c0.4,0,0.6,0.2,0.6,0.6
		C797.8,100.6,797.5,100.8,797.1,100.8z"/>
	<path class="st46" d="M800.3,93.1c0.1,0.4,0.1,0.7-0.4,0.8c-0.2,0-0.4-0.1-0.5-0.3c-0.2-0.5,0.2-0.6,0.5-0.8
		C800,93,800.1,93.1,800.3,93.1z"/>
	<path class="st46" d="M859.1,106.5c0.9,0.5,1.8,1.1,2.6,1.6c0.2,0.1,0.1,0.4,0,0.5c-0.4,0.7-0.6,1.7-1.1,2.1
		c-0.7,0.5-1.3-0.5-2.1-0.7c-1-0.2-1.2-0.8-0.6-1.6c0.3-0.5,0.5-1,0.8-1.5C858.8,106.8,858.8,106.5,859.1,106.5z"/>
	<path class="st39" d="M932.3,89.9c0,0.5-0.3,0.8-0.8,0.9c-0.6,0-0.9-0.3-0.9-0.8c0-0.6,0.3-0.8,0.9-0.8
		C932,89.1,932.3,89.4,932.3,89.9z"/>
	<path class="st39" d="M930.1,93.5c-0.1,0.6-0.4,0.8-0.9,0.7c-0.5,0-0.7-0.4-0.7-0.9c0-0.5,0.3-0.7,0.7-0.7
		C929.8,92.7,930.1,93,930.1,93.5z"/>
	<path class="st39" d="M930.9,97.4c0,0.5-0.3,0.8-0.8,0.8c-0.4,0-0.7-0.3-0.8-0.7c0-0.5,0.3-0.8,0.8-0.8
		C930.6,96.6,930.8,96.9,930.9,97.4z"/>
	<path class="st39" d="M925.3,98.2c-0.5,0-0.7-0.3-0.7-0.7c0-0.5,0.3-0.8,0.7-0.8c0.5,0,0.8,0.3,0.8,0.8
		C926.1,97.9,925.7,98.2,925.3,98.2z"/>
	<path class="st39" d="M924.5,95.6c-0.4-0.1-0.7-0.2-0.7-0.7c0-0.5,0.2-0.8,0.7-0.8c0.4,0,0.7,0.3,0.7,0.6
		C925.2,95.2,924.9,95.5,924.5,95.6z"/>
	<path class="st39" d="M929.8,90.5c-0.1,0.4-0.2,0.7-0.6,0.7c-0.4,0-0.6-0.2-0.7-0.6c0-0.4,0.2-0.7,0.6-0.7
		C929.5,89.9,929.7,90.1,929.8,90.5z"/>
	<path class="st39" d="M954.7,87.7c-0.5,0-0.9-0.2-0.8-0.7c0-0.5,0.3-0.8,0.8-0.9c0.5-0.1,0.8,0.3,0.8,0.8
		C955.4,87.4,955.2,87.7,954.7,87.7z"/>
	<path class="st39" d="M959.4,83.7c0.4,0,0.6,0.2,0.5,0.6c0,0.3-0.2,0.6-0.6,0.6c-0.4,0-0.6-0.3-0.6-0.7
		C958.7,83.8,959,83.7,959.4,83.7z"/>
	<path class="st39" d="M954.9,84.4c0.2,0,0.4,0,0.6,0c0.3,0,0.5,0.2,0.5,0.5c0,0.2-0.2,0.3-0.4,0.4c-0.3,0.1-0.6,0-0.6-0.3
		C954.9,84.8,955,84.6,954.9,84.4C955,84.4,954.9,84.4,954.9,84.4z"/>
	<path class="st39" d="M840,90.5c-0.1,0.4-0.2,0.7-0.7,0.6c-0.4,0-0.6-0.3-0.5-0.7c0-0.4,0.2-0.7,0.6-0.6
		C839.8,89.8,840,90.1,840,90.5z"/>
	<path class="st39" d="M844.1,91.2c-0.4,0-0.6-0.3-0.6-0.7c0-0.4,0.3-0.6,0.7-0.6c0.4,0,0.7,0.2,0.6,0.6
		C844.7,91,844.5,91.3,844.1,91.2z"/>
	<path class="st39" d="M841.6,91.6c0,0.4-0.3,0.6-0.6,0.6c-0.4,0-0.6-0.2-0.6-0.6c0-0.4,0.2-0.6,0.6-0.6
		C841.4,91,841.6,91.3,841.6,91.6z"/>
	<path class="st46" d="M841.4,100.6c0.1,0.9-1.3,1.9-2.1,1.6c-0.1-0.1-0.3-0.1-0.4-0.2c-1.3-0.6-1.3-0.6-0.4-1.7
		c0.9-1.1,1.8-1.1,2.7,0C841.3,100.4,841.4,100.6,841.4,100.6z"/>
	<path class="st39" d="M775.1,165.1c-0.1,0.3-0.3,0.5-0.7,0.5c-0.3-0.1-0.5-0.3-0.4-0.6c0-0.4,0.3-0.6,0.7-0.5
		C775,164.6,775.1,164.8,775.1,165.1z"/>
	<path class="st46" d="M830.6,117.7c-0.7,0.9-1.4,1.9-2.1,2.9c-0.2,0.3-0.5,0-0.7-0.1c-0.8-0.2-1.5-0.5-2.3-0.7
		c-0.8-0.2-1-0.5-0.6-1.2c0.6-1,1.2-2.1,1.9-3.1c0.1-0.2,0.2-0.4,0.6-0.2c0.9,0.6,1.9,1.1,2.9,1.7
		C830.4,117.1,830.6,117.3,830.6,117.7z"/>
	<path class="st46" d="M809.4,110.3c0.4-0.5,0.7-1,1-1.6c0.2-0.4,0.4-0.6,0.8-0.2c0.4,0.4,1.5,0.2,1.2,1.2c-0.4,1.7-0.9,1.9-2.4,1
		C809.8,110.6,809.6,110.5,809.4,110.3z"/>
	<path class="st46" d="M823.1,99.2c-0.1,0.3-0.1,0.7-0.5,0.6c-0.4,0-0.8-0.1-0.8-0.6c0-0.3,0.1-0.7,0.5-0.7
		C822.7,98.5,822.9,98.8,823.1,99.2z"/>
	<path class="st46" d="M829.2,89.6c0.1,0.5,0.4,0.9,0.2,1.4c-0.6,0.2-1.2,0.3-1.3-0.5C827.9,89.6,828.7,89.7,829.2,89.6z"/>
	<path class="st46" d="M792.4,100.1c0.1-0.1,0.3-0.1,0.4-0.2c0.4-0.1,0.7,0,0.7,0.5c0,0.2-0.1,0.5-0.3,0.6c-0.4,0.1-0.7,0-0.8-0.4
		C792.5,100.4,792.5,100.2,792.4,100.1C792.5,100.1,792.4,100.1,792.4,100.1z"/>
</g>
</svg>
