<?xml version="1.0" encoding="utf-8"?>
<!-- Generator: Adobe Illustrator 23.0.4, SVG Export Plug-In . SVG Version: 6.00 Build 0)  -->
<svg version="1.1" id="Capa_1" xmlns="http://www.w3.org/2000/svg" xmlns:xlink="http://www.w3.org/1999/xlink" x="0px" y="0px"
	 viewBox="0 0 1069 373.9" style="enable-background:new 0 0 1069 373.9;" xml:space="preserve">
<style type="text/css">
	.st0{clip-path:url(#SVGID_2_);}
	.st1{clip-path:url(#SVGID_4_);}
	.st2{fill:#214477;}
	.st3{fill:#D7F4DD;}
	.st4{fill:#04B3AD;}
	.st5{fill:#04B1AC;}
	.st6{fill:#05B3AD;}
	.st7{fill:#F38383;}
	.st8{fill:#D6F4DD;}
	.st9{fill:#EE8283;}
	.st10{fill:#D5F3DC;}
	.st11{fill:#EF8283;}
	.st12{fill:#F18283;}
	.st13{fill:#06B1AC;}
	.st14{fill:#07B3AE;}
	.st15{fill:#F28384;}
	.st16{fill:#CEEBD8;}
	.st17{clip-path:url(#SVGID_6_);}
	.st18{clip-path:url(#SVGID_8_);}
	.st19{clip-path:url(#SVGID_10_);}
	.st20{clip-path:url(#SVGID_12_);}
	.st21{clip-path:url(#SVGID_14_);}
	.st22{clip-path:url(#SVGID_16_);}
	.st23{fill:#204478;}
	.st24{fill:#264376;}
	.st25{fill:#374B78;}
	.st26{fill:#F28283;}
	.st27{fill:#CCE8D6;}
	.st28{fill:#D9F1DA;}
	.st29{fill:#06A9D7;}
	.st30{fill:#07ACD9;}
	.st31{fill:#0BA9D6;}
	.st32{fill:#2665AC;}
	.st33{fill:#CDECD9;}
	.st34{fill:#B9DCD0;}
	.st35{fill:#08A6D4;}
	.st36{fill:#0AA0CF;}
	.st37{fill:#1D4578;}
	.st38{fill:#04ADAA;}
	.st39{fill:#DDE7D2;}
	.st40{fill:#F08384;}
	.st41{fill:#0483C3;}
	.st42{fill:#E88385;}
	.st43{fill:#04B0AC;}
	.st44{fill:#F48383;}
	.st45{fill:#0CAFDC;}
	.st46{fill:#D3F2DC;}
	.st47{fill:#08B0DD;}
	.st48{fill:#03B2AD;}
	.st49{fill:#0483C4;}
	.st50{fill:#03B1AC;}
	.st51{clip-path:url(#SVGID_18_);}
	.st52{clip-path:url(#SVGID_20_);}
	.st53{fill:#214578;}
	.st54{fill:#D0EED9;}
	.st55{fill:#C6E4D4;}
	.st56{fill:#EE8183;}
	.st57{fill:#0A84C2;}
	.st58{fill:#05B0AC;}
	.st59{fill:#E98083;}
	.st60{fill:#06ABA9;}
	.st61{fill:#CCE9D7;}
	.st62{fill:#09ABD8;}
	.st63{fill:#E37E82;}
	.st64{fill:#09A5A6;}
	.st65{fill:#BFDACE;}
	.st66{fill:#D87A81;}
	.st67{fill:#AECBC5;}
	.st68{fill:#F05A5E;}
	.st69{clip-path:url(#SVGID_22_);}
	.st70{clip-path:url(#SVGID_26_);}
	.st71{clip-path:url(#SVGID_30_);}
	.st72{clip-path:url(#SVGID_34_);}
	.st73{fill:none;stroke:#000000;stroke-miterlimit:10;}
</style>
<g>
	<g>
		<g id="XMLID_6_">
			<g>
				<path class="st37" d="M971,138.6c0.4,0.9-0.4,1.2-0.9,1.7c-1.6,1.2-3.7,1.6-5.6,2.2c-5.4,1.7-11,2.1-16.4,2.7
					c-6.7,0.7-13,1.6-19.7,1.2c-14.7-0.8-29.3-1.2-44-1c-9.1,0.1-18.6,1-27.5,3.4c-10.7,2.8-22.4,8.1-33.6,10.5
					c-4,0.8-7.7,2-11.7,2.9c-2.1,0.5-4.3,1-6.5,1.4c-1.4,0.2-3,0.1-4.6-0.2c-2.9-0.6-5.4-0.1-8.1,0.9c-2.7,1-6,0.9-9.4-0.4
					c-1.5-0.6-2.9-0.2-4.4-0.1c-3.1,0.4-6.1,1.2-9.2,1.9c-11.4,2.5-23.2,4-34.7,5.9c-12.6,2.1-25.5,5.1-36.9,10.9
					c-1.3,0.7-2.8,1-4,1.7c-0.6,0.3-1.2,0.3-1.6-0.3c-0.4-0.6,0-1,0.5-1.4c2.1-1.7,4.7-3,7.3-4.2c6.1-2.8,12.7-5.1,19.8-6.8
					c7.9-1.9,16.5-3.2,24.6-4.3c9.3-1.3,19.4-2.5,28.3-5.5c1.1-0.4,2.4-0.6,3.2-1.3c-0.8,0-1.6,0-2.5,0c-0.6,0-1.2,0-1.8,0
					c-0.6-0.1-1.2-0.2-1.3-0.6c-0.2-0.4,0.2-0.8,0.7-1c2.8-1.3,5.2-3,8.5-2.9c1,0,2-0.1,2.9-0.5c0.9-0.4,0.8-1,0.2-1.9
					c-1-1.4-2-2.8-2.9-4.3c-0.5-0.9-1.1-1.8-1.4-2.8c-0.7-2.2-0.4-3.4,1.2-3.2c2.4,0.2,4.8,0.3,7.3,1.1c0.7,0.2,1.1,0,1.4-0.5
					c1.9-2.8,2.3-7.1,0.4-13.5c-1.7-5.8-3.3-11.3-3.4-14.3c0-2.1-0.6-4.4-0.8-6.3c-0.2-2.1,0.1-3.7,0.8-5.2c1-2.3,4.1-3.3,6.6-4.8
					c2.2-1.3,4.6-2.7,6.2-4.6c0.6-0.7,0.6-1.5-0.2-2.5c-0.8-0.9-1.3-1.8-2-2.6c-0.3-0.4-0.4-0.7,0.2-1c0.6-0.2,1.4,0,2,0.2
					c1.1,0.4,2.3,0.9,3.3,1.4c0.8,0.4,1.1,0.3,1.5-0.1c2.3-2.4,4.1-5.2,4.7-8.7c0.3-2.1,0.8-4.3,0.9-6.6c0.2-2.7,0.1-5.6-0.5-8.7
					c-0.3-1.9-0.6-4-0.9-6.2c-0.2-1.5,0.1-2.9,1.2-4.2c0.2,0,0.3,0,0.5,0c3,0.5,4.5,2.8,6,5c4.3,6.5,8.4,12.1,12.8,17.3
					c4.9,5.8,11.3,10.5,18.6,14.6c3.8,2.1,7.9,3.8,12.1,5.8c3.4,1.6,6.7,3.6,10.4,5.1c5.6,2.2,11.1,4.9,16.7,7.3c0,0,0.1,0,0.1,0.1
					c2.6,1.7,5,1.8,7.5,2.1c6.2,0.7,12.4,2,18.7,3.8c5.5,1.6,11.1,3.7,16.6,5.2c4.3,1.2,8.7,2.4,13,3.1c3.5,0.5,6.9,1.4,10.3,2.5
					c3.6,1.1,7.1,1,10.7,0.8c0.8,0,1.7,0,2.5-0.1c0.8,0,1.5,0.3,2,1c0.5,0.7,0.2,1.2-0.2,1.8c-1.3,1.8-3.4,2.4-5.5,3
					c-2.7,0.9-5.4,1.5-8.4,1.4c-0.1,0.2,0.1,0.2,0.2,0.2c4.4,0.8,8.7,1.8,13.1,1.4c0.9-0.1,1.9-0.3,2.9-0.2
					C969.9,137.3,970.6,137.7,971,138.6z M968.9,139.2c0.2-0.1,0.6-0.2,0.3-0.5c-0.3-0.3-4.9-0.1-5,0.3c-0.3,1.1-1.3,1.3-2.3,1.7
					c-0.6,0.3-1.3,0.5-1.7,1.2c0.3,0,0.5,0,0.6,0c1.5-0.4,3.1-0.8,4.6-1.2C966.6,140.2,967.9,139.9,968.9,139.2z M964.3,131.3
					c0.5-0.3,1.1-0.5,0.9-1.1c-0.2-0.4-0.8-0.1-1.3-0.1c-1.3-0.2-2.6-0.1-3.4,0.9c-0.9,1.1-2.1,1-3.4,0.3c-0.8-0.4-1.5-0.9-2.4-1.1
					c-0.1-0.3-0.4-0.2-0.6-0.3c-1.6-0.4-3.1-0.7-4.7-0.9c-2.6-0.2-5.2-0.7-7.8-1c-0.5-0.1-0.9-0.1-1.4-0.2c-0.9-0.1-1.7-0.3-2.6-0.5
					c-4.1-1-8.1-2.1-12.1-3.1c-0.8-0.4-1.4-0.4-2.2-0.4c0.7,0.2,1.4,0.5,2.1,0.7c0.7,0.5,1.4,0.7,2.1,1c0.7,0.3,1.2,0.7,1.2,1.3
					c0,0.7-0.7,0.4-1.2,0.3c-4.6-1.3-9.2-2.3-13.8-4.2c-1-0.4-2-0.8-3-1.2c-2-0.7-4-1.5-6-2.2c-2.8-1-5.4-1.4-7.9-1.4
					c-0.3,0-0.6-0.1-1-0.1c-3.5-0.3-7.2-1.4-10.8-1.9c0.2,0.3,0.6,0.4,0.9,0.5c2,0.8,2.3,1.3,1.6,2.6c-0.3,0.5,0.1,0.9,0.8,1.2
					c1.1,0.4,2.3,0.7,3.4,0.7c0,0,0,0,0,0c0.3,0.1,0.5,0.1,0.8,0.2c3.4,0.3,6.8,1,10.4,2.1c2.8,0.9,5.6,1.8,8.3,2.5
					c0.4,0.2,0.9,0.4,1.3,0.5c0.2,0.1,0.5,0.3,0.8,0.4c2.8,0.9,5.6,2,8.3,2.6c1.5,0.3,3,1.2,4.5,1.3c0.4,0.1,0.8,0.2,1.3,0.3
					c0.8,0.4,1.5,0.6,2.2,0.5c1.6-0.1,3-0.6,4.9-0.2c-0.2-0.3-0.3-0.5-0.4-0.6c-1-1.6-0.8-3.1,1.4-2.9c1.6,0.1,3.1,0.3,4.7,0.5
					c1.6,0.2,3.2,0.5,4.8,0.8c1.9,0.3,3.7,1.2,4.8,3.1c0.5,0.8,1.5,1.3,1.9,2.2c0.1,0.3,0.5,0.2,0.7,0.2c2.7-0.2,5.5-0.4,8.1-1.3
					C961.7,132.6,963.2,132.2,964.3,131.3z M963.1,138.9c-1.1-0.4-1.9-0.2-2.8-0.3c-2.4-0.3-5.1-1.5-7.1,0.1
					c-3.2,0.2-6.3,0.2-8.3,2.4c-0.4,0.4-0.8,0.7-1.2,1.1c0,0,0,0,0,0c0,0,0,0,0,0c-0.1,0.1-0.2,0.2-0.3,0.2
					c-1.1,0.3-1.8,1.1-2.8,1.6c0.1,0.1,0.1,0.2,0.2,0.3c1.2-0.2,2.5-0.3,3.7-0.5c0,0,0,0,0,0c0.2,0,0.3,0,0.3-0.1c0,0,0,0,0,0
					c0,0,0,0,0,0c2.1,0.1,4-0.3,5.9-0.6c0.6,0.1,1.2,0,1.6-0.2c2.3,0.2,4.4-0.2,6.1-1.5c0.2-0.1,0.4-0.2,0.5-0.3
					c0.2-0.1,0.3-0.2,0.4-0.4C960.5,139.9,962.1,139.8,963.1,138.9z M959.2,130.6c0.1,0,0.1-0.2,0.1-0.3c-0.6-0.3-1.2-0.2-1.9-0.1
					c0,0-0.1,0.1-0.1,0.1C958,130.7,958.6,130.9,959.2,130.6z M953.6,137.4c-0.4-0.1-0.6-0.2-0.8-0.2c-1.4-0.2-2.8-0.7-4.2-1
					c-1.3-0.3-2.8-0.9-4.2-1.2c-2.7-0.7-5.4-1.4-8-2.4c-1.9-0.8-3.5-0.9-4.9-0.4c-0.8,0.3-1.7,0.3-2.7,0.1c-0.2-0.1-0.4-0.1-0.5-0.1
					c-3.8-1-7.6-2-11.4-3.3c-4.9-1.7-9.7-3.3-14.5-4.7c-2.4-0.7-4.7-1.3-7.1-1.6c-2-0.2-4.1-0.4-6.2-0.9c-2-0.5-3-1.7-2.4-3
					c0.2-0.4-0.1-0.7-0.6-0.9c-1.1-0.4-2.1-1-3.2-1.3c-3.6-0.9-7.3-1.5-10.8-1.7c-1.8-0.1-3.7-0.2-5.3,0.3c-1.4,0.5-2.8,1-4.5,1.1
					c-0.9,0.1-1.8,0.2-2.7,0.4c-0.6,0.1-1.2,0.3-1.1,0.9c0.1,0.5,0.7,0.7,1.2,0.8c2.5,0.8,4.4,2.3,6.1,4.1c0.2,0.2,0.5,0.5,0.3,0.8
					c-0.1,0.2-0.4,0.3-0.7,0.3c-1.9-0.3-3.8-0.5-5.7-1c-2.3-0.6-4.7-1-7.1-1c0,0.3,0.3,0.3,0.5,0.4c4,1.5,8.1,2.9,12.2,4.3
					c2.5,0.9,4.9,1.6,7.1,0.9c0.6-0.2,1.3-0.1,1.9-0.1c5.1-0.1,10.4,0.8,15.6,1.7c3.3,0.6,6.4,1,9.3,0.7c1.4-0.2,3,0.1,4.6,0.5
					c3.4,0.9,6.9,2.4,10.3,3c0.5,0.1,1.2,0.2,1.5,0.9c0.3,0.7-0.1,1-0.5,1.3c-0.2,0.1-0.4,0.2-0.6,0.3c-2.4,0.4-3.4,2.4-4.8,4
					c-0.4,0.4-0.5,0.9-0.1,1.7c0.4,0.8,1.1,1.2,1.8,1.3c2.6,0.4,5.1,0.7,7.5,0.6c0.9-0.1,1.3-0.6,0.9-1.8c-0.8-2.7-0.3-4.6,1.9-5.4
					c0.7-0.3,1.3-0.6,1.9-1c1.3-0.8,2.9-1,4.7-0.6c0.9,0.2,1.9,0.6,3,1c0.8,0.3,1.4,0.9,1.6,1.7c0.6,1.9,0.7,3.7-0.8,4.6
					c-0.3,0.2-0.6,0.5-0.4,1c0.2,0.5,0.7,0.7,1.2,0.8c0.6,0.2,1.2,0.4,1.8,0.5c3.9,0.7,6.4-1,8.8-2.8c2-1.5,4.2-2.7,7.2-2.9
					C951.7,137.8,952.5,137.8,953.6,137.4z M950.9,134.2c0.1-0.3-0.2-0.6-0.5-0.8c-0.7-0.5-1.2-1.2-1.8-1.9c-0.5-0.6-1.1-1-1.9-1.3
					c-1.6-0.6-3.1-0.6-4.6-0.8c-2.2-0.4-4.4-0.7-6.5-0.7c-1,0-1.1,0.3-0.6,1.3c0.3,0.5,0.7,0.8,1.2,1c2.8,1.3,5.6,2.1,8.4,2.8
					c1.9,0.5,3.8,0.9,5.6,0.6C950.5,134.4,950.8,134.5,950.9,134.2z M944.3,127.9c1.5,0.2,3,0.4,4.5,0.6c-2.6-1-5.2-1.6-7.8-2.1
					c-5.6-1.1-11.1-2.1-16.6-4c-1.3-0.4-2.6-0.9-3.9-1.2c-3.2-0.9-6.4-2-9.6-2.9c-5.3-1.5-10.4-2.6-15.5-3.2c-7-0.9-14-1.6-21-1.9
					c-0.7,0-1.4-0.1-2,0.4c0.5,0.1,0.9,0.2,1.3,0.2c3.7,0.4,7.5,1.1,11.1,1.5c4.2,0.5,8.5,1.8,12.6,1.9c1.9,0.1,3.9,0.3,5.9,1
					c3.9,1.3,7.8,2.8,11.7,4.2c1.1,0.4,2.3,1.1,3.5,1.3c1.8,0.4,3.6,0.9,5.4,1.5c0.8,0.3,1.5,0.4,2.3,0.5c-0.7-0.5-1.4-0.7-2.1-1
					c-0.8-0.3-1.7-0.5-2.5-1c-0.4-0.3-1-0.5-0.9-1c0.1-0.4,0.6-0.3,0.9-0.2c2.7,0.3,5.5,1.2,8.2,2
					C934.6,125.8,939.4,127.2,944.3,127.9z M940.4,144.3C940.4,144.3,940.5,144.2,940.4,144.3C940.4,144.2,940.4,144.2,940.4,144.3
					C940.4,144.2,940.4,144.2,940.4,144.3z M934.1,144.7c-0.5-0.3-0.7-0.4-0.9-0.5c-2.5-1.2-3-2.4-1.6-3.8c0.9-0.9,1.2-2,0.8-3.5
					c-0.2-0.8-0.7-1.2-1.4-1.5c-2.7-1-5-1.2-6.5,0.3c-0.2,0.1-0.4,0.2-0.6,0.3c-2.1,0.6-3.4,1.9-2.5,4.7c0.6,1.9,0.3,2.9-1.4,3.3
					C924.6,144.7,929.3,144.9,934.1,144.7z M914,133.8C914,133.8,914,133.8,914,133.8C914,133.8,913.9,133.8,914,133.8
					c-2.6-0.8-5.1-1.6-7.7-2.4c-1.9-0.6-3.9-1.4-5.7-1.5c-1.2-0.1-2.3,0.3-3.5,0.2c-2.7-0.1-5.5-0.3-8.5-1c-0.6-0.1-1.3-0.2-1.9,0
					c1,0.3,1.9,0.6,2.9,0.8c1.7,0.4,3.4,0.6,5.1,1.1c0.5,0.2,1.1,0.4,1.2,1c0.1,0.7-0.3,0.7-0.9,0.7c-3.2-0.1-6.4-0.5-9.7-1.1
					c-3.8-0.6-7.7-1.8-11.6-2.5c-0.7-0.1-1.4-0.2-2-0.4c-0.6-0.2-0.2-0.3,0-0.4c1.8-0.4,3.7-0.5,5.8-0.2c1.4,0.2,2.9,0.4,4.2,0.3
					c1.5,0.4,3,0.6,4.5,0.6c0-0.1-0.1-0.2-0.1-0.3c-1.5-0.2-2.9-0.4-4.4-0.6c-0.8-0.3-1.5-0.2-2.2-0.3c-2.8-0.1-5.8-0.6-8.3,0.2
					c-0.9,0.3-1.9,0.2-2.9-0.1c-2.3-0.7-4.7-1.5-7-2.3c-0.4-0.1-0.8-0.4-1.2-0.2c0.1,0.3,0.3,0.3,0.5,0.4c4.4,2.2,8.8,3.7,13.5,4.9
					c4.5,1.1,9,2.3,13.5,3.4c7.4,1.8,14.1,2.3,20.5,1.5C910.2,135.3,912.3,134.8,914,133.8C913.9,133.8,914,133.8,914,133.8z
					 M913.8,143.9c-0.9-0.4-1.5-0.3-2.1-0.4c-0.3-0.1-0.6-0.2-0.9-0.4c-1.3-0.6-2.2-1.8-2.5-3c-0.3-1.3,0.3-2,0.9-2.7
					c0.2-0.2,0.6-0.2,0.3-0.8c-1.6,0.5-3.6,0.3-5.3,0.6c-0.3,0-0.6,0-0.9,0c-7.2,0.2-14.9-1.5-22.9-3.6c-2.4-0.6-4.8-1.4-7.2-1.9
					c-0.4-0.1-0.8-0.2-1.3-0.3c-0.5-0.1-1-0.3-1.4-0.4c-2.4-0.8-4.7-1.6-7.1-2.5c-1.6-0.6-3.1-1.5-4.6-2.1c-0.2-0.1-0.4-0.2-0.7-0.3
					c-0.4-0.2-0.8-0.5-1.3-0.7c-0.4-0.2-0.9-0.4-1.3-0.6c-1.2-0.6-2.4-1-3.6-1.5c-1.4-0.5-2.9-1-4.3-1.6c-0.2-0.1-0.5-0.2-0.7-0.3
					c-0.1-0.1-0.2-0.2-0.4-0.3c-5.6-3-10.8-6.5-16.1-10c-2.4-1.6-5-2.9-7.8-4.1c-2.8-1.1-5.5-2.3-8.6-2.5c-0.8,0-0.9,0-0.7,0.5
					c0.3,0.6,0.7,1.2,1.3,1.8c0.8,0.9,0.6,1.4-0.6,1.5c-0.8,0.1-0.9,0.3-0.2,0.8c2.1,1.7,3.4,3.7,5.8,5.5c0.4,0.3,0.8,0.7,0.4,1
					c-0.3,0.2-0.8,0-1.2-0.2c-1.5-0.6-2.9-1.3-4.4-1.9c-0.6-0.3-0.8-0.3-0.8,0.2c0.1,0.9-0.3,1.1-1.6,0.7c-0.4-0.1-0.9-0.3-1.3-0.5
					c-1.7-0.7-1.9-0.7-2.2,0.3c-0.1,0.7-0.6,1-1.4,1.1c-0.6,0.1-0.9,0.3-1.1,0.8c-0.1,0.5-0.4,0.8-0.8,1.1c-0.7,0.6-1.2,1.4-1.6,2.2
					c-0.2,0.4-0.2,0.8,0.1,1.4c0.8,1.6,1,2.9-0.1,3.5c-0.4,0.2-0.6,0.6,0,1.3c1.1,1.4,1.3,2.5,1,3.4c-0.1,0.5,0.2,0.7,0.7,1
					c1.1,0.6,2.2,1.2,3.3,1.8c3,1.5,6.1,2.8,9.1,3.8c0.4,0.1,0.8,0.3,1,0.8c0.2,0.5-0.2,0.5-0.4,0.6c-1.2,0.7-2.5,1-3.9,1.1
					c-0.5,0-1.1,0-0.1,1.5c0.3,0.4,0.5,1,0.4,1.4c-0.5,1.5-0.1,3.9-0.8,5.1c-0.1,0.2-0.1,0.4,0.1,0.9c1,1.8,1,2.3,0.3,3
					c-0.7,0.7-1.6,1-2.5,1.3c-1.8,0.7-3.3,2.1-4.6,3.4c-1,0.9-1.1,0.9-0.2,3.1c0,0,0,0.1,0,0.1c0,0.8-0.2,1.4-0.6,1.9
					c-0.3,0.4-0.1,0.6,0.3,0.9c0.5,0.3,1,0.5,1.4,0.5c0.2,0,0.4,0,0.6,0c0.1,0,0.2,0,0.3-0.1c0.2-0.1,0.3-0.1,0.5-0.2
					c0.4,0,0.9-0.1,1.3-0.2c0.3-0.1,0.5-0.1,0.8-0.2c0.4-0.1,0.8-0.3,1.2-0.4c1,0,1.9-0.4,2.8-0.6c1.4-0.3,2.8-0.5,3.9-1.3
					c1.6-0.3,3.3-0.7,4.9-1c2.4-0.5,4.8-1.1,7.3-1.9c1.6-0.2,3-0.8,4.6-1.3c1.8-0.4,3.6-1.2,5.3-1.9c1.6-0.7,3.5-1.4,5.2-2.1
					c2.9-1.2,6.6-2,9.8-2.8c2.1-0.5,4.4-0.9,6.5-1.6c2.9-0.3,5.7-0.8,8.4-1.3c0.1-0.1,0.1-0.1,0.2-0.2c2.3,0.1,4.3-0.3,6.4-0.4
					c0.1,0,0.3,0.1,0.2-0.1c2.1,0.2,4.1,0.2,6,0c2.5,0.1,4.8,0,7.2-0.1c2.7,0.1,5.4,0.2,8,0.1c1.4,0.2,2.6,0.1,3.9,0.1
					c1,0.1,2,0.2,2.9,0.1c0.9,0.1,1.9,0.3,2.7,0.1c0.9,0.2,1.8,0.2,2.7,0.2C912.3,143.9,913,144,913.8,143.9z M894.2,131.7
					c0,0-0.1,0-0.2-0.1C894.1,131.7,894.1,131.7,894.2,131.7C894.1,131.7,894.2,131.7,894.2,131.7z M893.6,131.6
					c-1.8-0.7-13.2-2.6-15.5-2.4C883.5,130.3,888.7,131.7,893.6,131.6z M884,112.4c0.5,0,1.1,0.3,1.5,0c-5.8-2.6-11.5-5-17.1-7.3
					c-4.8-2-9.2-4.5-13.7-6.5c-3.7-1.7-7.4-3.2-10.8-5c-6-3.2-11-7.1-15.3-11.4C823,76.5,818.8,70.2,814,63
					c-1.1-1.6-2.1-3.4-3.7-4.7c-0.3-0.3-0.8-0.6-1.2-0.2c-0.5,0.3-0.3,0.8-0.3,1.3c0.9,4.6,1.5,8.7,1.6,12.5
					c0.2,4.6-0.4,8.6-1.3,12.1c-0.7,2.9-2.4,5.4-4.6,7.4c-0.5,0.4-0.5,0.8,0.3,1.3c0.8,0.5,1.5,1,2.5,1.5c4.1,2.6,8.3,5.4,12.7,8.2
					c3.3,2.1,6.5,4.3,9.7,6.6c2.5,1.8,5.2,2.9,8.4,3c4.9,0.2,9.9,0.2,14.5-0.1c2.5-0.1,5.1,0,7.6-0.2c1.1,0,2.2,0,3.3,0
					C870.3,111.2,877.2,111.7,884,112.4z M870.7,113.4c0.5,0.2,1,0.2,1.3-0.1C871.5,113.3,871.1,113.2,870.7,113.4z M870.1,113.4
					C870.1,113.4,870.1,113.4,870.1,113.4c-0.1,0-0.1,0-0.1,0C870,113.4,870.1,113.5,870.1,113.4
					C870.1,113.5,870.1,113.4,870.1,113.4z M866.8,113.4c0.2-0.1,0.6,0,0.6-0.4c-1.6,0-3.1,0-4.6,0.2c-6.1,0.8-11.4,3.6-18.5,4.8
					c2,0.8,3.6,1.8,5.7,1.9c2.2,0,4.4,0.5,6.6,0.8c2.4,0.3,4.7,1.3,7.2,1.4c-0.2-0.4-0.5-0.6-0.8-0.9c-1.3-1-2.7-1.7-4.3-2.3
					c-1.9-0.7-2.2-2.2-0.7-3c0.7-0.4,1.6-0.5,2.4-0.7c1.3-0.2,2.9,0,3.7-0.7C864.8,113.8,865.9,113.7,866.8,113.4z M859.5,125.2
					C859.6,125.2,859.6,125.2,859.5,125.2C859.6,125.1,859.6,125.1,859.5,125.2C859.5,125.1,859.5,125.1,859.5,125.2
					C859.5,125.2,859.5,125.2,859.5,125.2z M859,112.9C859,112.9,859,112.9,859,112.9C859,112.9,859,112.9,859,112.9
					C859,112.9,859,112.9,859,112.9z M856.9,113.5c0.5-0.1,1.1-0.1,1.7-0.6c-2.9-0.1-5.6,0-8.3,0.2c-4.1,0.3-8.5,0.7-12.9-0.3
					c-0.3-0.1-0.6-0.1-0.7,0.1c-0.1,0.2,0.1,0.4,0.4,0.6c1.6,1,3.1,2,4.8,2.9c0.3,0.3,0.6,0.7,1.2,0.5c1.1,0,2.1-0.1,3.2-0.4
					C850.3,115.7,853.4,114.2,856.9,113.5z M823.2,106.4c0-0.3-0.3-0.4-0.5-0.5c-2.1-1.5-4.1-2.9-6.2-4.3
					c-5.3-3.5-10.4-6.9-15.4-9.9c-0.9-0.5-1.8-1-3-1.3c-0.1,0.3,0.2,0.5,0.3,0.7c1.4,1.8,2.5,3.7,3.5,5.6c1.2,2.3,1.9,4.7,2.2,7.1
					c0.3,2.3,0.4,4.6-0.3,6.7c-0.7,2-1.6,3.9-2.6,5.8c-0.6,1.1-1.2,2.2-1.8,3.2c-0.9,1.6-1.6,3.5-1.8,5.7c-0.4,3,2.8,10.1,4.2,15.3
					c2.1,7.2,2.2,12.8,1,17.3c-0.5,1.9-1.9,2.9-3.9,3c-2.1,0.1-4.3-0.3-6.6-0.9c-1.9-0.6-3.8-0.7-5.7-0.2c0.5,0.4,1,0.4,1.4,0.5
					c4.3,0.8,8.4,1.2,12.4,1.6c2.1,0.2,4.2,0.4,5.9-0.4c-1.4-1.4-1.4-1.5-0.7-2.7c0.1-0.2,0.3-0.4,0.4-0.7c0.1-0.3,0.1-0.5-0.1-0.9
					c-0.9-1.9-0.9-2.6,0-3.5c1.7-1.7,3.4-3.3,5.6-4.1c0.8-0.3,1.6-0.5,2.1-1.4c0.1-0.3,0.3-0.4-0.3-1c-0.7-0.6-0.8-1.3-0.6-1.7
					c0.7-1.4,0.7-3.3,1-5.2c0.1-0.6,0.3-1-0.6-2.1c-0.4-0.6-0.5-1.1-0.3-1.4c0.3-0.2,0.6-0.3,1-0.3c0.9-0.2,1.9-0.2,2.9-0.6
					c-0.7-0.3-1.2-0.5-1.7-0.6c-3.4-1.1-6.8-3.1-10.3-5c-1.2-0.7-1.5-1.3-1.2-2c0.3-0.6,0.4-1.3-0.3-2.2c-1.2-1.7-1.1-2.5-0.3-3
					c0.7-0.4,0.6-1.3,0.1-2.3c-0.5-1-0.6-1.7-0.2-2.3c0.1-0.2,0.2-0.5,0.3-0.7c0.1-0.1,0.2-0.3,0.3-0.4c1.3-0.9,1.2-2.9,3.5-3.1
					c0.2,0,0.3-0.2,0.4-0.3c1-1.6,1-1.5,4.1-0.5c0.9,0.3,1.4,0.3,1.1-0.5c-0.4-1,0-1.1,1.5-0.5c1.1,0.5,2.2,0.9,3.6,1.5
					c-1.8-1.7-3-3.2-4.7-4.6c-1.3-1.1-1.2-1.5,0.3-1.7c0.8-0.1,0.9-0.4,0.3-0.9c-0.8-0.8-1.2-1.6-1.4-2.3c-0.2-0.7,0.3-0.9,1.5-0.6
					c0.5,0.1,1.1,0.3,1.5,0.3c0.8-0.1,1.5,0.1,2.3,0.4C819.4,104.9,821.3,105.6,823.2,106.4z M800.8,111.8c1.9-2.8,1.7-6.4,1.4-9.8
					c0-0.1,0-0.3-0.3-0.4c-0.3-0.1-0.5-0.1-0.7,0c-0.4,0.2-0.7,0.5-0.9,0.8c-0.5,1-1.5,1.8-3.5,1.6c-2.6-0.2-3.9,0.4-4.3,1.7
					c-0.1,0.3-0.3,0.6-0.9,0.5c-1.5-0.2-1.8,0.3-1.5,1.2c0.2,0.6,0.1,1.1-0.7,1.1c-0.6,0-0.5,0.4,0,1c0.7,0.8,0.6,1.2,0,1.4
					c-0.4,0.1-0.5,0.3,0,0.9c0.5,0.6,0.6,1.2,0.3,1.4c-0.4,0.3-0.1,0.9,0.6,1.6c0.7,0.7,1,1.4,1.1,2c0.3,2.3-0.3,3.3,1.5,7.9
					c0.9,2.3,1.7,4.6,2.8,7.2c0.5-0.4,0.8-1.1,1-1.8c0.1-0.1,0.2-0.1,0.3-0.2c0.1,0,0.2,0,0.2-0.1c-0.9-2.8-1.4-5-1.4-6.6
					c0.2-0.3,0.1-0.8,0.2-1.2c0.3-0.5,0.5-1.1,0.6-1.8c0-0.1,0-0.2,0-0.3c0.1,0,0.2-0.1,0.2-0.2c0.1-0.2,0.1-0.4,0-0.6
					c0.8-0.9,1.4-2,1.7-3.1c0.4-0.3,0.7-0.8,0.8-1.3c0.5-0.7,1-1.3,1.1-2.2C800.6,112.5,800.7,112.2,800.8,111.8z M800.8,101
					c1.1,0,1-0.4,0.8-0.9c-0.1-0.3-0.2-0.7-0.3-1c-0.3-1.1-0.9-2.3-1.6-3.5c-0.8,0.7-1.6,1.5-2.5,2.1c-2,1.5-4.1,2.7-6.2,3.9
					c-1.2,0.7-2.6,1.4-3.3,2.3c-0.8,0.9-1.3,2.1-1.5,3.4c-0.2,1.2-0.2,2.6,0,4.1c0.2,1.5,0.7,3.3,0.7,5c0.1,3.5,2.2,10,3.7,16.3
					c0.4,1.7,0.7,3.3,0.9,4.9c0.6,0.1,0.7-0.2,1-0.4c0.4-0.3,0.8,0.2,1.1,1.2c0.2,0.4,0.3,0.9,0.3,1.2c0,1.9,0.2,3.8,0.1,5.6
					c0,1.1-0.5,1.6-1.2,1.8c-1.9,0.5-4.4-0.5-6.7-1.1c-2.1-0.5-4-0.6-6-0.7c0.9,0.5,1.7,0.8,2.6,1.2c0.5,0.2,0.8,0.4,1,1.1
					c0,0.6-0.2,1-0.5,1.4c-0.9,1.2-1,1.4,0.3,3c1.2,1.5,1.5,3,1.5,4.5c0,0.9-0.4,1.5-0.8,2.2c0.9-0.4,2-0.3,2.9-0.6
					c0.3-0.1,0.5-0.2,0.6-0.5c0.4-0.8,1.2-1.2,2-1.3c3.2-0.7,6.1-1.5,8.5-3c0.4-0.2,0.8-0.6,1.4,0.1c0.6,0.7,0.3,1.3,0,1.8
					c-1,1.8-2.8,2.6-4.7,3.3c-0.3,0.1-0.6,0.1-0.8,0.5c1.4,0.5,2.7,0.5,3.9,0.5c2.1,0.1,3.4-0.8,3.6-3.1c0.1-1.2,0.3-2.4,0.4-3.7
					c0.2-3.3-0.1-7.1-1.4-11.6c-0.2-1.6-1-3.6-1.5-5.4c-0.2-0.7-0.6-1.5-0.9-2.4c-0.4,0.5-0.7,0.9-1,1.2c-0.3,0.3-0.7,0.4-1.6-0.5
					c-0.8-0.9-1-1.8-1.3-2.6c-1.9-5.1-3-9.2-3.7-12.2c-0.3-1.6-0.2-2.9-2-5c-0.5-0.6-0.8-1.1-0.4-1.3c0.5-0.2,0.3-0.8-0.3-1.5
					c-0.5-0.6-0.6-1.1-0.1-1.1c0.7-0.1,0.6-0.5,0.1-1.2c-0.3-0.4-0.4-0.7-0.4-0.9c0-0.2,0.2-0.3,0.5-0.3c1,0,1-0.6,0.8-1.3
					c-0.2-0.8,0.3-1.1,1.2-1.1c1,0,1.3-0.3,1.4-0.8c0.4-1.1,1.8-1.6,4-1.3c2.1,0.2,3.1-0.3,3.7-1.2C799.4,101.5,799.8,101,800.8,101
					z M798.3,154.7C798.3,154.7,798.3,154.7,798.3,154.7C798.3,154.7,798.3,154.6,798.3,154.7C798.3,154.7,798.3,154.7,798.3,154.7
					C798.2,154.7,798.2,154.7,798.3,154.7C798.2,154.7,798.2,154.7,798.3,154.7c-0.1,0-0.2,0-0.2,0.1c-0.3-0.1-0.5,0.1-0.8,0.2
					c-1.6,0.7-3.2,1.4-5.1,1.8c-1,0.2-2.1,0.3-2.9,0.9c1.5,0.3,3,0.7,4.2,0c0.9-0.6,2-0.9,2.9-1.5c0.6-0.4,1.3-0.6,1.7-1.4
					C798.2,154.9,798.2,154.9,798.3,154.7C798.2,154.7,798.2,154.7,798.3,154.7C798.2,154.7,798.2,154.7,798.3,154.7z M789.9,145
					c2.7,1,4-0.2,3-5.7c-1.1-0.4-1.4,0.3-1.4,1.4c0,0.7-0.3,1.2-0.4,1.7C790.7,143.2,790.4,144.1,789.9,145z M787.3,163.1
					c1.8,0.1,3.5-0.1,5.2-1c-2.4-0.4-4.5-0.8-6.7-1c-0.5-0.1-0.6,0.3-0.5,0.6C785.3,162.1,786.9,163.1,787.3,163.1z M783.9,161.2
					c0.5-0.5,0.1-0.9-0.6-1.1c-0.1-0.3-0.1-0.6-0.2-1c-1.1,0.7-2.5,0.9-3.6,1.7c0.8,0.3,1.5,0.6,2.2,0.9c0.7,0.3,1.4,0.8,2.3,0.8
					C783.9,162,783.6,161.5,783.9,161.2z M781.3,158.1c0.7-0.4,1.6-0.7,1.8-1.6c-0.9,0.5-2,0.3-3,0.6c-0.3,0-0.6,0-1,0
					c-2.4-0.1-4.1,0.9-5.9,2c0,0,0,0,0,0c0,0-0.1,0-0.1,0c0,0,0,0,0.1,0c0,0,0,0,0,0c1.9,0.1,3.8-0.2,5.6-0.2
					C779.6,158.9,780.6,158.5,781.3,158.1z M779.7,162.4c-0.9-0.3-1.7-1.1-2.3-1c-1.4,0.2-2.8,0.7-4,1.3
					C775.6,162.8,777.6,162.6,779.7,162.4z M782.7,147.5c-0.9-0.4-1.6-0.7-2.4-1c-0.2-0.1-0.5-0.2-0.3,0.3c0.4,0.9,0.9,1.8,1.5,2.3
					c0.4,0.3,0.5-0.6,0.8-0.9C782.5,148,782.6,147.8,782.7,147.5z M772.6,163.7c-0.9-0.4-1.6-0.4-2.4-0.2
					c-5.4,1.7-12.1,2.3-18.7,3.5c-6.3,1.1-13.2,1.7-19.8,2.9c-7.1,1.3-14.1,3-20.6,5.2c-0.4,0.1-1,0.2-1,0.6c0.7,0,1.2-0.2,1.8-0.4
					c6.6-1.8,13.2-3.3,20.1-4.5c6.3-1.1,12.4-2.1,18.5-3C758.4,166.7,765.7,165.2,772.6,163.7z M709.1,176.1c0.2,0,0.6,0,0.5-0.2
					c0-0.1-0.2,0-0.3,0c0,0-0.1,0-0.1,0c-0.2,0.1-0.5,0.1-0.7,0.2c-0.1,0-0.2,0-0.2,0.1c-0.3,0.1-0.6,0.3-0.9,0.5
					C708.1,176.5,708.7,176.4,709.1,176.1z"/>
				<path class="st38" d="M969.2,138.7c0.3,0.3-0.1,0.4-0.3,0.5c-1,0.7-2.3,1-3.5,1.4c-1.5,0.5-3.1,0.9-4.6,1.2c-0.1,0-0.3,0-0.6,0
					c0.5-0.7,1.1-1,1.7-1.2c0.9-0.4,1.9-0.6,2.3-1.7C964.3,138.6,969,138.4,969.2,138.7z"/>
				<path class="st39" d="M965.1,130.2c0.2,0.5-0.4,0.8-0.9,1.1c-0.6-0.3-0.7-0.7-0.4-1.2C964.3,130.1,964.9,129.8,965.1,130.2z"/>
				<path class="st11" d="M954.6,130.2c-0.2,0-0.4,0-0.5,0c-0.3,0.1-0.6,0.2-0.5,0.6c0.1,0.3,0.4,0.4,0.6,0.4c0.4,0,0.6-0.2,0.5-0.6
					C954.7,130.4,954.6,130.3,954.6,130.2z M954.6,130.2c0.9,0.2,1.6,0.7,2.4,1.1c1.4,0.6,2.6,0.7,3.4-0.3c0.8-1,2-1.1,3.4-0.9
					c-0.3,0.5-0.2,0.9,0.4,1.2c-1.1,1-2.6,1.3-3.9,1.7c-2.5,0.9-5.3,1.1-8.1,1.3c-0.3,0-0.6,0.1-0.7-0.2c-0.4-0.9-1.5-1.4-1.9-2.2
					c-1.1-1.8-2.9-2.7-4.8-3.1c-1.6-0.3-3.2-0.5-4.8-0.8c0-0.2,0-0.2-0.1-0.4c0.5,0.1,0.9,0.1,1.4,0.2c2.6,0.3,5.2,0.8,7.8,1
					c1.6,0.1,3.1,0.4,4.7,0.9C954.2,129.9,954.5,129.9,954.6,130.2z M962.8,131.4c0.4,0,0.6-0.1,0.6-0.5c-0.1-0.3-0.3-0.5-0.6-0.5
					c-0.4,0-0.5,0.2-0.5,0.5C962.3,131.2,962.5,131.4,962.8,131.4z M952.4,132.1c0-0.3-0.3-0.6-0.6-0.7c-0.4-0.1-0.6,0.1-0.6,0.4
					c-0.1,0.3,0.1,0.6,0.5,0.7C952.1,132.6,952.3,132.4,952.4,132.1z M950.3,131.2c0.4,0.1,0.6-0.2,0.6-0.5
					c-0.1-0.4-0.3-0.6-0.7-0.7c-0.4-0.1-0.7,0.1-0.6,0.4C949.6,130.8,949.9,131.1,950.3,131.2z"/>
				<path class="st39" d="M963.3,130.9c0,0.4-0.2,0.5-0.6,0.5c-0.3,0-0.5-0.1-0.5-0.4c0-0.3,0.1-0.5,0.5-0.5
					C963.1,130.4,963.3,130.6,963.3,130.9z"/>
				<path class="st40" d="M960.4,138.6c0.9,0.1,1.7-0.1,2.8,0.3c-1.1,0.9-2.6,1-3.6,1.8c0,0,0,0,0,0c-0.3-0.2-0.7-0.5-1-0.2
					c-0.3,0.3-0.3,0.6,0.1,0.9c-1.7,1.2-3.8,1.6-6.1,1.5c0-0.6-0.4-1-1.1-1c-0.8,0-0.8,0.6-0.6,1.2c-2,0.3-3.9,0.7-5.9,0.6
					c0,0,0,0,0,0c0.1-0.5,0.1-0.8,0-1c0,0,0-0.1-0.1-0.1c-0.1-0.1-0.4-0.2-0.8-0.3c-0.1,0-0.2,0-0.3-0.1c0,0,0,0,0,0
					c0.4-0.4,0.8-0.7,1.2-1.1c2-2.1,5.1-2.2,8.3-2.4c0,0,0,0,0,0c0,0,0,0,0,0c0,0,0,0,0,0c0,0.2,0,0.3,0,0.5
					c0.1,0.3,0.3,0.4,0.6,0.4c0.2,0,0.4-0.1,0.4-0.3c0-0.3-0.2-0.5-0.5-0.5c-0.2,0-0.4-0.1-0.5-0.1c0,0,0,0,0,0
					C955.3,137.1,958,138.3,960.4,138.6z M958.1,139.4c0-0.3-0.2-0.5-0.5-0.6c-0.3,0-0.6,0-0.6,0.3c0,0.4,0.2,0.6,0.6,0.7
					C957.9,139.8,958.1,139.7,958.1,139.4z M953,141.5c0.5,0.1,0.7-0.1,0.7-0.6c0-0.5-0.3-0.8-0.8-0.8c-0.5-0.1-0.8,0.2-0.8,0.6
					C952.2,141.2,952.5,141.4,953,141.5z"/>
				<path class="st39" d="M959.5,140.8C959.5,140.8,959.5,140.8,959.5,140.8c-0.1,0.2-0.2,0.3-0.4,0.4
					C959.3,141.1,959.4,140.9,959.5,140.8z"/>
				<path class="st41" d="M959.3,130.3c0,0,0,0.2-0.1,0.3c-0.6,0.3-1.3,0.1-1.9-0.2c0-0.1,0.1-0.1,0.1-0.1
					C958,130.1,958.6,130,959.3,130.3z"/>
				<path class="st39" d="M959.5,140.8c-0.1,0.2-0.2,0.3-0.4,0.4c-0.1,0.1-0.3,0.2-0.5,0.3c-0.3-0.3-0.4-0.6-0.1-0.9
					C958.9,140.3,959.2,140.6,959.5,140.8z"/>
				<path class="st39" d="M957.6,138.8c0.4,0.1,0.5,0.3,0.5,0.6c0,0.3-0.2,0.5-0.6,0.4c-0.4-0.1-0.6-0.3-0.6-0.7
					C957,138.8,957.2,138.7,957.6,138.8z"/>
				<path class="st39" d="M954.7,130.6c0.1,0.4-0.1,0.6-0.5,0.6c-0.3,0-0.5-0.1-0.6-0.4c-0.2-0.4,0.2-0.5,0.5-0.6c0.2,0,0.4,0,0.5,0
					C954.6,130.3,954.7,130.4,954.7,130.6z"/>
				<path class="st39" d="M953.8,138.8c0.3,0.1,0.5,0.3,0.5,0.5c0,0.2-0.2,0.3-0.4,0.3c-0.3,0-0.5-0.1-0.6-0.4c0-0.2,0-0.3,0-0.5
					C953.5,138.7,953.6,138.8,953.8,138.8z"/>
				<path class="st39" d="M953.7,140.9c0,0.5-0.2,0.7-0.7,0.6c-0.5-0.1-0.8-0.3-0.8-0.8c0-0.4,0.3-0.7,0.8-0.6
					C953.4,140.2,953.7,140.5,953.7,140.9z"/>
				<path class="st39" d="M953.3,138.7C953.3,138.7,953.3,138.7,953.3,138.7C953.3,138.7,953.3,138.7,953.3,138.7
					C953.3,138.7,953.3,138.7,953.3,138.7z"/>
				<path class="st40" d="M953.3,138.7C953.3,138.7,953.3,138.7,953.3,138.7C953.3,138.7,953.3,138.7,953.3,138.7
					C953.3,138.7,953.3,138.7,953.3,138.7z"/>
				<path class="st41" d="M952.8,137.2c0.2,0,0.4,0.1,0.8,0.2c-1,0.4-1.9,0.4-2.7,0.4c-3,0.1-5.2,1.4-7.2,2.9
					c-2.4,1.8-4.9,3.5-8.8,2.8c-0.6-0.1-1.2-0.3-1.8-0.5c-0.5-0.1-1-0.4-1.2-0.8c-0.2-0.5,0.1-0.8,0.4-1c1.5-1,1.4-2.7,0.8-4.6
					c-0.2-0.8-0.9-1.4-1.6-1.7c-1-0.5-2-0.8-3-1c-0.1-0.7-0.1-1-0.2-1.7c0.2,0,0.4,0.1,0.5,0.1c1,0.3,1.9,0.2,2.7-0.1
					c1.5-0.5,3-0.4,4.9,0.4c2.7,1,5.4,1.7,8,2.4c1.4,0.4,2.8,1,4.2,1.2C950,136.5,951.4,137,952.8,137.2z"/>
				<path class="st39" d="M951.8,131.4c0.4,0.1,0.6,0.4,0.6,0.7c-0.1,0.3-0.3,0.5-0.7,0.4c-0.4-0.1-0.6-0.4-0.5-0.7
					C951.2,131.4,951.4,131.3,951.8,131.4z"/>
				<path class="st39" d="M951.5,141.9c0.6,0,1,0.4,1.1,1c-0.5,0.3-1,0.3-1.6,0.2C950.7,142.5,950.7,142,951.5,141.9z"/>
				<path class="st41" d="M950.4,133.4c0.3,0.2,0.6,0.5,0.5,0.8c-0.1,0.3-0.4,0.2-0.7,0.3c-1.8,0.3-3.7-0.2-5.6-0.6
					c-2.8-0.7-5.7-1.5-8.4-2.8c-0.5-0.2-0.9-0.5-1.2-1c-0.5-1-0.4-1.3,0.6-1.3c2.1,0,4.3,0.4,6.5,0.7c1.5,0.2,3,0.2,4.6,0.8
					c0.8,0.3,1.3,0.7,1.9,1.3C949.2,132.2,949.7,132.9,950.4,133.4z"/>
				<path class="st39" d="M950.9,130.7c0,0.3-0.2,0.6-0.6,0.5c-0.4-0.1-0.7-0.4-0.7-0.8c0-0.4,0.2-0.5,0.6-0.4
					C950.6,130.1,950.8,130.3,950.9,130.7z"/>
				<path class="st38" d="M948.8,128.5c-1.5-0.2-3-0.4-4.5-0.6c-4.9-0.7-9.7-2.1-14.5-3.3c-2.8-0.7-5.5-1.7-8.2-2
					c-0.4-0.1-0.9-0.2-0.9,0.2c-0.1,0.5,0.5,0.7,0.9,1c0.8,0.5,1.6,0.7,2.5,1c0.7,0.3,1.3,0.5,2.1,1c-0.8-0.1-1.5-0.2-2.3-0.5
					c-1.8-0.6-3.6-1.1-5.4-1.5c-1.2-0.3-2.3-0.9-3.5-1.3c-3.9-1.4-7.8-2.9-11.7-4.2c-2-0.7-4-1-5.9-1c-4-0.1-8.4-1.5-12.6-1.9
					c-3.7-0.4-7.4-1.1-11.1-1.5c-0.4,0-0.7-0.1-1.3-0.2c0.6-0.4,1.3-0.4,2-0.4c7.1,0.3,14.1,1.1,21,1.9c5.1,0.6,10.3,1.7,15.5,3.2
					c3.2,0.9,6.4,2,9.6,2.9c1.3,0.4,2.6,0.8,3.9,1.2c5.5,1.9,11.1,2.9,16.6,4C943.6,126.9,946.2,127.5,948.8,128.5z"/>
				<path class="st39" d="M945,142.7c0.1,0.2,0.1,0.5,0,1c0,0,0,0,0,0c-0.1,0-0.2,0.1-0.3,0.1c0,0,0,0,0,0c-0.8-0.2-1.2-0.7-1.1-1.4
					c0.1-0.1,0.2-0.2,0.3-0.2c0.1,0,0.2,0,0.3,0.1C944.5,142.3,944.7,142.4,945,142.7C944.9,142.6,944.9,142.6,945,142.7z"/>
				<path class="st40" d="M944.6,143.8c0.1,0,0.2-0.1,0.3-0.1C944.9,143.8,944.8,143.8,944.6,143.8z"/>
				<path class="st42" d="M944.6,143.8c-1.3,0.2-2.5,0.3-3.7,0.5c-0.1-0.1-0.1-0.2-0.2-0.3c1-0.4,1.7-1.2,2.8-1.6
					C943.4,143.1,943.8,143.6,944.6,143.8z"/>
				<path class="st39" d="M944,142.3c-0.1,0-0.2,0-0.3-0.1c0,0,0,0,0,0c0,0,0,0,0,0C943.9,142.2,944,142.2,944,142.3z"/>
				<path class="st42" d="M940.5,144.2C940.5,144.2,940.4,144.3,940.5,144.2C940.4,144.2,940.4,144.2,940.5,144.2
					C940.4,144.2,940.4,144.2,940.5,144.2z"/>
				<path class="st11" d="M940,127.8c0,0.2,0,0.2,0.1,0.4c-1.6-0.2-3.2-0.4-4.7-0.5c-2.1-0.2-2.3,1.4-1.4,2.9
					c0.1,0.2,0.2,0.3,0.4,0.6c-1.9-0.4-3.4,0.1-4.9,0.2c-0.7,0.1-1.4-0.1-2.2-0.5c0-0.4-0.1-0.8-0.6-0.9c-0.6-0.2-0.7,0.1-0.6,0.6
					c-1.5-0.2-3-1-4.5-1.3c-2.8-0.6-5.6-1.7-8.3-2.6c-0.3-0.1-0.5-0.2-0.8-0.4c0.2-0.4,0.1-0.8-0.4-1.2c-0.2-0.2-0.5-0.3-0.7-0.3
					c0,0-0.1,0-0.1,0c-0.3-0.4-0.4-0.6-0.7-0.9c0,0,0.1,0,0.1,0c0.4,0.1,0.8,0,0.8-0.4c-0.1-0.4-0.3-0.8-0.8-0.9c0-0.4,0-0.5,0-0.9
					c1,0.4,2,0.8,3,1.2c4.6,1.9,9.2,2.9,13.8,4.2c0.5,0.1,1.3,0.4,1.2-0.3c0-0.6-0.5-1-1.2-1.3c-0.7-0.3-1.4-0.5-2.1-1
					c0-0.1,0-0.2,0-0.3c4,1,8,2.1,12.1,3.1C938.3,127.5,939.2,127.6,940,127.8z M933.1,130.1c-0.1-0.5-0.5-0.7-0.9-0.9
					c-0.4-0.1-0.7-0.1-0.7,0.3c0,0.3,0.2,0.7,0.6,0.7C932.4,130.3,933,130.5,933.1,130.1z M929.6,128.7c-0.1-0.3-0.3-0.7-0.8-0.9
					c-0.5-0.1-0.7,0-0.7,0.5c0,0.4,0.3,0.7,0.7,0.8C929.2,129.3,929.5,129.2,929.6,128.7z M924.6,129.1c0-0.4-0.2-0.7-0.6-0.9
					c-0.4-0.1-0.7-0.1-0.7,0.3c0,0.3,0.2,0.6,0.6,0.8C924.3,129.6,924.6,129.5,924.6,129.1z M920.6,126.2c0-0.4-0.2-0.7-0.7-0.9
					c-0.4-0.1-0.6,0-0.6,0.4c0,0.4,0.3,0.6,0.7,0.7C920.3,126.6,920.6,126.5,920.6,126.2z M917.6,127.9c0.5,0.2,0.7,0,0.7-0.4
					c0-0.4-0.3-0.8-0.8-0.9c-0.5-0.2-0.8-0.1-0.8,0.4C916.8,127.4,917.2,127.8,917.6,127.9z"/>
				<path class="st40" d="M933.2,144.3c0.2,0.1,0.4,0.2,0.9,0.5c-4.8,0.2-9.5-0.1-14.2-0.6c1.6-0.3,2-1.4,1.4-3.3
					c-0.9-2.8,0.4-4.1,2.5-4.7c0.1,0.4,0.4,0.7,0.8,0.8c0.2,0,0.3,0,0.4-0.2c0.1-0.4-0.1-0.7-0.6-0.9c1.5-1.5,3.8-1.3,6.5-0.3
					c0.8,0.3,1.2,0.8,1.4,1.5c0.4,1.5,0.1,2.6-0.8,3.5C930.2,141.8,930.7,143.1,933.2,144.3z M931.3,137.7c0-0.4-0.2-0.8-0.8-0.9
					c-0.5-0.2-0.9-0.1-0.9,0.4c0,0.5,0.3,0.8,0.9,1C931,138.4,931.2,138.2,931.3,137.7z M929.9,143.8c0-0.4-0.2-0.8-0.8-1
					c-0.5-0.1-0.8,0-0.8,0.5c0,0.4,0.3,0.7,0.7,0.9C929.7,144.4,929.9,144.2,929.9,143.8z M928.3,140.5c0.5,0.2,0.8,0.1,0.9-0.3
					c-0.1-0.4-0.3-0.8-0.9-1c-0.4-0.2-0.7,0-0.7,0.4C927.6,139.9,927.8,140.3,928.3,140.5z M928.3,137.8c0.4,0.1,0.5-0.1,0.6-0.4
					c-0.1-0.4-0.3-0.6-0.7-0.8c-0.4-0.1-0.6,0-0.6,0.4C927.6,137.4,927.9,137.7,928.3,137.8z M925.3,142.2c0-0.4-0.3-0.8-0.8-1
					c-0.5-0.1-0.7,0-0.7,0.5c0,0.4,0.3,0.7,0.7,0.9C925,142.7,925.3,142.6,925.3,142.2z M923.8,140c0.4,0,0.7,0,0.6-0.5
					c0-0.3-0.3-0.7-0.7-0.8c-0.4-0.1-0.7,0-0.6,0.4C923.2,139.6,923.4,139.8,923.8,140z"/>
				<path class="st39" d="M932.2,129.2c0.4,0.1,0.8,0.4,0.9,0.9c-0.1,0.4-0.7,0.2-1.1,0.2c-0.4-0.1-0.6-0.4-0.6-0.7
					C931.4,129.1,931.7,129.1,932.2,129.2z"/>
				<path class="st39" d="M930.5,136.8c0.5,0.2,0.7,0.5,0.8,0.9c0,0.4-0.2,0.6-0.7,0.5c-0.5-0.2-0.9-0.5-0.9-1
					C929.6,136.7,929.9,136.6,930.5,136.8z"/>
				<path class="st39" d="M929.2,142.8c0.5,0.1,0.7,0.5,0.8,1c0,0.4-0.3,0.6-0.8,0.4c-0.4-0.2-0.7-0.5-0.7-0.9
					C928.4,142.9,928.7,142.7,929.2,142.8z"/>
				<path class="st39" d="M928.8,127.8c0.5,0.1,0.7,0.5,0.8,0.9c0,0.5-0.3,0.6-0.8,0.4c-0.4-0.2-0.7-0.4-0.7-0.8
					C928.1,127.8,928.3,127.7,928.8,127.8z"/>
				<path class="st39" d="M929.2,140.1c-0.1,0.5-0.4,0.5-0.9,0.3c-0.5-0.2-0.7-0.6-0.7-1c0-0.4,0.2-0.6,0.7-0.4
					C928.9,139.3,929.1,139.7,929.2,140.1z"/>
				<path class="st39" d="M928.9,137.5c-0.1,0.3-0.2,0.5-0.6,0.4c-0.4-0.1-0.6-0.4-0.6-0.8c0-0.3,0.2-0.5,0.6-0.4
					C928.6,136.8,928.8,137.1,928.9,137.5z"/>
				<path class="st41" d="M928.2,132.1c0.1,0.7,0.1,1,0.2,1.7c-1.7-0.4-3.3-0.3-4.7,0.6c-0.6,0.4-1.2,0.7-1.9,1
					c-2.2,0.9-2.7,2.8-1.9,5.4c0.4,1.2,0,1.8-0.9,1.8c-2.4,0.1-5-0.2-7.5-0.6c-0.7-0.1-1.3-0.5-1.8-1.3c-0.4-0.8-0.3-1.3,0.1-1.7
					c1.4-1.5,2.3-3.5,4.8-4c0.2,0,0.4-0.2,0.6-0.3c0.4-0.3,0.9-0.6,0.5-1.3c-0.3-0.7-1-0.8-1.5-0.9c-3.4-0.6-6.9-2.1-10.3-3
					c-1.6-0.4-3.2-0.7-4.6-0.5c-2.9,0.4-6-0.1-9.3-0.7c-5.2-1-10.5-1.8-15.6-1.7c-0.7,0-1.4,0-1.9,0.1c-2.3,0.7-4.7-0.1-7.1-0.9
					c-4.1-1.4-8.2-2.8-12.2-4.3c-0.2-0.1-0.5-0.1-0.5-0.4c2.4,0.1,4.8,0.5,7.1,1c1.9,0.5,3.8,0.7,5.7,1c0.3,0,0.6,0,0.7-0.3
					c0.2-0.3-0.1-0.6-0.3-0.8c-1.7-1.8-3.6-3.3-6.1-4.1c-0.5-0.2-1.1-0.3-1.2-0.8c-0.1-0.6,0.5-0.8,1.1-0.9c0.9-0.2,1.8-0.3,2.7-0.4
					c1.7-0.1,3.1-0.6,4.5-1.1c1.6-0.5,3.5-0.4,5.3-0.3c3.6,0.2,7.2,0.8,10.8,1.7c1.1,0.3,2.2,0.8,3.2,1.3c0.5,0.2,0.8,0.5,0.6,0.9
					c-0.6,1.3,0.4,2.5,2.4,3c2.1,0.5,4.2,0.7,6.2,0.9c2.3,0.2,4.7,0.9,7.1,1.6c4.8,1.4,9.7,3,14.5,4.7
					C920.6,130.1,924.4,131.1,928.2,132.1z"/>
				<path class="st39" d="M926.6,130c0.5,0.2,0.7,0.5,0.6,0.9c-0.4-0.1-0.8-0.2-1.3-0.3C926,130.1,926.1,129.8,926.6,130z"/>
				<path class="st42" d="M925.3,124.1c0,0.1,0,0.2,0,0.3c-0.7-0.2-1.4-0.5-2.1-0.7C923.9,123.8,924.5,123.8,925.3,124.1z"/>
				<path class="st39" d="M924.5,141.2c0.5,0.2,0.8,0.6,0.8,1c0,0.4-0.3,0.5-0.8,0.4c-0.5-0.2-0.7-0.5-0.7-0.9
					C923.8,141.2,924.1,141.1,924.5,141.2z"/>
				<path class="st39" d="M924.4,135.8c0.5,0.2,0.6,0.5,0.6,0.9c0,0.2-0.2,0.2-0.4,0.2c-0.4-0.1-0.7-0.3-0.8-0.8
					C923.9,136.1,924.2,136,924.4,135.8z"/>
				<path class="st39" d="M924,128.3c0.4,0.2,0.7,0.5,0.6,0.9c0,0.4-0.3,0.4-0.8,0.3c-0.4-0.2-0.6-0.5-0.6-0.8
					C923.3,128.2,923.6,128.1,924,128.3z"/>
				<path class="st39" d="M924.4,139.6c0,0.4-0.3,0.5-0.6,0.5c-0.4-0.2-0.6-0.4-0.7-0.8c0-0.4,0.2-0.6,0.6-0.4
					C924.2,138.9,924.4,139.2,924.4,139.6z"/>
				<path class="st39" d="M919.8,125.3c0.5,0.2,0.8,0.5,0.7,0.9c0,0.3-0.2,0.5-0.6,0.3c-0.4-0.1-0.7-0.4-0.7-0.7
					C919.2,125.3,919.4,125.2,919.8,125.3z"/>
				<path class="st39" d="M918.4,127.5c0,0.4-0.2,0.6-0.7,0.4c-0.5-0.2-0.8-0.5-0.8-0.9c0-0.5,0.3-0.5,0.8-0.4
					C918.1,126.8,918.3,127.1,918.4,127.5z"/>
				<path class="st43" d="M914,133.7C914,133.8,914,133.8,914,133.7C914,133.8,913.9,133.8,914,133.7
					C913.9,133.8,914,133.8,914,133.7z"/>
				<path class="st42" d="M911.7,143.5c0.6,0.1,1.2,0,2.1,0.4c-0.8,0.1-1.4,0-2.1-0.1C911.7,143.7,911.7,143.6,911.7,143.5z"/>
				<path class="st39" d="M912,125.1c0.5,0.5,0.5,0.8,0.4,1.2c-0.4,0-0.9-0.2-1.3-0.5c-0.1-0.4-0.3-0.9,0.1-1c0,0,0.1,0,0.1,0
					C911.6,124.8,911.8,124.9,912,125.1z"/>
				<path class="st44" d="M911.7,143.5c0,0.1,0,0.2,0,0.3c-0.9,0-1.7,0-2.7-0.2c-1.7-1.4-3.3-2.9-5.1-4.1c-0.4-0.2-0.7-0.5-1-0.2
					c-1.2,1.3-2.6,2.4-3.5,4.1c-2.6,0.1-5.2,0-8-0.1c-0.4-0.3-0.8-0.6-1.3-0.9c-1.8-1.1-3.7-2-5.5-3.1c-1.8-1.1-3.5-2.1-5.3-3.1
					c-0.7-0.4-1.2-0.3-1.6,0.1c-0.9,0.9-1.8,1.8-2.7,2.8c-1.4,1.4-2.3,3.2-3.5,4.9c0,0,0,0,0,0c-0.1,0.1-0.1,0.1-0.2,0.2
					c-2.8,0.5-5.5,1-8.4,1.3c-5.1-2.6-10.2-4.9-15.5-6.3c-0.9-0.2-1.3-0.1-1.6,0.7c-1.8,3.9-3.6,8-4.4,12.1
					c-1.8,0.8-3.5,1.5-5.3,1.9c-3.3-1.7-6.7-3.3-10.3-5.4c0-0.9,0-1.4,0-2.3c0.1,0.1,0.3,0.2,0.5,0.3c0.4,0.1,0.6-0.2,0.4-0.7
					c-0.2-0.6-0.6-0.9-1.1-1.2c-0.1,0-0.1,0-0.2,0.1c-0.7-1.2-1.1-1.8-1.8-3.1c0.4,0.1,0.6,0,0.5-0.5c-0.1-0.5-0.5-0.9-1-1.2
					c-0.1-0.8-0.1-1,0-1.6c2.9,1.4,5.7,3.1,8.6,4.7c0.7,0.4,1.1,0.4,1.3-0.2c1.2-3.4,4.1-5.3,6.2-8c0.5-0.7,0.3-0.9-0.5-1.1
					c-2.7-0.8-5.3-1.9-8-3.1c-0.4-0.2-0.7-0.3-1.1-0.5c-0.4-0.2-0.7-0.3-1.1-0.5c-0.2-0.1-0.4-0.2-0.6-0.2c-0.6-0.2-1.1-0.5-1.7-0.7
					c-0.1,0-0.1,0-0.2,0c-0.1,0-0.2,0-0.2,0c0,0-0.1,0-0.1,0c0,0-0.1,0-0.1,0c0,0,0,0-0.1,0c-0.1,0-0.2,0.2-0.4,0.3
					c-2.4,1.9-3.5,4.6-4.9,7.3c-0.1,0.2-0.1,0.4,0,0.6c-0.6-0.2-0.9-0.3-1.4-0.4c-0.2-0.5-0.6-0.7-1-0.8c-3-1-6-2.3-9.1-3.8
					c-1.1-0.6-2.2-1.2-3.3-1.8c-0.5-0.3-0.8-0.5-0.7-1c0.2-0.9,0-2-1-3.4c-0.6-0.8-0.3-1.1,0-1.3c1.1-0.6,0.9-1.9,0.1-3.5
					c-0.3-0.6-0.3-1-0.1-1.4c0.4-0.8,0.8-1.6,1.6-2.2c0.4-0.3,0.6-0.6,0.8-1.1c0.1-0.4,0.5-0.7,1.1-0.8c0.8-0.1,1.3-0.5,1.4-1.1
					c0.2-1,0.5-1,2.2-0.3c0.4,0.2,0.9,0.4,1.3,0.5c1.3,0.4,1.7,0.2,1.6-0.7c0-0.5,0.2-0.5,0.8-0.2c1.5,0.7,2.9,1.3,4.4,1.9
					c0.4,0.2,0.9,0.4,1.2,0.2c0.4-0.3-0.1-0.7-0.4-1c-2.4-1.7-3.7-3.7-5.8-5.5c-0.7-0.6-0.6-0.8,0.2-0.8c1.2-0.1,1.4-0.6,0.6-1.5
					c-0.5-0.6-1-1.2-1.3-1.8c-0.2-0.4,0-0.5,0.7-0.5c3.1,0.2,5.8,1.4,8.6,2.5c2.8,1.1,5.4,2.5,7.8,4.1c5.3,3.4,10.6,7,16.1,10
					c0.1,0.1,0.2,0.2,0.4,0.3c-2.3,0-4.6-0.3-6.6-1.4c-0.7-0.4-1.2-0.4-1.4,0.3c-0.1,0.4-0.4,0.7-0.7,1c-1.1,1.4-2.5,2.5-4.4,3.1
					c3.4,0.4,6.6,1.4,9.6,2.9c0.5-2.4,2.6-3.9,4.3-5.5c1.4,0.5,2.9,1,4.3,1.6c1.2,0.5,2.4,0.9,3.6,1.5c0.4,0.2,0.9,0.4,1.3,0.6
					s0.9,0.5,1.3,0.7c-1.8,2-3.6,4.1-5.5,6.2c-0.2,0.2-0.5,0.5,0.1,0.7c1.4,0.5,2.7,1.2,4.2,1.5c2.2,0.4,4.4,1.1,6.6,1.9
					c0.8,0.3,1.4,0.3,1.9-0.2c1.7-1.8,3.4-3.5,5.1-5.1c0.5,0.1,1,0.3,1.4,0.4c-0.1,0.4,0,0.8,0.6,1c0.7,0.2,0.8-0.2,0.7-0.7
					c2.4,0.5,4.8,1.2,7.2,1.9c8,2.1,15.6,3.8,22.9,3.6c0,0.4,0,0.8,0.6,1.1c0.3,0.2,0.6,0.2,0.7-0.1c0.2-0.3,0-0.7-0.4-1.1
					c1.7-0.3,3.6-0.1,5.3-0.6c0.3,0.6-0.1,0.7-0.3,0.8c-0.6,0.7-1.2,1.4-0.9,2.7c0.3,1.3,1.2,2.4,2.5,3
					C911.1,143.2,911.4,143.3,911.7,143.5z M901.7,139c-0.1-0.5-0.4-0.9-0.9-1.1c-0.5-0.2-0.8,0-0.8,0.5c0,0.5,0.3,0.8,0.8,1
					C901.3,139.5,901.6,139.4,901.7,139z M897.3,142.2c0-0.5-0.3-0.9-0.8-1.2c-0.6-0.3-0.9,0-0.9,0.5c0,0.5,0.3,0.9,0.9,1.1
					C897,142.8,897.2,142.7,897.3,142.2z M895.7,138.2c0-0.5-0.3-0.8-0.8-1.1c-0.5-0.2-0.8,0-0.8,0.4c0,0.4,0.2,0.8,0.7,1
					C895.3,138.6,895.7,138.6,895.7,138.2z M892.4,139.5c0.5,0.1,0.7,0,0.8-0.5c-0.1-0.4-0.4-0.8-0.9-0.9c-0.5-0.2-0.7,0.1-0.7,0.5
					C891.7,139.1,891.9,139.4,892.4,139.5z M887.8,138.2c-0.1-0.3-0.3-0.6-0.7-0.7c-0.4-0.1-0.6,0-0.6,0.4c0,0.3,0.2,0.6,0.5,0.7
					C887.4,138.8,887.6,138.6,887.8,138.2z M875.3,134.7c0-0.2-0.1-0.4-0.4-0.5c-0.3-0.1-0.6-0.2-0.6,0.1c0,0.3,0.1,0.5,0.4,0.6
					C875,135.1,875.2,135,875.3,134.7z M871.3,137.6c0.1-0.1,0.1-0.1,0.1-0.3c0-0.3-0.2-0.5-0.5-0.5c-0.3,0-0.4,0.1-0.3,0.4
					c0,0.2,0.1,0.3,0.3,0.4c0.1,0,0.1,0.1,0.2,0.1C871.2,137.6,871.3,137.6,871.3,137.6z M866.5,143.8c0.5,0.1,0.7-0.2,0.8-0.6
					c-0.1-0.5-0.3-0.8-0.8-0.9c-0.5-0.1-0.9,0.1-0.9,0.6C865.6,143.4,865.9,143.7,866.5,143.8z M864.2,139.1
					c0.6,0.1,0.7-0.3,0.7-0.7c0-0.6-0.3-1-0.9-1.1c-0.5-0.1-0.8,0.2-0.7,0.6C863.3,138.5,863.6,138.9,864.2,139.1z M858.2,139.7
					c0-0.3-0.1-0.7-0.6-0.8c-0.4-0.1-0.7,0.1-0.7,0.5c0,0.4,0.1,0.7,0.5,0.8C857.9,140.2,858.2,140.1,858.2,139.7z M854.5,138
					c0.4,0,0.6-0.2,0.6-0.6c0-0.1,0-0.2-0.1-0.3c0,0,0-0.1-0.1-0.1c0,0-0.1,0-0.1-0.1c-0.1,0-0.2-0.1-0.3-0.1c-0.2,0-0.3,0-0.4,0.1
					c-0.1,0.1-0.1,0.2-0.1,0.4C853.9,137.7,854.1,137.9,854.5,138z M852.2,125.5c0-0.4-0.3-0.6-0.7-0.6c-0.4,0-0.7,0.1-0.7,0.5
					c0,0.4,0.3,0.6,0.8,0.7C851.8,126,852.2,125.8,852.2,125.5z M848.1,135.1c0.6,0,0.8-0.3,0.9-0.8c-0.1-0.5-0.4-0.8-1-0.8
					c-0.5,0-0.9,0.3-0.9,0.8C847.1,134.7,847.4,135,848.1,135.1z M844.4,131.1c-0.1-0.5-0.4-0.7-1-0.8c-0.6-0.1-0.8,0.2-0.9,0.6
					c0,0.4,0.2,0.8,0.8,0.8C843.9,131.8,844.3,131.5,844.4,131.1z M838.9,144.9c0.4,0.1,0.6-0.2,0.7-0.7c-0.1-0.5-0.4-0.9-0.9-1
					c-0.5-0.1-0.8,0.1-0.8,0.6C837.9,144.4,838.4,144.8,838.9,144.9z M837.5,117.4c0.6,0.1,0.8-0.2,0.9-0.7
					c-0.2-0.4-0.5-0.6-1.1-0.7c-0.6-0.1-0.9,0.1-0.9,0.6C836.5,117.1,836.9,117.3,837.5,117.4z M835.1,129.7c0.8,0.1,1.2,0,1.1-0.6
					c-0.1-0.7-0.5-1.2-1.4-1.4c-0.6-0.1-1.1,0.2-1,0.7C833.9,129.1,834.5,129.5,835.1,129.7z M836.7,150.2c0.4,0,0.7-0.1,0.6-0.6
					c-0.1-0.6-0.4-1-1-1.1c-0.4-0.1-0.6,0.2-0.5,0.7C835.9,149.8,836.2,150.1,836.7,150.2z M831.8,117.5c0-0.4-0.4-0.8-1.1-0.9
					c-0.6-0.1-1.1,0-1.1,0.5c0,0.5,0.5,0.9,1.1,1.1S831.7,118.1,831.8,117.5z M830.1,113.6c0.4-0.4,1.1-0.8-0.4-1.1
					c-0.2-0.1-0.3-0.2-0.5-0.3c-1-0.6-1.3-0.1-1.7,0.3c-0.6,0.5,0.3,0.6,0.7,0.9c0.2,0.1,0.5,0.2,0.7,0.4
					C829.6,114.1,829.9,114,830.1,113.6z M831.2,146c0.4,0.1,0.6-0.1,0.5-0.6c-0.2-0.5-0.5-0.9-1-1c-0.4-0.1-0.6,0.1-0.5,0.6
					C830.4,145.5,830.7,145.9,831.2,146z M826.5,109.6c-0.1-0.4-0.3-0.6-0.9-0.8c-0.5-0.1-1-0.1-1,0.3c-0.1,0.4,0.2,0.7,0.8,0.9
					C826,110.1,826.3,109.9,826.5,109.6z M824.9,124.6c0.6,0.2,1,0,0.9-0.6c-0.1-0.4-0.4-0.8-1.1-1c-0.6-0.2-1-0.1-1,0.4
					C823.7,123.9,824.3,124.4,824.9,124.6z M825.4,118c-0.3-0.3-0.8-0.4-1.2-0.6c-1.5-0.6-3.1-1.5-3.7,0c-0.1,0.2-0.6,0.3-1,0.5
					c1.3,0.5,2.3,1.1,3.3,1.6c0.5,0.3,0.9,0.4,1.2,0C824.3,118.9,824.9,118.5,825.4,118z M821.6,113.2c0.6,0.1,0.8-0.1,0.8-0.5
					c0-0.4-0.4-0.7-1-0.9c-0.6-0.1-1,0-1,0.4C820.5,112.7,820.9,113,821.6,113.2z M820.3,109.2c0.5-0.6,0.4-0.7-0.9-1.3
					c-0.5-0.2-1.1-0.6-1.3,0c-0.2,0.5-0.1,0.7,0.8,1c0,0,0,0,0,0C819.3,109.1,819.7,109.8,820.3,109.2z M818.3,122.9
					C818.3,122.9,818.3,122.9,818.3,122.9C818.3,122.9,818.3,122.9,818.3,122.9C818.3,122.9,818.2,122.9,818.3,122.9
					C818.2,122.9,818.2,122.9,818.3,122.9c-0.5-0.1-0.9-0.3-1.2-0.4c-1.6-0.5-3.2-1-4.8-1.9c-1-0.5-1.9-1.4-3-2
					c0.2,2-1.6,2.5-2.8,3.6c2.5,0.9,4.8,2.3,7,4c0.6,0.5,0.7,0.3,0.8,0c0.4-1.4,1.5-2.1,2.8-2.8
					C817.5,123.3,818.1,123.3,818.3,122.9C818.2,122.9,818.2,122.9,818.3,122.9C818.3,122.9,818.3,122.9,818.3,122.9
					C818.3,122.9,818.3,122.9,818.3,122.9z M816.7,130.7c-0.1-0.6-0.4-1-1.1-1.3c-0.5-0.2-0.9-0.2-0.8,0.3c0.1,0.6,0.4,1.1,1.1,1.4
					C816.5,131.4,816.8,131.2,816.7,130.7z M814.8,118.4c0-0.3-0.4-0.6-0.8-0.8c-0.5-0.2-0.8-0.1-0.8,0.2c0,0.3,0.3,0.6,0.7,0.8
					C814.5,118.9,814.8,118.8,814.8,118.4z M809.8,129.2c-0.1-0.6-0.5-1.1-1.3-1.4c-0.6-0.2-1-0.2-0.9,0.4c0.1,0.7,0.6,1.2,1.3,1.6
					C809.6,130,809.9,129.7,809.8,129.2z"/>
				<path class="st11" d="M910.5,123.9c0.3,0.4,0.4,0.6,0.7,0.9c-0.4,0.1-0.3,0.6-0.1,1c-2.8-0.7-5.6-1.6-8.3-2.5
					c-3.6-1.1-7-1.7-10.4-2.1c-0.3,0-0.5-0.1-0.8-0.2c0,0,0,0,0,0c0.1-0.1,0.3-0.2,0.4-0.3c0.2-0.2,0.1-0.5-0.3-0.8
					c-0.3-0.2-0.6-0.3-0.8-0.1c-0.3,0.1-0.3,0.4,0,0.7c0.2,0.2,0.4,0.3,0.7,0.5c-1.1,0-2.2-0.4-3.4-0.7c-0.7-0.2-1-0.6-0.8-1.2
					c0.7-1.3,0.3-1.8-1.6-2.6c-0.3-0.1-0.7-0.2-0.9-0.5c3.6,0.4,7.3,1.5,10.8,1.9c-0.1,0.3,0.1,0.6,0.4,0.9c0.3,0.2,0.5,0.2,0.7,0.1
					c0.3-0.2,0.1-0.6-0.2-0.9c2.5,0,5.2,0.4,7.9,1.4c2,0.7,4,1.4,6,2.2c0,0.4,0,0.5,0,0.9c0,0-0.1,0-0.1,0c-0.5-0.1-0.7,0-0.7,0.5
					C909.9,123.4,910.1,123.8,910.5,123.9z M906.6,121.6c0.3,0.1,0.5,0,0.5-0.3c-0.1-0.4-0.4-0.6-0.7-0.7c-0.3-0.1-0.5,0-0.5,0.3
					C905.9,121.3,906.2,121.5,906.6,121.6z M894.7,119.9c0-0.3-0.2-0.7-0.6-0.8c-0.5-0.2-0.8-0.1-0.8,0.3c0,0.4,0.4,0.6,0.7,0.8
					C894.4,120.4,894.7,120.2,894.7,119.9z"/>
				<path class="st39" d="M911.4,123.5c0,0.5-0.3,0.5-0.8,0.4c0,0-0.1,0-0.1,0c-0.4-0.2-0.6-0.5-0.7-0.9c-0.1-0.4,0.2-0.6,0.7-0.5
					c0,0,0.1,0,0.1,0C911,122.8,911.3,123.2,911.4,123.5z"/>
				<path class="st43" d="M906.3,131.4c2.5,0.8,5.1,1.6,7.6,2.4c-1.6,1-3.7,1.5-5.8,1.8c-6.3,0.8-13.1,0.3-20.5-1.5
					c-4.5-1.1-9-2.3-13.5-3.4c-4.7-1.1-9.1-2.7-13.5-4.9c-0.2-0.1-0.5-0.1-0.5-0.4c0.4-0.1,0.8,0.1,1.2,0.2c2.3,0.8,4.6,1.6,7,2.3
					c1.1,0.3,2,0.4,2.9,0.1c0.2,0,0.4,0.1,0.5,0.3c-0.2,0.1-0.5,0.2,0,0.4c0.7,0.2,1.4,0.2,2,0.4c3.9,0.8,7.8,1.9,11.6,2.5
					c3.3,0.6,6.6,1,9.7,1.1c0.6,0,1-0.1,0.9-0.7c-0.1-0.7-0.7-0.9-1.2-1c-1.7-0.5-3.4-0.8-5.1-1.1c-0.9-0.2-1.9-0.5-2.9-0.8
					c0.5-0.3,1.2-0.2,1.9,0c3,0.7,5.8,1,8.5,1c1.2,0,2.2-0.3,3.5-0.2C902.4,129.9,904.4,130.7,906.3,131.4z"/>
				<path class="st39" d="M907.1,121.3c0,0.3-0.2,0.4-0.5,0.3c-0.4-0.1-0.7-0.3-0.7-0.7c0-0.3,0.2-0.4,0.5-0.3
					C906.7,120.7,907,121,907.1,121.3z"/>
				<path class="st45" d="M909,143.6c-0.8,0.2-1.8,0-2.7-0.1c-0.4-0.4-0.7-0.9-1.1-1.3c-0.5-0.7-0.9-0.8-1.1-0.2
					c-0.2,0.5-0.5,1-0.7,1.4c-1.3,0-2.6,0.1-3.9-0.1c0.9-1.6,2.3-2.7,3.5-4.1c0.3-0.3,0.6,0,1,0.2
					C905.7,140.7,907.4,142.2,909,143.6z"/>
				<path class="st46" d="M905.2,142.2c0.3,0.4,0.7,0.9,1.1,1.3c-0.9,0.1-1.9,0-2.9-0.1c0.2-0.5,0.5-0.9,0.7-1.4
					C904.3,141.4,904.7,141.5,905.2,142.2z"/>
				<path class="st39" d="M904.2,137.2c0.4,0.3,0.6,0.7,0.4,1.1c-0.1,0.2-0.4,0.2-0.7,0.1c-0.6-0.3-0.6-0.7-0.6-1.1
					C903.6,137.1,903.9,137.2,904.2,137.2z"/>
				<path class="st39" d="M900.8,137.9c0.5,0.2,0.8,0.6,0.9,1.1c-0.1,0.4-0.4,0.5-0.9,0.3c-0.5-0.2-0.8-0.5-0.8-1
					C900,137.8,900.2,137.7,900.8,137.9z"/>
				<path class="st39" d="M896.5,141c0.5,0.2,0.8,0.6,0.8,1.2c0,0.5-0.3,0.6-0.9,0.4c-0.6-0.2-0.9-0.6-0.9-1.1
					C895.6,141,895.9,140.8,896.5,141z"/>
				<path class="st39" d="M896.7,118.1c0.2,0.3,0.5,0.7,0.2,0.9c-0.2,0.1-0.4,0.1-0.7-0.1c-0.4-0.3-0.5-0.6-0.4-0.9
					C896.1,118.1,896.4,118.1,896.7,118.1z"/>
				<path class="st39" d="M894.9,137c0.5,0.3,0.8,0.7,0.8,1.1c0,0.5-0.4,0.5-0.8,0.3c-0.5-0.2-0.7-0.6-0.7-1
					C894.1,137,894.4,136.9,894.9,137z"/>
				<path class="st39" d="M894.1,119.1c0.4,0.2,0.7,0.5,0.6,0.8c0,0.3-0.3,0.4-0.7,0.3c-0.4-0.2-0.8-0.5-0.7-0.8
					C893.3,119,893.6,118.9,894.1,119.1z"/>
				<path class="st41" d="M894,131.6c0.1,0,0.1,0,0.2,0.1C894.2,131.7,894.1,131.7,894,131.6C894.1,131.7,894.1,131.7,894,131.6z"/>
				<path class="st41" d="M878,129.2c2.3-0.2,13.7,1.7,15.5,2.4C888.7,131.7,883.5,130.3,878,129.2z"/>
				<path class="st39" d="M893.2,139.1c-0.1,0.4-0.3,0.6-0.8,0.5c-0.4-0.1-0.7-0.5-0.7-0.9c0-0.4,0.1-0.7,0.7-0.5
					C892.8,138.3,893,138.7,893.2,139.1z"/>
				<path class="st39" d="M891.7,120.1c0.4,0.3,0.4,0.6,0.3,0.8c-0.1,0.1-0.2,0.2-0.4,0.3c-0.2-0.2-0.5-0.3-0.7-0.5
					c-0.3-0.3-0.3-0.6,0-0.7C891.2,119.8,891.4,119.8,891.7,120.1z"/>
				<path class="st47" d="M890.2,142.4c0.4,0.2,0.8,0.6,1.3,0.9c-2.4,0.1-4.7,0.2-7.2,0.1c-1.1-1-2.2-2-3.4-2.6
					c-0.4-0.2-0.8-0.4-1-0.1c-0.5,0.9-1,1.8-1.6,2.7c-0.1,0-0.1,0.1-0.2,0.1c-2.1,0.1-4.2,0.6-6.4,0.4c0,0,0,0,0,0
					c1.2-1.7,2.2-3.5,3.5-4.9c0.9-0.9,1.8-1.8,2.7-2.8c0.4-0.4,0.9-0.5,1.6-0.1c1.8,1,3.6,2,5.3,3.1
					C886.5,140.4,888.4,141.3,890.2,142.4z"/>
				<path class="st39" d="M887.1,137.5c0.4,0.1,0.6,0.4,0.7,0.7c-0.1,0.4-0.3,0.5-0.8,0.4c-0.3-0.1-0.5-0.4-0.5-0.7
					C886.5,137.5,886.7,137.4,887.1,137.5z"/>
				<path class="st43" d="M886.1,128.7c0,0.1,0.1,0.2,0.1,0.3c-1.4,0-2.9-0.2-4.5-0.6c0-0.1,0-0.2,0-0.4
					C883.2,128.3,884.6,128.5,886.1,128.7z"/>
				<path class="st48" d="M885.5,112.4c-0.4,0.2-1,0-1.5,0c-6.8-0.6-13.7-1.2-20.6-0.7c-1,0.1-2.2,0-3.3,0c-1.1-1.5-2.7-2.6-4.2-3.8
					c-1-0.8-2.1-1.4-3.6-1.3c-1.8,0.1-3.2-0.4-4.4-1.5c-1.8-1.8-4.4-2.6-7.7-2.3c-1,0.1-1.8-0.3-2.4-0.9c-0.6-0.7-1.1-1.4-1.9-2
					c-2.3-1.6-4.6-3.3-6.9-4.9c-0.5-0.4-1.1-0.6-1.8-0.7c-0.7-0.2-1.4-0.4-1.7-0.9c-0.4-0.6-0.9-1.1-1.3-1.7
					c-1.9-2.8-3.6-5.6-5.4-8.4c-0.8-1.3-1.9-2.4-3.6-3.2c-1.3-0.6-1.5-0.5-2.1,0.5c-0.7,1.1-1,2.2-1.4,3.3c-0.7,2.2-1.2,4.3-2.2,6.2
					c-0.8,1.4-1.5,2.8-2.3,4.1c-0.9-0.4-1.6-1-2.5-1.5c-0.9-0.5-0.8-0.8-0.3-1.3c2.2-2,3.9-4.5,4.6-7.4c0.9-3.6,1.5-7.6,1.3-12.1
					c-0.1-3.8-0.8-7.9-1.6-12.5c-0.1-0.4-0.2-1,0.3-1.3c0.5-0.3,0.9,0,1.2,0.2c1.6,1.3,2.6,3,3.7,4.7c4.8,7.2,9,13.6,14.6,19.1
					c4.3,4.3,9.3,8.2,15.3,11.4c3.4,1.8,7.1,3.4,10.8,5c4.5,2,8.8,4.5,13.7,6.5C874,107.4,879.8,109.8,885.5,112.4z"/>
				<path class="st38" d="M881.7,128.1c0,0.1,0,0.2,0,0.4c-1.4,0-2.8-0.1-4.2-0.3c-2-0.3-4-0.2-5.8,0.2c-0.1-0.2-0.3-0.3-0.5-0.3
					c2.5-0.9,5.5-0.3,8.3-0.2C880.2,127.9,880.9,127.8,881.7,128.1z"/>
				<path class="st46" d="M880.8,140.7c1.3,0.6,2.3,1.7,3.4,2.6c-1.9,0.2-3.9,0.2-6,0c0,0,0,0,0,0c0,0,0,0,0,0
					c0.5-0.9,1.1-1.8,1.6-2.7C880.1,140.2,880.5,140.5,880.8,140.7z"/>
				<path class="st46" d="M878.3,143.3c0,0.2-0.1,0.1-0.2,0.1C878.2,143.4,878.2,143.3,878.3,143.3
					C878.3,143.3,878.3,143.3,878.3,143.3z"/>
				<path class="st46" d="M878.3,143.3C878.3,143.3,878.3,143.3,878.3,143.3C878.3,143.3,878.3,143.3,878.3,143.3
					C878.3,143.3,878.3,143.3,878.3,143.3z"/>
				<path class="st39" d="M874.9,134.2c0.3,0.1,0.4,0.3,0.4,0.5c0,0.3-0.2,0.3-0.6,0.2c-0.3-0.1-0.5-0.4-0.4-0.6
					C874.3,134.1,874.6,134.1,874.9,134.2z"/>
				<path class="st39" d="M873.2,131.7c0.1,0.5,0,0.9-0.7,0.7c-0.6-0.2-0.7-0.6-0.6-1C872.4,131.4,872.8,131.6,873.2,131.7z"/>
				<path class="st39" d="M871.4,137.3c0,0.1,0,0.2-0.1,0.3c-0.1,0-0.2,0.1-0.3,0c-0.1,0-0.2,0-0.2-0.1c-0.1-0.1-0.2-0.2-0.3-0.4
					c0-0.2,0.1-0.4,0.3-0.4C871.2,136.8,871.4,137,871.4,137.3z"/>
				<path class="st39" d="M871,137.6c0.1,0,0.2,0,0.3,0C871.3,137.6,871.2,137.6,871,137.6c-0.1,0-0.2,0-0.2-0.1
					C870.9,137.6,870.9,137.6,871,137.6z"/>
				<path class="st41" d="M872,113.4c-0.3,0.3-0.8,0.2-1.3,0.1C871.1,113.2,871.5,113.3,872,113.4z"/>
				<path class="st47" d="M870.5,130.9c-1.7,1.6-3.4,3.3-5.1,5.1c-0.5,0.5-1,0.5-1.9,0.2c-2.2-0.8-4.3-1.5-6.6-1.9
					c-1.5-0.3-2.8-1-4.2-1.5c-0.6-0.2-0.3-0.5-0.1-0.7c1.9-2.1,3.8-4.2,5.5-6.2c0.2,0.1,0.4,0.2,0.7,0.3c1.5,0.7,3,1.5,4.6,2.1
					C865.8,129.3,868.2,130.1,870.5,130.9z M863.1,130.8c0.1-0.1,0.2-0.3,0-0.5c-0.8-0.6-1.7-1.2-2.6-1.8c-0.2,0-0.3,0.2-0.4,0.3
					c-0.3,0.4-0.5,0.8-0.8,1.2c-0.6,0.7-0.4,1.2,0.6,1.5c0.7,0.2,1.4,1.3,2.1,0.9C862.6,132.2,862.7,131.4,863.1,130.8z"/>
				<path class="st41" d="M870,113.4C870.1,113.4,870.1,113.4,870,113.4C870.1,113.4,870.1,113.5,870,113.4
					C870.1,113.5,870,113.4,870,113.4C870,113.4,870,113.4,870,113.4z"/>
				<path class="st43" d="M867.4,113c0,0.4-0.4,0.3-0.6,0.4c-0.9,0.3-2,0.4-2.7,1.1c-0.8,0.7-2.4,0.4-3.7,0.7
					c-0.9,0.1-1.7,0.2-2.4,0.7c-1.5,0.9-1.2,2.3,0.7,3c1.6,0.6,3,1.3,4.3,2.3c0.3,0.2,0.6,0.4,0.8,0.9c-2.5-0.1-4.8-1.1-7.2-1.4
					c-2.2-0.3-4.4-0.7-6.6-0.8c-2.1,0-3.7-1.1-5.7-1.9c7.1-1.1,12.4-4,18.5-4.8C864.2,113,865.8,112.9,867.4,113z"/>
				<path class="st39" d="M867.3,143.2c-0.1,0.4-0.3,0.7-0.8,0.6c-0.6-0.1-0.9-0.4-0.9-1c0-0.5,0.4-0.7,0.9-0.6
					C866.9,142.4,867.2,142.7,867.3,143.2z"/>
				<path class="st39" d="M864.8,138.4c0,0.4-0.1,0.8-0.7,0.7c-0.6-0.1-0.9-0.6-1-1.1c-0.1-0.5,0.2-0.7,0.7-0.6
					C864.6,137.4,864.8,137.8,864.8,138.4z"/>
				<path class="st46" d="M863.1,130.4c0.2,0.1,0.1,0.3,0,0.5c-0.4,0.6-0.6,1.4-1.1,1.7c-0.7,0.4-1.3-0.7-2.1-0.9
					c-1-0.3-1.2-0.8-0.6-1.5c0.3-0.4,0.5-0.8,0.8-1.2c0.1-0.1,0.2-0.3,0.4-0.3C861.4,129.2,862.3,129.7,863.1,130.4z"/>
				<path class="st43" d="M859.6,125.1C859.6,125.2,859.6,125.2,859.6,125.1c-0.1,0-0.1,0-0.2,0
					C859.5,125.1,859.5,125.1,859.6,125.1C859.6,125.1,859.6,125.1,859.6,125.1z"/>
				<path class="st11" d="M859,112.9C859,112.9,859,112.9,859,112.9C859,112.9,859,112.9,859,112.9C859,112.9,859,112.9,859,112.9z"
					/>
				<path class="st39" d="M857.7,139c0.4,0.1,0.6,0.4,0.6,0.8c0,0.4-0.3,0.5-0.7,0.5c-0.4-0.1-0.6-0.4-0.5-0.8
					C857,139.1,857.3,138.9,857.7,139z"/>
				<path class="st47" d="M863,145.3c-2.1,0.7-4.3,1.1-6.5,1.6c-2-2-4.8-2.6-6.7-4.4c-0.3-0.3-0.6,0-0.7,0.3
					c-0.7,2.3-1.9,4.5-2.4,6.8c-1.8,0.8-3.5,1.5-5.2,2.1c0.8-4.2,2.6-8.3,4.4-12.1c0.3-0.7,0.8-0.9,1.6-0.7
					C852.8,140.5,857.9,142.8,863,145.3z"/>
				<path class="st11" d="M858.6,112.9c-0.6,0.4-1.2,0.4-1.7,0.6c-3.5,0.8-6.6,2.3-10.5,3.1c-1,0.2-2.1,0.3-3.2,0.4
					c0-0.7-0.4-0.9-1.2-0.5c-1.7-0.9-3.2-1.9-4.8-2.9c-0.3-0.2-0.5-0.4-0.4-0.6c0.1-0.2,0.4-0.2,0.7-0.1c4.4,0.9,8.9,0.5,12.9,0.3
					C853.1,112.9,855.7,112.8,858.6,112.9z M846.3,114.8c0.1-0.3-0.2-0.5-0.7-0.5c-0.4,0-0.7,0.1-0.8,0.4c0,0.3,0.2,0.5,0.6,0.5
					C846,115.2,846.2,115.1,846.3,114.8z M842.3,115.8c0.3,0,0.6-0.1,0.6-0.4c0-0.3-0.2-0.5-0.6-0.5c-0.4,0-0.6,0.2-0.6,0.4
					C841.7,115.6,841.9,115.9,842.3,115.8z M841.2,114.5c0-0.3-0.2-0.5-0.6-0.6c-0.5-0.1-0.6,0.1-0.7,0.4c0,0.3,0.1,0.5,0.6,0.6
					C840.9,114.9,841.1,114.7,841.2,114.5z"/>
				<path class="st49" d="M856,107.8c1.5,1.2,3.1,2.3,4.2,3.8c-2.5,0.2-5,0.1-7.6,0.2c-4.6,0.2-9.6,0.3-14.5,0.1
					c-3.2-0.1-6-1.3-8.4-3c-3.2-2.3-6.4-4.5-9.7-6.6c-4.4-2.8-8.6-5.6-12.7-8.2c0.8-1.3,1.6-2.7,2.3-4.1c1-1.9,1.5-4,2.2-6.2
					c0.4-1.1,0.7-2.2,1.4-3.3c0.6-1,0.8-1.1,2.1-0.5c1.7,0.8,2.8,2,3.6,3.2c1.8,2.8,3.5,5.6,5.4,8.4c0.4,0.6,0.9,1.2,1.3,1.7
					c0.3,0.5,1,0.7,1.7,0.9c0.7,0.2,1.3,0.4,1.8,0.7c2.3,1.6,4.6,3.2,6.9,4.9c0.8,0.6,1.3,1.3,1.9,2c0.6,0.6,1.3,1,2.4,0.9
					c3.3-0.2,5.9,0.6,7.7,2.3c1.1,1.1,2.5,1.6,4.4,1.5C853.9,106.4,855,107,856,107.8z"/>
				<path class="st39" d="M855.1,137.4c0,0.4-0.2,0.6-0.6,0.6c-0.4,0-0.5-0.3-0.5-0.6c0-0.2,0-0.3,0.1-0.4c0.1-0.1,0.2-0.1,0.4-0.1
					c0.1,0,0.2,0,0.3,0.1c0,0,0.1,0,0.1,0.1c0,0,0,0,0.1,0.1C855,137.2,855.1,137.3,855.1,137.4z"/>
				<path class="st39" d="M854.9,137C854.9,137,855,137.1,854.9,137C855,137.1,854.9,137,854.9,137z"/>
				<path class="st39" d="M854.5,136.9c0.1,0,0.2,0.1,0.3,0.1C854.7,136.9,854.6,136.9,854.5,136.9c-0.2,0-0.3,0-0.4,0.1
					C854.2,136.9,854.3,136.9,854.5,136.9z"/>
				<path class="st46" d="M849.8,142.5c2,1.8,4.8,2.5,6.7,4.4c-3.2,0.9-6.7,1.7-9.8,2.8c0.5-2.3,1.7-4.5,2.4-6.8
					C849.2,142.5,849.5,142.2,849.8,142.5z"/>
				<path class="st39" d="M851.5,124.8c0.4,0,0.7,0.3,0.7,0.6c0,0.4-0.3,0.5-0.7,0.5c-0.5-0.1-0.8-0.3-0.8-0.7
					C850.7,124.9,851,124.8,851.5,124.8z"/>
				<path class="st39" d="M849,134.2c-0.1,0.5-0.3,0.8-0.9,0.8c-0.6,0-1-0.3-1-0.8c0-0.5,0.4-0.8,0.9-0.8
					C848.5,133.4,848.8,133.8,849,134.2z"/>
				<path class="st45" d="M847,121.2c0.2,0.1,0.5,0.2,0.7,0.3c-1.7,1.6-3.8,3.1-4.3,5.5c-3-1.5-6.2-2.5-9.6-2.9
					c2-0.6,3.3-1.8,4.4-3.1c0.3-0.3,0.6-0.6,0.7-1c0.2-0.7,0.7-0.6,1.4-0.3C842.4,120.9,844.6,121.2,847,121.2z M840.5,123.6
					c0.8,0.3,2.3-0.4,2.2-1.1c-0.1-0.1-0.1-0.2-0.2-0.3c-1-1-2-1-2.9-0.2c-1,0.8-1,0.8,0.5,1.4C840.2,123.5,840.4,123.5,840.5,123.6
					z"/>
				<path class="st39" d="M845.6,114.3c0.4,0,0.7,0.2,0.7,0.5c-0.1,0.3-0.3,0.5-0.8,0.4c-0.5,0-0.7-0.2-0.6-0.5
					C844.9,114.4,845.2,114.3,845.6,114.3z"/>
				<path class="st39" d="M843.5,130.3c0.6,0.1,0.9,0.3,1,0.8c-0.1,0.4-0.5,0.7-1,0.6c-0.6-0.1-0.8-0.4-0.8-0.8
					C842.6,130.5,842.9,130.2,843.5,130.3z"/>
				<path class="st39" d="M843.2,116.9c-0.7,0.2-0.9-0.2-1.2-0.5C842.7,116,843.2,116.1,843.2,116.9z"/>
				<path class="st39" d="M842.9,115.4c0,0.3-0.3,0.4-0.6,0.4c-0.4,0-0.6-0.2-0.6-0.5c0-0.3,0.2-0.4,0.6-0.4
					C842.6,114.9,842.8,115.1,842.9,115.4z"/>
				<path class="st46" d="M842.7,122.4c0.1,0.7-1.4,1.5-2.2,1.1c-0.2-0.1-0.3-0.1-0.5-0.2c-1.4-0.6-1.4-0.6-0.5-1.4
					c0.9-0.8,1.9-0.7,2.9,0.2C842.6,122.3,842.7,122.4,842.7,122.4z"/>
				<path class="st39" d="M840.5,113.9c0.4,0.1,0.6,0.3,0.6,0.6c-0.1,0.3-0.3,0.5-0.7,0.4c-0.4-0.1-0.6-0.3-0.6-0.6
					C839.9,114,840.1,113.8,840.5,113.9z"/>
				<path class="st47" d="M838.8,133.3c0.9,0.3,1.1,0.5,0.5,1.1c-2.1,2.7-5,4.6-6.2,8c-0.2,0.6-0.6,0.6-1.3,0.2
					c-2.9-1.6-5.7-3.2-8.6-4.7c-0.8-0.4-1.5-0.7-2.3-1.1c-0.3-0.1-0.5-0.3-0.6-0.4c-0.1-0.2-0.1-0.4,0-0.6c1.4-2.7,2.5-5.4,4.9-7.3
					c0.2-0.1,0.3-0.2,0.4-0.3c0,0,0,0,0.1,0c0,0,0.1,0,0.1,0c0,0,0.1,0,0.1,0c0.1,0,0.1,0,0.2,0c0.1,0,0.1,0,0.2,0.1
					c0.6,0.2,1.1,0.5,1.7,0.7c0.2,0.1,0.4,0.2,0.6,0.2c0.4,0.2,0.7,0.3,1.1,0.5c0.4,0.2,0.7,0.3,1.1,0.5
					C833.4,131.4,836.1,132.4,838.8,133.3z M831.9,135.6c0-0.3-0.3-0.6-0.5-0.7c-1-0.8-2-1.5-3-2.3c-0.4-0.3-0.5-0.1-0.6,0
					c-0.6,0.8-1.1,1.5-1.7,2.3c-0.4,0.5-0.1,0.9,0.7,1.3c0.8,0.4,1.6,0.9,2.4,1.3c0.3,0.1,0.6,0.5,0.8,0.3
					C830.6,137.1,831.3,136.3,831.9,135.6z"/>
				<path class="st39" d="M839.5,144.2c-0.1,0.4-0.2,0.8-0.7,0.7c-0.5-0.1-0.9-0.5-1-1.1c0-0.5,0.3-0.8,0.8-0.6
					C839.1,143.3,839.4,143.7,839.5,144.2z"/>
				<path class="st39" d="M838.4,116.7c-0.1,0.4-0.3,0.7-0.9,0.7c-0.5-0.1-1-0.3-1-0.8c0-0.4,0.2-0.6,0.9-0.6
					C837.9,116.1,838.2,116.4,838.4,116.7z"/>
				<path class="st39" d="M836.2,129.1c0.1,0.6-0.4,0.7-1.1,0.6c-0.6-0.2-1.2-0.6-1.3-1.2c0-0.5,0.4-0.9,1-0.7
					C835.7,127.9,836.1,128.4,836.2,129.1z"/>
				<path class="st39" d="M837.4,149.6c0,0.5-0.2,0.6-0.6,0.6c-0.5-0.1-0.8-0.4-0.9-1c-0.1-0.5,0.1-0.8,0.5-0.7
					C836.9,148.6,837.3,149,837.4,149.6z"/>
				<path class="st39" d="M830.7,116.6c0.7,0.1,1.1,0.5,1.1,0.9c0,0.6-0.4,0.9-1.1,0.7s-1.1-0.6-1.1-1.1
					C829.6,116.6,830,116.4,830.7,116.6z"/>
				<path class="st46" d="M831.5,134.8c0.2,0.2,0.5,0.4,0.5,0.7c-0.7,0.7-1.3,1.5-2,2.2c-0.2,0.2-0.5-0.1-0.8-0.3
					c-0.8-0.4-1.6-0.9-2.4-1.3c-0.8-0.4-1.1-0.8-0.7-1.3c0.5-0.8,1.1-1.6,1.7-2.3c0.1-0.2,0.2-0.3,0.6,0
					C829.4,133.3,830.4,134.1,831.5,134.8z"/>
				<path class="st45" d="M829.7,112.4c1.5,0.4,0.8,0.8,0.4,1.1c-0.1,0-0.1-0.1-0.1-0.1C830.2,113.1,829.8,112.8,829.7,112.4z"/>
				<path class="st45" d="M829.9,113.5c0.1,0,0.1,0.1,0.1,0.1c-0.2,0.4-0.5,0.5-1.2,0.1c-0.2-0.1-0.5-0.2-0.7-0.4
					c-0.4-0.3-1.3-0.4-0.7-0.9c0.4-0.3,0.7-0.8,1.7-0.3c0.2,0.1,0.3,0.2,0.5,0.3c-0.6,0-1.4-0.2-1.2,0.4
					C828.7,113.5,829.3,113.5,829.9,113.5z"/>
				<path class="st46" d="M829.7,112.4c0.1,0.3,0.4,0.7,0.2,1c-0.6,0.1-1.3,0-1.4-0.6C828.4,112.2,829.2,112.4,829.7,112.4z"/>
				<path class="st47" d="M836.2,153.6c-1.5,0.6-3,1.1-4.6,1.3c-1.8-1-3.6-1.9-5.4-2.7c-0.5-0.2-1.1-0.7-1.2,0.2
					c-0.2,1.6-0.4,3-0.7,4.5c-1.6,0.4-3.2,0.8-4.9,1c0.9-2.6,1.8-5.3,2.1-8.5c0.1-0.8,0.2-1.5,0.3-2.4c0.1-0.9,0.5-1.1,1.3-0.5
					c0.9,0.6,1.9,1.2,2.8,1.7C829.5,150.3,832.9,151.9,836.2,153.6z"/>
				<path class="st39" d="M831.7,145.5c0.1,0.5-0.1,0.6-0.5,0.6c-0.5-0.1-0.8-0.5-0.9-1c-0.1-0.5,0.1-0.7,0.5-0.6
					C831.2,144.5,831.5,144.9,831.7,145.5z"/>
				<path class="st47" d="M828.6,129.2c0.4,0.2,0.7,0.3,1.1,0.5C829.3,129.5,829,129.4,828.6,129.2z"/>
				<path class="st46" d="M831.7,155c-2.5,0.8-4.9,1.4-7.3,1.9c0.3-1.4,0.5-2.9,0.7-4.5c0.1-0.9,0.7-0.4,1.2-0.2
					C828.1,153.1,829.9,154,831.7,155z"/>
				<path class="st47" d="M826.3,128.3c0.6,0.2,1.1,0.5,1.7,0.7C827.4,128.8,826.9,128.5,826.3,128.3c-0.1,0-0.1,0-0.2,0
					C826.2,128.3,826.3,128.3,826.3,128.3z"/>
				<path class="st39" d="M825.6,108.8c0.6,0.1,0.8,0.4,0.9,0.8c-0.1,0.4-0.5,0.6-1.1,0.4c-0.6-0.2-0.9-0.5-0.8-0.9
					C824.6,108.7,825,108.7,825.6,108.8z"/>
				<path class="st47" d="M825.7,128.2C825.7,128.3,825.6,128.3,825.7,128.2C825.6,128.3,825.7,128.3,825.7,128.2z"/>
				<path class="st39" d="M825.9,124c0,0.6-0.4,0.8-0.9,0.6c-0.7-0.2-1.2-0.6-1.2-1.2c0-0.5,0.4-0.6,1-0.4
					C825.5,123.2,825.8,123.6,825.9,124z"/>
				<path class="st45" d="M824.1,117.3c0.4,0.2,0.9,0.3,1.2,0.6c-0.5,0.5-1,1-1.5,1.5c-0.3,0.4-0.6,0.3-1.2,0c-1-0.5-2-1.2-3.3-1.6
					c0.5-0.2,0.9-0.3,1-0.5C821,115.9,822.6,116.7,824.1,117.3z M822.9,118.5c0.4,0.1,0.4-0.2,0.5-0.3c-0.2-0.3-0.4-0.6-0.9-0.7
					c-0.4-0.1-0.5,0.2-0.5,0.4C822,118.2,822.5,118.4,822.9,118.5z"/>
				<path class="st39" d="M826.8,145.5c0.2,0.5,0,0.8-0.4,0.7c-0.2-0.1-0.3-0.1-0.5-0.3c-0.2-0.2-0.4-0.5-0.5-0.8
					c-0.2-0.4,0-0.6,0.2-0.7c0.1,0,0.1-0.1,0.2-0.1C826.2,144.6,826.6,144.9,826.8,145.5z"/>
				<path class="st46" d="M823.4,118.2c-0.1,0.2-0.1,0.5-0.5,0.3c-0.4-0.1-0.9-0.3-0.9-0.7c0-0.2,0.1-0.5,0.5-0.4
					C823,117.5,823.2,117.8,823.4,118.2z"/>
				<path class="st50" d="M822.8,105.8c0.2,0.1,0.4,0.2,0.5,0.5c-1.9-0.8-3.8-1.4-5.7-2c-0.8-0.3-1.5-0.5-2.3-0.4
					c-0.4,0.1-1-0.1-1.5-0.3c-1.2-0.3-1.6-0.1-1.5,0.6c0.2,0.8,0.6,1.5,1.4,2.3c0.5,0.6,0.5,0.8-0.3,0.9c-1.5,0.2-1.5,0.6-0.3,1.7
					c1.6,1.4,2.8,2.9,4.7,4.6c-1.4-0.6-2.5-1-3.6-1.5c-1.5-0.6-1.9-0.5-1.5,0.5c0.3,0.8-0.2,0.8-1.1,0.5c-3.1-1.1-3.1-1.1-4.1,0.5
					c-0.1,0.1-0.2,0.3-0.4,0.3c-2.4,0.2-2.2,2.2-3.5,3.1c-0.1,0.1-0.2,0.2-0.3,0.4c-0.8-0.5-1.2-0.8-1.9-1.3c1-1.9,1.9-3.8,2.6-5.8
					c0.7-2.1,0.6-4.4,0.3-6.7c-0.3-2.4-1-4.8-2.2-7.1c-1-1.9-2.1-3.8-3.5-5.6c-0.2-0.2-0.4-0.4-0.3-0.7c1.2,0.3,2.2,0.7,3,1.3
					c5,3,10.1,6.4,15.4,9.9C818.6,102.9,820.7,104.4,822.8,105.8z"/>
				<path class="st44" d="M825.9,145.9c0,0.9,0,1.4,0,2.3c-0.9-0.5-1.8-1.1-2.8-1.7c-0.8-0.5-1.2-0.3-1.3,0.5c0,0.8-0.2,1.6-0.3,2.4
					c-0.4,3.2-1.2,5.9-2.1,8.5c-1.2,0.7-2.6,0.9-3.9,1.3c-0.9,0.2-1.7,0.6-2.8,0.6c-1.7-1.9-3.6-3.5-5.5-5.4
					c1.4-1.5,2.8-2.7,4.6-3.4c0.9-0.3,1.9-0.6,2.5-1.3c0.7-0.7,0.7-1.2-0.3-3c-0.3-0.5-0.2-0.7-0.1-0.9c0.7-1.3,0.3-3.7,0.8-5.1
					c0.1-0.3-0.1-1-0.4-1.4c-1-1.5-0.4-1.5,0.1-1.5c1.4-0.1,2.7-0.4,3.9-1.1c0.2-0.1,0.6-0.2,0.4-0.6c0.6,0.2,0.9,0.3,1.4,0.4
					c0.1,0.2,0.3,0.3,0.6,0.4c0.8,0.3,1.5,0.7,2.3,1.1c0,0.6-0.1,0.8,0,1.6c-0.4-0.1-0.6,0.1-0.4,0.7c0.1,0.5,0.4,0.9,0.8,1
					c0,0,0,0,0.1,0c0.8,1.3,1.1,1.9,1.8,3.1c-0.2,0.1-0.3,0.3-0.2,0.7C825.5,145.4,825.7,145.7,825.9,145.9z M817.2,149.2
					c0-0.1,0-0.2,0-0.3c-0.1-0.2-0.1-0.3-0.2-0.4c-0.1-0.2-0.3-0.4-0.5-0.4c-0.3-0.1-0.4,0.1-0.3,0.5c0.1,0.4,0.3,0.7,0.6,0.8
					c0,0,0.1,0,0.1,0c0,0,0,0,0.1,0C817.1,149.4,817.2,149.4,817.2,149.2z M816.6,157c0.3,0.1,0.6-0.1,0.5-0.6
					c-0.1-0.5-0.5-0.9-0.9-1.1c-0.5-0.2-0.6,0.2-0.5,0.7C815.7,156.5,816.1,156.8,816.6,157z M813.9,158.1c0-0.3-0.2-0.6-0.5-0.8
					c-0.4-0.2-0.5,0-0.5,0.4c0,0.4,0.3,0.6,0.5,0.8C813.8,158.6,813.9,158.4,813.9,158.1z M811.4,154.6c0.5,0.3,0.7,0,0.7-0.6
					c-0.2-0.6-0.5-1.1-0.9-1.3c-0.5-0.2-0.7,0.1-0.6,0.7C810.7,154,811,154.4,811.4,154.6z"/>
				<path class="st39" d="M822.4,112.7c0,0.4-0.2,0.6-0.8,0.5c-0.7-0.1-1.1-0.4-1.2-0.9c0-0.4,0.3-0.6,1-0.4
					C822,112,822.4,112.3,822.4,112.7z"/>
				<path class="st39" d="M823.2,139.6c0.4,0.3,0.8,0.7,1,1.2c0.1,0.6-0.1,0.7-0.5,0.5c0,0,0,0-0.1,0c-0.4-0.1-0.7-0.6-0.8-1
					C822.6,139.7,822.8,139.5,823.2,139.6z"/>
				<path class="st45" d="M819.3,107.9c1.3,0.5,1.4,0.7,0.9,1.3c-0.5,0.6-1,0-1.5-0.3c0,0,0,0,0,0c0.6,0.1,1.3,0.1,0.9-0.5
					c-0.2-0.3-0.7-0.5-1-0.4c-0.6,0.2-0.2,0.5,0.1,0.9c0,0,0,0,0,0c0,0,0,0,0,0c-0.8-0.2-1-0.5-0.8-1
					C818.2,107.3,818.8,107.7,819.3,107.9z"/>
				<path class="st46" d="M819.7,108.4c0.4,0.6-0.3,0.6-0.9,0.5c-0.3-0.3-0.7-0.7-0.1-0.9C819,107.9,819.5,108.1,819.7,108.4z"/>
				<path class="st46" d="M818.8,108.9C818.8,108.9,818.8,108.9,818.8,108.9C818.8,108.9,818.8,108.9,818.8,108.9
					C818.8,108.9,818.8,108.9,818.8,108.9C818.8,108.9,818.8,108.9,818.8,108.9z"/>
				<path class="st45" d="M818.3,122.8C818.3,122.9,818.3,122.9,818.3,122.8C818.3,122.9,818.3,122.9,818.3,122.8
					C818.3,122.9,818.3,122.9,818.3,122.8z"/>
				<path class="st45" d="M818.3,122.9C818.3,122.9,818.3,122.9,818.3,122.9C818.2,122.9,818.2,122.9,818.3,122.9
					C818.2,122.9,818.3,122.9,818.3,122.9z"/>
				<path class="st45" d="M818.3,122.9C818.2,122.9,818.2,122.9,818.3,122.9C818.2,122.9,818.2,122.9,818.3,122.9
					C818.2,122.9,818.2,122.9,818.3,122.9z"/>
				<path class="st45" d="M817.1,122.5c0.4,0.1,0.8,0.3,1.1,0.4c-0.1,0.4-0.7,0.4-1.1,0.6c-1.2,0.7-2.4,1.4-2.8,2.8
					c-0.1,0.3-0.2,0.5-0.8,0c-2.2-1.8-4.5-3.1-7-4c1.2-1.1,2.9-1.6,2.8-3.6c1.1,0.6,1.9,1.4,3,2C813.9,121.5,815.5,122,817.1,122.5z
					 M813,122.9c0.2-0.7-0.9-0.9-1.4-1.4c-0.4-0.4-0.6-0.4-0.8-0.1c-0.2,0.3-0.6,0.5-0.9,0.8c0.2,0.2,0.4,0.4,0.6,0.5
					C812.2,124.1,812.7,124.1,813,122.9z"/>
				<path class="st39" d="M815.6,129.4c0.7,0.3,1,0.7,1.1,1.3c0.1,0.6-0.2,0.7-0.9,0.4c-0.6-0.3-1-0.8-1.1-1.4
					C814.8,129.2,815.1,129.2,815.6,129.4z"/>
				<path class="st39" d="M814,117.6c0.4,0.2,0.8,0.5,0.8,0.8c0,0.3-0.3,0.4-0.9,0.2c-0.4-0.2-0.7-0.4-0.7-0.8
					C813.2,117.5,813.5,117.5,814,117.6z"/>
				<path class="st50" d="M815,135.2c0.5,0.2,1,0.4,1.7,0.6c-1,0.5-2,0.5-2.9,0.6c-0.4,0.1-0.7,0.1-1,0.3c-0.3,0.2-0.2,0.8,0.3,1.4
					c0.9,1.1,0.6,1.5,0.6,2.1c-0.2,1.8-0.3,3.8-1,5.2c-0.2,0.4,0,1.1,0.6,1.7c0.6,0.6,0.5,0.7,0.3,1c-0.5,0.8-1.3,1.1-2.1,1.4
					c-2.2,0.8-3.9,2.4-5.6,4.1c-0.9,0.9-0.9,1.6,0,3.5c0.2,0.4,0.2,0.7,0.1,0.9c-0.1,0.2-0.2,0.5-0.4,0.7c-0.7,1.2-0.7,1.3,0.7,2.7
					c-1.7,0.8-3.8,0.6-5.9,0.4c-4-0.4-8.1-0.9-12.4-1.6c-0.4-0.1-0.9,0-1.4-0.5c1.9-0.5,3.8-0.4,5.7,0.2c2.3,0.7,4.5,1,6.6,0.9
					c2.1-0.1,3.4-1,3.9-3c1.3-4.5,1.1-10.1-1-17.3c-1.5-5.2-4.6-12.3-4.2-15.3c0.3-2.2,0.9-4,1.8-5.7c0.6-1.1,1.2-2.2,1.8-3.2
					c0.8,0.5,1.2,0.8,1.9,1.3c-0.1,0.2-0.2,0.5-0.3,0.7c-0.4,0.6-0.3,1.3,0.2,2.3c0.6,1.1,0.6,1.9-0.1,2.3c-0.7,0.5-0.9,1.3,0.3,3
					c0.7,1,0.6,1.7,0.3,2.2c-0.3,0.8-0.1,1.3,1.2,2C808.2,132.2,811.6,134.1,815,135.2z"/>
				<path class="st46" d="M811.6,121.5c0.4,0.5,1.5,0.7,1.4,1.4c-0.3,1.3-0.8,1.2-2.4-0.2c-0.2-0.2-0.4-0.4-0.6-0.5
					c0.3-0.3,0.6-0.5,0.9-0.8C811,121.1,811.3,121.1,811.6,121.5z"/>
				<path class="st39" d="M817.2,149c0,0.1,0,0.2,0,0.3c0,0.1-0.1,0.2-0.2,0.2c0,0,0,0-0.1,0c0,0-0.1,0-0.1,0
					c-0.3-0.1-0.5-0.4-0.6-0.8c-0.1-0.4,0-0.6,0.3-0.5c0.2,0.1,0.4,0.2,0.5,0.4C817,148.7,817.1,148.8,817.2,149z"/>
				<path class="st39" d="M816.9,149.4C817,149.4,817,149.4,816.9,149.4C817,149.4,817,149.4,816.9,149.4z"/>
				<path class="st39" d="M817.1,156.4c0.1,0.6-0.2,0.7-0.5,0.6c-0.5-0.2-0.8-0.5-0.9-1c-0.1-0.5,0-0.9,0.5-0.7
					C816.6,155.5,817,155.9,817.1,156.4z"/>
				<path class="st39" d="M808.6,127.8c0.7,0.3,1.2,0.8,1.3,1.4c0.1,0.5-0.2,0.8-0.8,0.5c-0.7-0.3-1.2-0.9-1.3-1.6
					C807.6,127.6,808,127.5,808.6,127.8z"/>
				<path class="st39" d="M813.4,157.3c0.3,0.2,0.4,0.5,0.5,0.8c0,0.3-0.1,0.5-0.4,0.3c-0.3-0.1-0.5-0.4-0.5-0.8
					C812.9,157.3,813,157.1,813.4,157.3z"/>
				<path class="st40" d="M802.1,102.1c0.4,3.4,0.5,6.9-1.4,9.8c-0.4-0.2-0.7-0.4-1.1-0.6c-1.7-1-1.8-1-2,0
					c-0.1,0.7-0.6,1.2-1.1,1.6c-0.5,0.4-1.8,0.3-1.2,1.2c0.5,0.7,2,1.5,3,2.3c-0.4,1.2-0.9,2.3-1.7,3.1c-0.9-0.8-1.8-1.5-2.6-2.3
					c-0.7-0.6-0.8-0.5-0.8-0.1c0,0.8-0.1,1.7-0.1,2.6c0,0.7-0.9,0.8-0.2,1.7c0.6,0.8,1.8,1.4,2.7,2.1c0,1.6,0.5,3.8,1.4,6.6
					c0,0.1-0.1,0.1-0.2,0.1c-0.2-0.6-0.5-1.3-1.1-1.7c-0.3-0.2-0.4-0.1-0.3,0.4c0.3,0.8,0.7,1.1,1.1,1.4c-0.2,0.7-0.5,1.4-1,1.8
					c-1.1-2.6-1.9-4.8-2.8-7.2c-1.8-4.6-1.2-5.5-1.5-7.9c-0.1-0.6-0.5-1.3-1.1-2c-0.7-0.7-1-1.3-0.6-1.6c0.3-0.2,0.1-0.8-0.3-1.4
					c-0.5-0.6-0.4-0.8,0-0.9c0.7-0.1,0.7-0.6,0-1.4c-0.5-0.6-0.6-1,0-1c0.8,0,0.9-0.5,0.7-1.1c-0.3-0.9,0.1-1.4,1.5-1.2
					c0.6,0.1,0.8-0.2,0.9-0.5c0.4-1.3,1.7-1.9,4.3-1.7c2.1,0.1,3-0.7,3.5-1.6c0.2-0.3,0.4-0.6,0.9-0.8c0.2-0.1,0.3-0.2,0.7,0
					C802.1,101.8,802.1,101.9,802.1,102.1z M800,107.5c0.5-0.1,0-0.4-0.4-0.6c-0.1-0.1-0.3-0.2-0.4-0.3c-0.5-0.2-0.9-0.7-1.4-0.5
					s0.2,0.6,0.6,0.9c0.1,0.1,0.3,0.2,0.4,0.3C799.5,107.9,799.7,107.6,800,107.5z M797.3,110.2c0-0.2-0.3-0.4-0.6-0.6
					c-0.3-0.1-0.5-0.1-0.5,0.1c0,0.2,0.1,0.4,0.5,0.6C797.1,110.5,797.3,110.5,797.3,110.2z M796.1,116.9c0-0.3-0.3-0.6-0.7-0.8
					c-0.4-0.1-0.6-0.1-0.6,0.1c0,0.3,0.3,0.6,0.7,0.8C795.9,117.2,796.1,117.2,796.1,116.9z M793.6,108.7c0-0.4-0.8-0.9-1.3-1.1
					c-0.7-0.4-0.3,0.2-0.4,0.4c0,0,0,0,0,0c-0.2,0.1-0.9,0.1,0.1,0.7c0.4,0.2,0.8,0.7,1,0.7C793.4,109.3,793.6,109,793.6,108.7z
					 M794.2,114.6c0-0.2-0.2-0.4-0.5-0.6c-0.4-0.2-0.6-0.3-0.6,0c0,0.2,0.2,0.5,0.6,0.7C794,114.9,794.2,114.8,794.2,114.6z
					 M794.5,126.3c-0.3-0.6-0.6-1.1-1-1.3c-0.4-0.3-0.4,0-0.2,0.7c0.2,0.5,0.6,1,1,1.3C794.8,127.3,794.7,126.9,794.5,126.3z"/>
				<path class="st43" d="M801.6,100.1c0.2,0.5,0.3,0.8-0.8,0.9c-1,0-1.4,0.6-1.8,1.1c-0.6,0.9-1.6,1.4-3.7,1.2
					c-2.2-0.2-3.6,0.3-4,1.3c-0.2,0.5-0.5,0.8-1.4,0.8c-0.9,0-1.4,0.3-1.2,1.1c0.2,0.7,0.2,1.3-0.8,1.3c-0.3,0-0.4,0.1-0.5,0.3
					c-0.5-0.3-0.7-0.4-1.2-0.6c0.2-1.3,0.7-2.4,1.5-3.4c0.8-0.9,2.1-1.6,3.3-2.3c2-1.2,4.2-2.5,6.2-3.9c0.9-0.7,1.6-1.4,2.5-2.1
					c0.7,1.1,1.3,2.3,1.6,3.5C801.4,99.4,801.4,99.8,801.6,100.1z"/>
				<path class="st39" d="M812.1,154.1c0,0.6-0.1,0.8-0.7,0.6c-0.4-0.2-0.7-0.6-0.8-1.2c-0.1-0.6,0.1-0.9,0.6-0.7
					C811.6,153,811.9,153.5,812.1,154.1z"/>
				<path class="st47" d="M812.8,159.8c-0.4,0.1-0.8,0.3-1.2,0.4c-0.3,0.1-0.5,0.2-0.8,0.2c-0.4,0.1-0.8,0.2-1.3,0.2
					c-0.8-1-1.5-2.1-2.5-2.9c0,0,0-0.1,0-0.1c-0.9-2.2-0.9-2.2,0.2-3.1C809.1,156.3,811.1,157.8,812.8,159.8z"/>
				<path class="st45" d="M800.8,111.8c-0.1,0.3-0.2,0.7-0.5,0.9c-0.6-0.5-1-0.6-1.2-0.2c-0.2,0.5-0.5,1-0.7,1.5
					c-0.2,0.4,0.2,0.7,0.8,0.9c-0.1,0.5-0.4,1-0.8,1.3c-1.1-0.7-2.6-1.5-3-2.3c-0.5-0.9,0.8-0.8,1.2-1.2c0.5-0.4,1-0.9,1.1-1.6
					c0.2-1,0.3-0.9,2,0C800.1,111.4,800.4,111.6,800.8,111.8z"/>
				<path class="st45" d="M799.6,106.9c0.4,0.3,0.9,0.5,0.4,0.6c-0.3,0.1-0.5,0.4-1.2-0.2c-0.1-0.1-0.3-0.2-0.4-0.3
					c-0.4-0.3-1.1-0.6-0.6-0.9s0.9,0.2,1.4,0.5c-0.3,0-0.7-0.1-0.5,0.3c0.1,0.1,0.3,0.3,0.5,0.3
					C799.7,107.3,799.7,107.1,799.6,106.9z"/>
				<path class="st46" d="M799.6,106.9c0.1,0.2,0.1,0.4-0.4,0.3c-0.2,0-0.4-0.2-0.5-0.3c-0.2-0.4,0.2-0.3,0.5-0.3
					C799.3,106.7,799.5,106.8,799.6,106.9z"/>
				<path class="st46" d="M799.1,112.5c0.2-0.4,0.6-0.2,1.2,0.2c-0.1,0.9-0.6,1.6-1.1,2.2c-0.6-0.3-1-0.5-0.8-0.9
					C798.6,113.5,798.9,113,799.1,112.5z"/>
				<path class="st46" d="M809.6,160.6c-0.2,0.1-0.3,0.2-0.5,0.2c-0.1,0-0.2,0.1-0.3,0.1c-0.2,0-0.4,0.1-0.6,0
					c-0.4,0-0.9-0.2-1.4-0.5c-0.4-0.3-0.6-0.5-0.3-0.9c0.4-0.5,0.5-1.1,0.6-1.9C808.1,158.5,808.8,159.6,809.6,160.6z"/>
				<path class="st39" d="M796.7,109.6c0.4,0.2,0.6,0.4,0.6,0.6c0,0.2-0.2,0.2-0.6,0.1c-0.4-0.2-0.5-0.4-0.5-0.6
					C796.2,109.5,796.4,109.5,796.7,109.6z"/>
				<path class="st39" d="M795.4,116.1c0.4,0.2,0.7,0.5,0.7,0.8c0,0.3-0.2,0.3-0.6,0.1c-0.4-0.2-0.7-0.5-0.7-0.8
					C794.8,115.9,795,115.9,795.4,116.1z"/>
				<path class="st45" d="M796.6,119.3c0,0.2,0,0.4,0,0.6c0,0.1-0.1,0.2-0.2,0.2c-1.6-1.1-1.6-1.1-1.7,0c0,0.1,0,0.3-0.1,0.4
					c-0.3,0.6,0.2,1.2,1.2,1.8c0,0.4,0,0.9-0.2,1.2c-0.9-0.7-2.1-1.3-2.7-2.1c-0.7-0.9,0.2-1.1,0.2-1.7c0-0.9,0-1.8,0.1-2.6
					c0-0.4,0.2-0.5,0.8,0.1C794.9,117.9,795.8,118.6,796.6,119.3z"/>
				<path class="st46" d="M796.4,120.2c0,0.1,0,0.2,0,0.3c0,0.7-0.2,1.3-0.6,1.8c-1-0.6-1.5-1.2-1.2-1.8c0.1-0.1,0.1-0.2,0.1-0.4
					C794.8,119,794.8,119,796.4,120.2z"/>
				<path class="st45" d="M791.9,108C791.9,107.9,791.9,107.9,791.9,108c0.1-0.2-0.4-0.7,0.4-0.4c0.5,0.3,1.3,0.7,1.3,1.1
					c0,0.3-0.2,0.6-0.5,0.6c-0.2,0.1-0.7-0.4-1-0.7C791,108.1,791.7,108.1,791.9,108z M791.9,107.9c0,0.1,0,0.2,0.1,0.3
					c0.1,0.3,0.4,0.5,0.8,0.6c0.2,0.1,0.3,0,0.3-0.2c-0.1-0.3-0.4-0.5-0.8-0.6C792.2,108,792,108,791.9,107.9z"/>
				<path class="st39" d="M793.6,114c0.3,0.2,0.5,0.4,0.5,0.6c0,0.2-0.2,0.3-0.5,0.1c-0.4-0.2-0.6-0.5-0.6-0.7
					C793,113.7,793.3,113.8,793.6,114z"/>
				<path class="st46" d="M793.1,108.6c0.1,0.2,0,0.3-0.3,0.2c-0.4-0.1-0.7-0.3-0.8-0.6c-0.1-0.1-0.1-0.2-0.1-0.3
					c0.1,0,0.3,0,0.4,0.1C792.7,108.1,793,108.3,793.1,108.6z"/>
				<path class="st39" d="M795.7,128.4c0.6,0.4,0.9,1,1.1,1.7c-0.1,0.1-0.2,0.1-0.3,0.2c-0.4-0.3-0.8-0.6-1.1-1.4
					C795.3,128.3,795.4,128.2,795.7,128.4z"/>
				<path class="st43" d="M798,133.1c0.4,0.9,0.7,1.8,0.9,2.4c0.5,1.8,1.3,3.8,1.5,5.4c-0.2-0.1-0.4-0.1-0.6-0.1
					c-1.4,0.2-1.8,1.6-1.3,4.1c0.2,1,0,1.4-0.7,1.2c-1.1-0.3-1.5,0.4-1.3,2c0.1,0.7,0.2,1.7-0.6,1.4c-1.2-0.4-1.7,0.2-2,1.3
					c-0.4,1.2-1.2,1.5-2.5,0.7c-2.6-1.5-5.1-3-7.7-4c-0.1-0.7-0.5-0.9-1-1.1c-0.8-0.4-1.7-0.7-2.6-1.2c2,0.2,3.9,0.2,6,0.7
					c2.3,0.6,4.8,1.6,6.7,1.1c0.7-0.2,1.2-0.7,1.2-1.8c0.1-1.8-0.1-3.7-0.1-5.6c0-0.3-0.1-0.8-0.3-1.2c-0.3-1-0.8-1.5-1.1-1.2
					c-0.3,0.2-0.4,0.5-1,0.4c-0.2-1.7-0.5-3.3-0.9-4.9c-1.4-6.2-3.5-12.8-3.7-16.3c-0.1-1.6-0.5-3.4-0.7-5c-0.2-1.6-0.2-2.9,0-4.1
					c0.5,0.3,0.7,0.4,1.2,0.6c-0.1,0.2,0.1,0.5,0.4,0.9c0.5,0.7,0.7,1.2-0.1,1.2c-0.5,0-0.4,0.5,0.1,1.1c0.6,0.7,0.8,1.2,0.3,1.5
					c-0.4,0.2-0.1,0.7,0.4,1.3c1.8,2,1.6,3.4,2,5c0.6,2.9,1.8,7.1,3.7,12.2c0.3,0.8,0.5,1.7,1.3,2.6c0.8,0.9,1.2,0.7,1.6,0.5
					C797.4,134,797.6,133.6,798,133.1z"/>
				<path class="st41" d="M799.9,140.8c0.2,0,0.4,0,0.6,0.1c1.4,4.6,1.6,8.3,1.4,11.6c-0.1,1.3-0.3,2.5-0.4,3.7
					c-0.2,2.3-1.5,3.2-3.6,3.1c-1.2-0.1-2.5,0-3.9-0.5c0.2-0.4,0.5-0.4,0.8-0.5c1.9-0.7,3.7-1.5,4.7-3.3c0.2-0.5,0.5-1,0-1.8
					c-0.5-0.7-1-0.3-1.4-0.1c-2.4,1.5-5.3,2.3-8.5,3c-0.8,0.2-1.6,0.5-2,1.3c-0.1,0.3-0.3,0.4-0.6,0.5c-0.9,0.3-1.9,0.2-2.9,0.6
					c0.5-0.7,0.8-1.3,0.8-2.2c0-1.5-0.3-3-1.5-4.5c-1.2-1.6-1.2-1.8-0.3-3c0.3-0.4,0.5-0.8,0.5-1.4c2.6,1.1,5.1,2.5,7.7,4
					c1.3,0.7,2.1,0.4,2.5-0.7c0.3-1,0.8-1.7,2-1.3c0.8,0.3,0.7-0.7,0.6-1.4c-0.2-1.6,0.2-2.3,1.3-2c0.7,0.2,0.9-0.3,0.7-1.2
					C798.1,142.4,798.5,141,799.9,140.8z"/>
				<path class="st39" d="M793.5,125c0.4,0.2,0.7,0.7,1,1.3c0.2,0.6,0.3,0.9-0.2,0.6c-0.4-0.3-0.7-0.7-1-1.3
					C793.1,125.1,793.1,124.7,793.5,125z"/>
				<path class="st42" d="M798.3,154.7C798.3,154.7,798.3,154.7,798.3,154.7C798.3,154.7,798.3,154.7,798.3,154.7
					C798.3,154.6,798.3,154.7,798.3,154.7z"/>
				<path class="st42" d="M798.3,154.7C798.2,154.7,798.2,154.7,798.3,154.7C798.2,154.7,798.2,154.7,798.3,154.7
					C798.2,154.7,798.2,154.7,798.3,154.7z"/>
				<path class="st42" d="M798.2,154.7C798.2,154.7,798.2,154.7,798.2,154.7C798.2,154.7,798.2,154.7,798.2,154.7
					C798.2,154.7,798.2,154.7,798.2,154.7z"/>
				<path class="st42" d="M798.2,154.7c0,0.1,0,0.2-0.2,0.2c0,0,0,0,0-0.1C798.1,154.7,798.1,154.7,798.2,154.7z"/>
				<path class="st42" d="M798,154.8C798,154.9,798.1,154.9,798,154.8c-0.3,0.8-1,1.1-1.6,1.4c-0.9,0.5-2,0.9-2.9,1.5
					c-1.2,0.8-2.7,0.3-4.2,0c0.8-0.6,1.9-0.7,2.9-0.9c1.9-0.4,3.5-1.2,5.1-1.8C797.5,155,797.7,154.7,798,154.8z"/>
				<path class="st42" d="M792.9,139.2c0.9,5.5-0.4,6.8-3,5.7c0.4-0.9,0.8-1.8,1.1-2.7c0.2-0.5,0.4-1,0.4-1.7
					C791.6,139.5,791.9,138.8,792.9,139.2z"/>
				<path class="st42" d="M792.5,162.2c-1.6,0.8-3.3,1-5.2,1c-0.4,0-2-1-2-1.4c0-0.3,0-0.7,0.5-0.6
					C788,161.3,790.1,161.8,792.5,162.2z M787.7,162.5c0.1-0.2,0.1-0.4-0.2-0.6c-0.3-0.2-0.6-0.2-0.7,0.1c-0.1,0.2-0.1,0.4,0.2,0.6
					C787.3,162.8,787.5,162.7,787.7,162.5z"/>
				<path class="st39" d="M787.5,161.9c0.3,0.2,0.3,0.4,0.2,0.6c-0.2,0.2-0.4,0.3-0.7,0.1c-0.3-0.2-0.3-0.4-0.2-0.6
					C787,161.8,787.2,161.8,787.5,161.9z"/>
				<path class="st41" d="M783.3,160c0.7,0.3,1.1,0.6,0.6,1.1c-0.3,0.4,0,0.8,0,1.2c-0.9,0-1.5-0.5-2.3-0.8
					C781.7,160.7,782.5,160.4,783.3,160z"/>
				<path class="st38" d="M783.1,159c0.1,0.4,0.2,0.7,0.2,1c-0.8,0.3-1.6,0.7-1.6,1.5c-0.7-0.3-1.4-0.6-2.2-0.9
					C780.6,159.9,782,159.7,783.1,159z"/>
				<path class="st42" d="M783.1,156.5c-0.2,0.9-1.1,1.2-1.8,1.6c-0.7,0.4-1.7,0.8-2.4,0.8c-1.8,0-3.7,0.3-5.6,0.2
					c1.8-1.1,3.5-2.1,5.9-2c-0.1,0.4,0,0.7,0.5,0.7c0.5,0,0.7-0.3,0.4-0.8C781.1,156.8,782.2,157,783.1,156.5z"/>
				<path class="st42" d="M777.4,161.3c0.6-0.1,1.4,0.7,2.3,1c-2,0.2-4.1,0.5-6.3,0.3C774.6,162,776,161.5,777.4,161.3z"/>
				<path class="st42" d="M780.3,146.5c0.7,0.3,1.5,0.6,2.4,1c-0.1,0.3-0.2,0.5-0.3,0.7c-0.3,0.3-0.4,1.2-0.8,0.9
					c-0.7-0.5-1.2-1.4-1.5-2.3C779.8,146.3,780.2,146.4,780.3,146.5z"/>
				<path class="st39" d="M780.1,157.1c0.2,0.4,0.1,0.8-0.4,0.8c-0.5,0-0.6-0.4-0.5-0.7C779.5,157.1,779.8,157.1,780.1,157.1z"/>
				<path class="st38" d="M770.2,163.5c0.8-0.2,1.5-0.2,2.4,0.2c-6.9,1.5-14.1,3-22.1,4.1c-6.1,0.9-12.3,1.9-18.5,3
					c-6.9,1.2-13.6,2.8-20.1,4.5c-0.5,0.2-1.1,0.4-1.8,0.4c0.1-0.4,0.6-0.5,1-0.6c6.5-2.2,13.4-3.9,20.6-5.2
					c6.5-1.2,13.5-1.9,19.8-2.9C758.1,165.9,764.8,165.2,770.2,163.5z"/>
				<path class="st42" d="M773.3,159.1C773.3,159.1,773.3,159.1,773.3,159.1C773.2,159.1,773.2,159.1,773.3,159.1
					C773.3,159.1,773.3,159.1,773.3,159.1z"/>
				<path class="st42" d="M773.2,159.1C773.2,159.1,773.2,159.1,773.2,159.1C773.2,159.1,773.2,159.1,773.2,159.1
					C773.2,159.1,773.2,159.1,773.2,159.1z"/>
				<path class="st38" d="M709.6,175.9c0.1,0.3-0.3,0.2-0.5,0.2c0-0.1,0.1-0.1,0.1-0.2c0,0,0.1,0,0.1,0
					C709.4,175.8,709.6,175.8,709.6,175.9z"/>
				<path class="st41" d="M709.2,175.9c0,0.1-0.1,0.1-0.1,0.2c-0.4,0.3-0.9,0.4-1.8,0.6c0.3-0.2,0.6-0.4,0.9-0.5
					c0.1,0,0.2-0.1,0.2-0.1C708.7,176,708.9,176,709.2,175.9C709.2,175.9,709.2,175.9,709.2,175.9z"/>
			</g>
		</g>
	</g>
</g>
</svg>
