<?xml version="1.0" encoding="utf-8"?>
<!-- Generator: Adobe Illustrator 23.0.4, SVG Export Plug-In . SVG Version: 6.00 Build 0)  -->
<svg version="1.1" id="Capa_1" xmlns="http://www.w3.org/2000/svg" xmlns:xlink="http://www.w3.org/1999/xlink" x="0px" y="0px"
	 viewBox="0 0 1069 373.9" style="enable-background:new 0 0 1069 373.9;" xml:space="preserve">
<style type="text/css">
	.st0{clip-path:url(#SVGID_2_);}
	.st1{clip-path:url(#SVGID_4_);}
	.st2{fill:#214477;}
	.st3{fill:#D7F4DD;}
	.st4{fill:#04B3AD;}
	.st5{fill:#04B1AC;}
	.st6{fill:#05B3AD;}
	.st7{fill:#F38383;}
	.st8{fill:#D6F4DD;}
	.st9{fill:#EE8283;}
	.st10{fill:#D5F3DC;}
	.st11{fill:#EF8283;}
	.st12{fill:#F18283;}
	.st13{fill:#06B1AC;}
	.st14{fill:#07B3AE;}
	.st15{fill:#F28384;}
	.st16{fill:#CEEBD8;}
	.st17{clip-path:url(#SVGID_6_);}
	.st18{clip-path:url(#SVGID_8_);}
	.st19{clip-path:url(#SVGID_10_);}
	.st20{clip-path:url(#SVGID_12_);}
	.st21{clip-path:url(#SVGID_14_);}
	.st22{clip-path:url(#SVGID_16_);}
	.st23{fill:#204478;}
	.st24{fill:#264376;}
	.st25{fill:#374B78;}
	.st26{fill:#F28283;}
	.st27{fill:#CCE8D6;}
	.st28{fill:#D9F1DA;}
	.st29{fill:#06A9D7;}
	.st30{fill:#07ACD9;}
	.st31{fill:#0BA9D6;}
	.st32{fill:#2665AC;}
	.st33{fill:#CDECD9;}
	.st34{fill:#B9DCD0;}
	.st35{fill:#08A6D4;}
	.st36{fill:#0AA0CF;}
	.st37{fill:#1D4578;}
	.st38{fill:#04ADAA;}
	.st39{fill:#DDE7D2;}
	.st40{fill:#F08384;}
	.st41{fill:#0483C3;}
	.st42{fill:#E88385;}
	.st43{fill:#04B0AC;}
	.st44{fill:#F48383;}
	.st45{fill:#0CAFDC;}
	.st46{fill:#D3F2DC;}
	.st47{fill:#08B0DD;}
	.st48{fill:#03B2AD;}
	.st49{fill:#0483C4;}
	.st50{fill:#03B1AC;}
	.st51{clip-path:url(#SVGID_18_);}
	.st52{clip-path:url(#SVGID_20_);}
	.st53{fill:#214578;}
	.st54{fill:#D0EED9;}
	.st55{fill:#C6E4D4;}
	.st56{fill:#EE8183;}
	.st57{fill:#0A84C2;}
	.st58{fill:#05B0AC;}
	.st59{fill:#E98083;}
	.st60{fill:#06ABA9;}
	.st61{fill:#CCE9D7;}
	.st62{fill:#09ABD8;}
	.st63{fill:#E37E82;}
	.st64{fill:#09A5A6;}
	.st65{fill:#BFDACE;}
	.st66{fill:#D87A81;}
	.st67{fill:#AECBC5;}
	.st68{fill:#F05A5E;}
	.st69{clip-path:url(#SVGID_22_);}
	.st70{clip-path:url(#SVGID_26_);}
	.st71{clip-path:url(#SVGID_30_);}
	.st72{clip-path:url(#SVGID_34_);}
	.st73{fill:none;stroke:#000000;stroke-miterlimit:10;}
</style>
<g>
	<defs>
		<rect id="SVGID_9_" x="23" y="170" width="257" height="171"/>
	</defs>
	<clipPath id="SVGID_2_">
		<use xlink:href="#SVGID_9_"  style="overflow:visible;"/>
	</clipPath>
	<g class="st0">
		<defs>
			<rect id="SVGID_11_" x="22.9" y="170" width="257.1" height="171"/>
		</defs>
		<clipPath id="SVGID_4_">
			<use xlink:href="#SVGID_11_"  style="overflow:visible;"/>
		</clipPath>
		<g class="st1">
			<path class="st2" d="M140.9,320.6c1.6,2.1,3.1,4.1,4.8,6c2.9,3.5,5.8,6.9,8.4,10.6c0.3,0.5,0.7,0.9,1.1,1.3
				c0.4,0.6,0.7,1.2,0.3,1.9c-0.4,0.7-1.1,0.7-1.8,0.6c-1.8-0.4-3.7-0.8-5.5-1.5c-6.1-2.2-12.2-4-18.1-6.6c-3.4-1.5-6.6-3.4-9.6-5.5
				c-1.4-1-2.5-2.4-3.7-3.7c-0.5-0.5-0.8-0.7-1.5-0.3c-1.3,0.6-2.8,0.8-4.2,1.1c-5.6,0.9-11.3,0.6-17,0.5c-8.2,0-16.3-1-24.4-1.7
				c-2.8-0.3-5.5-1.1-8.2-1.6c-0.9-0.2-1.7-0.5-2.4-1.1c-2.4-1.9-4.6-4-6.3-6.5c-0.4-0.6-0.7-1.2-0.2-1.9c0.5-0.7,1.2-0.6,1.9-0.5
				c1.2,0.2,2.4,0.3,3.6,0.5c0.5,0.1,0.7-0.1,0.9-0.5c0.5-0.9,1.3-1.1,2.3-1.1c1.5,0,3,0,4.6-0.2c-1.1-0.6-2.1-1.3-3.2-1.7
				c-1.7-0.6-3.3-1.4-5.1-1.7c-0.3,0-0.7-0.2-0.9,0.2c-0.8,1.6-2.1,1.3-3.4,0.9c-0.8-0.3-1.6-0.9-1.9,0.7c-0.1,0.9-1.3,1-2.4,0.4
				c-0.9-0.5-1.9-0.9-3-1.2c-0.6-0.2-0.9-0.4-1.3,0.4c-0.4,0.9-1.3,0.8-2,0.2c-4.4-3.9-9.6-6.7-14.5-9.8c-1.2-0.8-2.3-1.8-3.7-2.2
				c-1-0.2-1-1.2-0.5-2.1c0.5-0.9,1.3-1.5,2.2-1.9c5.4-2.9,10.8-5.6,16.3-8.3c2-1,4.1-1.9,6.1-2.8c5.3-2.6,10.9-3.4,16.7-4.1
				c6.1-0.7,12.2-1.4,18.3-2.1c8.2-1,16.3-2.5,24.4-4.2c6.5-1.4,13-2.7,19.6-4c2.8-0.6,4.7-2.2,6.2-4.6c2.4-3.8,4.3-7.9,7-11.6
				c2.7-3.7,5.6-7.2,9.5-9.7c3.5-2.3,7.1-4.3,11.3-5.3c1.7-0.4,2.6,0.7,1.9,2.2c-2.5,5.3-1.9,10.6-0.7,16c0.2,0.7,0.3,1.4,0.4,2.1
				c0.4,1.6,0.8,2,2.5,2c2.7,0,5.2-0.8,7.7-1.4c5-1.2,10-2.6,14.9-4.4c2.1-0.8,4.3-1.5,6.4-2.2c3-1,4.6-3.3,6.1-5.8
				c0.9-1.6,1.7-3.2,2.4-4.8c0.2-0.4,0.3-0.8,0.5-1.2c0.4-0.8,1-1.6,2.1-1.5c1.1,0.1,1.4,1,1.6,1.8c0.4,1.5,0.7,3.1,1,4.7
				c1.6-1.4,3.2-2.6,4.6-4.1c2.7-2.9,5.4-5.8,7.6-9.1c1.6-2.5,2.2-5.4,2-8.3c-0.2-4.4-0.8-8.7-1.3-13.1c-0.9-7.2-1.2-14.4-0.3-21.7
				c0.6-4.7,1.3-9.3,3-13.8c0.4-1,0.6-2.3,2-2.4c1.4-0.1,1.7,1.2,2.2,2.1c1.1,2.2,2.1,4.3,2.7,6.7c1.2,4.7,3.1,9.3,4.4,14
				c0.9,3.2,1.3,6.6,2.5,9.7c0.7,1.9,1.6,3.8,2.3,5.7c0.3,0.6,0.8,1,1.3,1.4c2,1.6,4.1,2.9,6.5,3.7c2.4,0.8,4.7,2.2,7.3,2.4
				c6.7,0.5,13.2,2.3,19.9,2.3c1.3,0,2.6,0.3,4,0.4c0.7,0.1,1.2,0.4,1.3,1.1c0.2,0.7-0.2,1.2-0.8,1.5c-4.5,2.3-8.3,5.7-12.5,8.4
				c-3.4,2.2-7.1,3.5-11.2,3.9c-2.6,0.2-5,1-7.6,1.1c-1.1,0-2.1,0.2-3.2,0.1c-2.2,0-4,0.9-5.3,2.6c-2.5,3.4-5,6.7-7.3,10.3
				c-1,1.6-2,3.2-2.9,4.9c-0.8,1.5-0.8,3-0.3,4.6c0.7,2,1.3,4.1,1.8,6.2c0.4,1.6-0.2,2.6-1.8,2.3c-2.1-0.3-4.2-0.1-6.3-0.4
				c-0.7-0.1-1.3,0-1.7,0.6c-0.9,1.1-1.8,2.2-2.6,3.4c-2,2.9-3.6,6-5.6,8.9c-1.4,2-2.7,4-4.1,5.9c-0.7,1-1.1,2-1,3.2
				c0.1,2.5,0.1,5.1,0.2,7.6c0.1,2-0.7,2.6-2.6,2.1c-2-0.6-4.1-0.4-6.1-0.8c-0.3-0.1-0.6,0-0.9-0.1c-2.3-1.2-4.2-0.3-6.1,1.2
				c-2.7,2.1-5.3,4.3-8.2,6.1c-3.4,2.2-6.7,4.6-10.5,6.3c-3.6,1.6-7.1,3.7-10.9,5c-4.5,1.5-8.7,3.6-13.4,4.4
				C146.5,320,143.8,320.2,140.9,320.6z M219.6,263.5L219.6,263.5c0.4,0.1,0.5-0.2,0.5-0.5l0,0c0.2-0.1,0.3-0.3,0.3-0.5
				c0.4-1.4,1.3-2.6,1.3-4.2c0.9-1.3,1.9-2.4,3.3-3.2c0.6-0.4,1.1-1,1.4-1.7c2.5-5.8,6.2-10.8,10.1-15.6c2-2.5,1.7-4.8,1.5-7.6
				c-0.6,0.2-0.7,0.7-0.9,1.1c-1.8,2.6-2.4,5.9-4.5,8.4c-0.9,1.1-1.7,1.7-3.1,1.9c-1,0.1-2.1,0.1-2.8,0.8c-1,1-2.1,2.1-2.8,3.3
				c-2.3,4-6.1,6.6-8.7,10.3c-1.2,1.7-2.7,3.1-4,4.7c-0.8,1-1.5,2.1-2.2,3.2c-0.8,1.5-2.3,1.9-3.2,1.2c-1.2-1.1-2.7-0.9-4,0.1
				c-2.4,1.9-4.6,4.1-7.2,5.8c-0.5,0.3-1,0.6-1.5,0.1c-0.9-1-1.6-0.6-2.4,0.1c-1.2,1.1-2.5,1.9-3.9,2.7c-1.6,0.8-3.1,1.6-4.6,2.5
				c-3.7,2.4-7.6,4.2-11.6,5.8c-1.4,0.6-2.9,1.1-4.6,0.9c-3.3-0.4-6.5-0.7-9.7,1.2c-2.2,1.4-5,1.9-7.7,0.6c-1.6-0.8-3.4-0.5-4.9,0.5
				c-1,0.6-2,1-3.1,1.2c-5.1,1.1-10.4,1.6-15.2,3.6c-3.5,1.5-7.1,2.1-10.9,1.3c-1.3-0.3-2.7-0.3-4,0.6c-0.5,0.3-1.1,0.5-1.6,0.1
				c-1.5-1.2-2.9-0.6-4.5,0c-0.9,0.4-1.2,0.8-1.1,1.7c0.1,2.2,0.2,4.5,0.3,6.7c0,0.8,0.1,1.5,0.3,2.3c-0.2,2,0,4.1,0.4,6.1
				c0.3,1.7,0.4,3.5,1.3,5c0.2,0.4,0.3,1-0.1,1.3c-0.5,0.4-1-0.1-1.3-0.5c-0.3-0.3-0.5-0.7-0.8-1c-0.4-2.1-0.9-4.3-1.3-6.4
				c-0.8-4.6-0.6-9.2-0.8-13.8c0-0.8-0.1-1.3-1-1.1c-0.6-0.3-1.3-0.2-2-0.3c-1-0.2-1.4,0.2-1.3,1.3c0.2,2.7,0.1,5.4,0.6,8
				c0.1,2.8,0.7,5.5,1.1,8.2c0.3,1.6,0.7,3.2,1.1,4.7c0.1,0.3,0.2,0.9-0.1,1.1c-0.4,0.2-0.8-0.1-1.1-0.5c-0.4-0.5-0.7-1.1-1.1-1.7
				c0-0.1,0-0.3,0-0.4c-1.7-6.7-2.6-13.4-1.4-20.3c0.2-1.2-0.6-0.5-1-0.4c-0.8,0.5-1.9,0.9-1.9,2c0,1.9,0.1,3.8,0.2,5.7
				c0,0.5,0,1,0.3,1.5c0.4,3.8,1,7.5,2,11.1c0.2,0.6,0.8,1.5,0.1,1.9c-0.6,0.3-0.8-0.8-1.3-1.2c0-0.1,0-0.2-0.1-0.3
				c-2.4-5.6-3.1-11.5-2.5-17.5c0.1-1.4-0.4-1.6-1.5-1.5c-0.6-0.7-1.1-1-1.2,0.2c-0.2,2.5-0.7,4.9-0.3,7.4c0,0.9,0,1.8,0.1,2.7
				c0.5,3.1,0.6,6.2,1.8,9.2c0.2,0.5,0.6,1.3-0.4,1.5c0,0-0.1,0-0.1,0c-0.5-0.5-0.9-1-1.4-1.5c-0.4-0.8-0.9-1.5-1-2.4
				c-0.8-5.5-1.8-11,0.1-16.6c0.6-1.6,0.3-1.7-1.4-1.3c-1.1,0.2-2.1,0.1-3-0.6c-1.2-0.8-2.1-0.3-2.1,1.2c0,1.1,0.1,2.2,0.3,3.3
				c0.2,1.6,0.2,3.2,0.8,4.8c0.6,3.4,1.5,6.7,3.1,9.7c0.2,0.4,0.5,0.9,0.1,1.3c-0.4,0.4-0.8-0.1-1.1-0.3c-1.1-1.4-2-3-2.6-4.7
				c-1.5-4.3-1.8-8.8-1.5-13.3c0.1-1.2-0.2-1.6-1.3-1.3c-1.8-0.3-3.5-0.7-5.3-1c-0.7-0.1-1.3,0-1.9,0.4c-1.6,1.1-3.6,1.1-5.2,2.1
				c-0.5,0.3-1,0.4-1.6,0c-0.9-0.9-2-0.7-3.1-0.5c-4.5,0.7-8.6,2.6-12.9,4c-2.9,0.9-5.6,1.2-8.4-0.1c-2-0.9-3.4-0.5-4.8,1
				c-1.1,0.4-1.1,0.8-0.1,1.4c1.5,0.9,2.9,2,4.4,3c1,0.7,2.2,1.9,3,1.7c1.9-0.4,3.3,0.6,5,0.9c0.7,0.2,1.4,0.8,1.7-0.5
				c0.1-0.4,0.7-0.6,1.2-0.6c1-0.1,1.9,0.2,2.8,0.5c0.6,0.2,0.9,0.2,1.2-0.5c0.4-1,1.1-1.3,2.2-0.9c1.2,0.4,2.5,0.6,3.7,0.9
				c2.2,0.9,4.3,1.8,6.4,2.9c1.4,0.8,1.9,1.7,1.6,2.9c-0.3,1.1-2,2.3-3.2,2.1c-1.1-0.2-2.2-0.1-3.3-0.2c-0.7,0-1.2,0.1-1.5,0.9
				c-0.4,1-1.3,1.3-2.3,1c-0.6-0.1-1.1-0.5-1.8-0.3c0.7,1,1.6,1.7,2.4,2.4c0.6,0.9,1.4,1.5,2.4,1.8c0.3,0.5,0.8,0.4,1.2,0.5
				c4.8,1.4,9.8,1.7,14.7,2.2c9.2,0.9,18.5,1.4,27.7,1.1c2.9-0.1,5.8-0.4,8.6-1.2c0.8-0.2,1-0.4,0.3-1c-0.6-0.6-1.2-1.2-1.8-1.9
				c-0.4-0.9-0.8-1.7-1.5-2.4c-1.1-1.8-2-3.7-2.9-5.6c-1-2.4-1.9-4.8-2.8-7.2c0.5-0.4,1-0.4,1.3,0.2c0.4,0.8,1,1.3,1.6,2
				c2,2.2,4.1,4.3,6,6.6c1.5,1.7,3.1,3.3,4.7,4.8c2.1,2.4,4.1,4.9,6.7,6.7c3.2,2.2,6.4,4.4,9.6,6.5c4.6,3.1,9.5,5.7,14.9,7.2
				c0.4,0.1,0.9,0.4,1.4,0.2c0,0,0,0.1,0.1,0.1c0,0,0-0.1,0-0.1c0,0-0.1,0-0.1-0.1c-2.4-3.5-5.1-6.7-7.9-9.9
				c-1.3-1.9-2.8-3.8-4.4-5.5c-0.3-0.4-0.5-0.8-0.8-1.2c-1.4-1.8-2.7-3.7-3.8-5.8c-0.2-1.2,0.2-2.1,1.3-2.7c0.5-0.3,1-0.7,1.6-1.1
				c0.4-0.3,0.6-0.6,0.5-1.1c0.2-2.8,0.2-2.8-2-2.6c-3.2-0.4-6.4,0.2-9.6,0c-3.5-0.3-7-0.1-10.4-0.4c-0.8-0.1-1.5-0.2-2.4-0.4
				c0.8-0.6,1.3-0.1,1.9-0.2c7.3-0.5,14.6-0.7,21.8-1c0.8,0,1.6,0.1,2.3,0.6c1.1,1.6,0.6,3.5,0.8,5.2c-0.4,1.2-1.4,1.8-2.3,2.5
				c-0.3,0.3-0.9,0.5-0.5,1.1c0.7,1.1,1.4,2.2,2.1,3.2c0.2,0.2,0.4,0.5,0.7,0.2c0.7-0.7,1.6-0.6,2.5-0.7c2.7-0.3,5.4-0.6,8-1.1
				c1.8-0.4,3.4-1.4,5.2-1.9c3.2-0.9,6.3-2.1,9.3-3.4c2.6-1.1,4.9-2.7,7.5-3.7c3.6-1.4,6.7-3.9,9.9-5.9c3-1.9,5.7-4.2,8.5-6.2
				c2.5-1.8,4.8-3.9,6.8-6.2c2-2.3,4-4.3,7.1-5.1c0.8-0.2,1.5-0.7,2-1.4c1.2-1.8,2.4-3.6,3.7-5.3c2-2.6,3.4-5.5,5.2-8.3
				c0.8-1.3,2.1-2.3,2.5-3.8l0,0c0.6-0.4,1.1-0.8,1.3-1.6l0,0C219.6,263.9,219.7,263.7,219.6,263.5z M227.6,262.5
				c-0.2-1.8-1.1-3.3-1.4-5c-0.1-0.6-0.5-0.5-0.8-0.2c-1.1,0.8-1.6,1.9-1.7,3.3c-1.4,2.5-1.2,2.8,1.6,2.8c0.6,0,1.3,0,1.9,0
				C228.1,263.5,227.9,263,227.6,262.5z M205.4,245.4c-0.3-1.3,0-2.7-0.6-4.3c-1.3,3.1-3.1,5.5-4.6,8.1c-0.6,0.7-1.3,1.2-2.1,1.7
				c-3.6,2.2-7.7,3.1-11.6,4.5c-3.9,1.4-7.9,2.4-12,3.5c-2,0.5-4,1.2-6.1,1.5c-1.8,0.2-3.7,0.3-5.6,0c-1.7-0.9-2.3-2.5-2.7-4.3
				c-1.2-5.1-1.8-10.3-1-15.5l0,0c0.2,0,0.2-0.1,0.2-0.3c0.2-0.6,0.6-1.1,0.5-1.8c-2.3,0.8-4.3,2.1-6.3,3.2
				c-0.1,0.1-0.2,0.2-0.3,0.2l0,0c-0.8-0.1-1.3,0.5-1.8,0.9c-4.6,3.2-7.9,7.5-10.8,12.1c-1.8,2.9-3.4,6-5.1,8.9
				c-1.6,2.8-3.9,4.8-7.2,5.4c-6.6,1.3-13.2,2.8-19.9,4.1c-5.1,1-10.1,2.2-15.3,2.9c-4.4,0.6-8.7,1.2-13.1,1.7
				c-3.5,0.4-7,1-10.4,1.3c-4.9,0.4-9.8,1.1-14.6,2.3c-4.5,1.2-8.6,3.4-12.7,5.5c0,0,0,0.1,0,0.2c0.2,0,0.4-0.1,0.6-0.1
				c5.7-1.3,11.5-1.9,17.2-2.7c3.6-0.5,7.2-0.8,10.8-1.4c2.9-0.5,5.7-1.5,8.7-1.7c5.5-0.4,11-0.6,16.6-0.8c0.8,0,1.6-0.1,2.3-0.4
				c4.4-1.9,9.1-2.5,13.8-2.9c5-0.4,9.9-1,14.7-2c1.9-0.4,3.5-1.6,5.2-2c4.4-1,8.9-1.6,13.5-2c4.1-0.4,8.2-1.1,12.1-2.7
				c0.7-0.3,1.4-0.8,1.7-1.5c0.4-1.2,1.2-1.5,2.3-1.7c5.6-0.8,11.2-1.5,16.7-2.9c2.8-0.7,5.7-1.4,7.6-3.9c0.5-0.7,1.4-0.9,2.2-1.1
				c3.6-0.8,7.2-1.9,10.7-3.1c2.2-0.8,4.1-2,5.6-3.8c0.8-0.9,1.5-2,1.4-3.4C205.8,246.5,205.6,246,205.4,245.4z M223.5,182.7
				c-0.3,1.3-0.3,2.6-0.5,3.9c-0.9,6.3-0.7,12.5-0.1,18.8c0.2,3,0.6,6,1.3,8.9c0.2,2.8,0.4,5.6,0.5,8.4c0.1,0.9,0.1,1.7,0.2,2.6
				c0,0.5,0.3,0.6,0.7,0.5c1.6-0.4,3.2-0.6,4.4-1.8c3-3,5.4-6.5,8.6-9.4c0.9-0.8,1.3-1.5,0-2.3c-0.6-0.3-0.7-1.1-1-1.6
				c-0.6-0.9-0.7-2.1-1.5-3c-0.6-1.6-1.3-3.3-1.9-4.9c-0.1-0.6-0.2-1.2-0.4-1.7c-0.8-2.8-1.1-5.8-2.2-8.6c-0.4-2.2-1.4-4.3-2-6.4
				c-0.4-1.3-0.6-2.7-1.5-3.9c0.2-1-0.3-1.9-0.6-2.8c-0.4-1.6-1.1-3.2-2-5C224.7,177.3,223.7,179.9,223.5,182.7z M205.1,294
				c0-2.1,0-4.3,0-6.4c0-1.1-0.4-0.9-1.2-0.7c-1.9,0.8-3.1,2.2-4.1,3.9c-0.7,0.7-1.5,1.4-2.2,2.1c-0.6,0.6-0.6,0.8,0.3,1
				c2.2,0.6,4.5,0.6,6.7,0.9C205.4,294.9,205.1,294.3,205.1,294z M268.5,221.1c-0.8-0.3-1.6-0.3-2.4-0.4c-1.9-0.3-3.8-0.6-5.7-0.9
				c-2.4-0.6-5-0.3-7.4-0.9c-0.8-0.2-1.6-0.4-2.3-0.6c-2-1-4-1.8-6.1-2.4c-0.1,1.1-0.5,2.1-1.1,2.9c-3.4,4.4-3.9,9.4-3,14.9
				c0.9-0.5,1.8-0.6,2.7-0.7c0.9-0.1,1.9-0.2,2.8-0.3c2.5,0.2,5-0.3,7.4-0.9c2-0.3,4.1-0.2,6-1c1.6-0.5,3.2-1.1,4.7-2
				c0.9-0.2,1.5-0.9,2.3-1.4c2.7-1.8,5.2-3.8,7.9-5.9C272.2,221,270.3,221.3,268.5,221.1z M97.2,287.7c0.5,1.1-0.8,2.3,0.1,2.9
				c0.8,0.5,2,0.3,3,0.5c0.8,0.1,1.1-0.1,1.2-0.9c0.2-1.6,1.3-2.9,1.9-4.3c0.1-0.3,0.3-0.7,0.8-0.5c0.3,0.2,0.2,0.5,0.1,0.8
				c-0.4,0.8-0.4,1.7-1,2.5c-0.5,0.6-0.4,1.5,0,2.1c0.3,0.5,0.9-0.2,1.3-0.3c1.4-0.4,2.7-0.6,4,0.2c0.5,0.3,1,0.4,1.4,0
				c1.2-0.9,2.5-0.8,3.8-0.5c3.7,0.7,7.2,0.4,10.7-1.2c3.5-1.6,7.3-2.1,11.1-2.9c2.1-0.4,4.5-0.4,6.4-1.5c2.8-1.8,5.6-1.6,8.5-0.5
				c0.4,0.2,0.8,0.3,1.2,0.2c1.7-0.5,3.5-0.7,5-1.7c1.7-1.1,3.5-1.4,5.4-1.1c3.5,0.5,6.8,0.4,10-1.3c0.6-0.3,1.2-0.6,1.8-0.9
				c5.6-2.8,11.3-5.6,16.4-9.4c0.8-0.6,1.8-0.9,2.6-0.3c0.7,0.5,1.1,0.3,1.6-0.1c2.2-1.8,4.4-3.6,6.5-5.4c1.1-1,3.6-1.4,4.7-0.4
				c1.1,1,1.6,0.4,2.1-0.5c2.2-4.2,5.7-7.4,8.7-10.9c2.1-2.4,4.4-4.7,6.3-7.3c1.8-2.4,3.9-4.5,7.3-4.4c0.4,0,0.9-0.2,1.1-0.5
				c0.7-1.2,1.9-2.2,2.2-3.6c0.7-2.8,2.2-5.2,3.6-7.7c0.5-0.9,0.9-1.7,1-2.7c0.5-3.1,1.5-6,3.7-8.4c0.6-0.6,1-1.4,0.9-2.3
				c0-0.4-0.2-0.8-0.6-0.9c-0.4-0.2-0.5,0.3-0.7,0.5c-2.7,2.8-5.1,5.8-7.5,8.8c-1.8,2.2-3.9,4-6.8,4.4c-1.1,0.2-2,1-2.3,2
				c-0.5,1.8-0.9,3.7-1.5,5.6c-1.6,4.6-4.7,7.8-9.3,9.4c-1.9,0.7-3.8,1.3-5.6,2.3c-0.6,0.4-1.1,0.8-1.4,1.4
				c-1.2,3.2-3.7,5.1-6.7,6.4c-3.5,1.4-7.1,2.5-10.8,3.2c-1.2,0.3-2.3,0.7-3.1,1.7c-0.5,0.7-1.4,1.2-2.2,1.6
				c-3.9,2-8.2,2.5-12.4,3.4c-3.1,0.6-6.2,0.9-9.3,1.4c-0.7,0.1-1.5,0-1.8,0.9c-0.4,1.1-1.3,1.7-2.3,2.1c-3.8,1.7-7.9,2.3-12,2.9
				c-5.5,0.7-11.1,0.8-16.3,3.1c-3.1,1.4-6.5,1.7-9.8,2.3c-3.6,0.7-7.3,0.4-10.9,1c-3,0.5-6,0.9-8.9,1.9c-1.2,0.4-2.3,1.1-3.5,1.1
				c-4,0-8,0.8-12.1,0.6c-1.5,0-3,0-4.5,0.2c-5.7,0.8-11.3,2.3-17,2.8c-4.6,0.4-9.2,1.1-13.8,1.8c-5.3,0.7-10.3,2.5-15.4,4.2
				c-2.5,0.8-4.8,2.2-7.1,3.5c1.3,1.3,2.8,2,4.1,2.9c1.9,1.3,1.9,1.3,3.8,0c0.1-0.1,0.2-0.1,0.3-0.2c1.5-1.5,3.1-1.5,5-0.8
				c2.7,1.1,5.3,1.1,8.1,0.2c4.5-1.5,8.8-3.4,13.5-4.1c1.1-0.2,2-0.1,3,0.5c0.3,0.2,0.6,0.5,0.9,0.3c1.3-0.8,3-0.9,4.3-1.7
				c1.5-1,3.1-0.9,4.7-0.6c1.2,0.2,2.4,0.4,3.6,0.6c1.4,0.2,2.1-0.4,2.5-1.6c0.2-0.6,0.4-1.2,0.7-1.8c0.1-0.3,0.2-0.7,0.7-0.5
				c0.4,0.2,0.3,0.6,0.2,0.9c-0.1,0.2-0.1,0.4-0.2,0.6c-0.5,0.9-0.6,1.5,0.7,1.7c0.8,0.1,1.2,1,2.1,1c2.9,0,3.3-0.4,4.1-3.3
				c0,0,0-0.1,0-0.1c0.1-0.3,0.1-0.8,0.6-0.7c0.5,0.1,0.3,0.5,0.3,0.9c0,0.8-0.1,1.6-0.4,2.3c-0.7,1.3,0.5,1.3,1.1,1.6
				c0.6,0.3,1.2,0.1,1.4-0.8c0.2-0.8,0.3-1.6,1-2.3c0.8,0.6-0.3,1.2,0.2,1.9c0.7-0.5,1.5-0.7,2.4-0.6c0.6,0,0.7-0.4,0.8-0.8
				C96.5,289.1,96.6,288.4,97.2,287.7z M132,330.9c-0.7-0.9-1.5-1.4-2.2-1.9c-3.2-2.3-6.5-4.5-9.1-7.5c-2.7-3.1-5.6-5.9-8.2-9.1
				c-0.5-0.6-1-1.3-2.1-1.5C115.7,319.7,121.9,327.2,132,330.9z M223.5,229.8c-4,5.6-8.2,10.6-13.6,15
				C218.2,243.6,222.4,238.1,223.5,229.8z"/>
			<path class="st3" d="M97.2,287.7c-0.6,0.7-0.7,1.4-0.9,2.2c-0.1,0.5-0.2,0.9-0.8,0.8c-0.9,0-1.7,0.2-2.4,0.6
				c-0.5-0.7,0.6-1.3-0.2-1.9c-0.6,0.6-0.8,1.5-1,2.3c-0.2,0.9-0.7,1.1-1.4,0.8c-0.6-0.3-1.8-0.3-1.1-1.6c0.4-0.7,0.5-1.5,0.4-2.3
				c0-0.3,0.1-0.8-0.3-0.9c-0.5-0.1-0.5,0.4-0.6,0.7c0,0,0,0.1,0,0.1c-0.8,2.9-1.2,3.3-4.1,3.3c-0.9,0-1.3-0.9-2.1-1
				c-1.3-0.2-1.2-0.8-0.7-1.7c0.1-0.2,0.2-0.4,0.2-0.6c0.1-0.3,0.2-0.8-0.2-0.9c-0.4-0.2-0.6,0.3-0.7,0.5c-0.2,0.6-0.5,1.2-0.7,1.8
				c-0.4,1.3-1.1,1.8-2.5,1.6c-1.2-0.1-2.4-0.4-3.6-0.6c-1.6-0.3-3.2-0.3-4.7,0.6c-1.3,0.8-3,0.8-4.3,1.7c-0.4,0.2-0.6-0.1-0.9-0.3
				c-0.9-0.6-1.9-0.6-3-0.5c-4.7,0.7-9.1,2.6-13.5,4.1c-2.8,1-5.4,0.9-8.1-0.2c-1.8-0.8-3.5-0.7-5,0.8c-0.1,0.1-0.2,0.1-0.3,0.2
				c-1.9,1.3-1.9,1.3-3.8,0c-1.3-0.9-2.8-1.6-4.1-2.9c2.3-1.4,4.6-2.7,7.1-3.5c5-1.7,10.1-3.4,15.4-4.2c4.6-0.6,9.2-1.4,13.8-1.8
				c5.8-0.5,11.3-2,17-2.8c1.5-0.2,3-0.2,4.5-0.2c4,0.1,8-0.6,12.1-0.6c1.3,0,2.4-0.7,3.5-1.1c2.9-1,5.9-1.4,8.9-1.9
				c3.6-0.6,7.3-0.4,10.9-1c3.3-0.6,6.7-0.9,9.8-2.3c5.2-2.3,10.8-2.4,16.3-3.1c4.1-0.5,8.2-1.2,12-2.9c1-0.4,1.9-1.1,2.3-2.1
				c0.3-0.9,1.1-0.8,1.8-0.9c3.1-0.5,6.2-0.7,9.3-1.4c4.2-0.8,8.5-1.3,12.4-3.4c0.8-0.4,1.6-0.8,2.2-1.6c0.8-1.1,1.8-1.5,3.1-1.7
				c3.7-0.8,7.3-1.8,10.8-3.2c3-1.2,5.5-3.2,6.7-6.4c0.3-0.7,0.7-1.1,1.4-1.4c1.8-1,3.7-1.6,5.6-2.3c4.6-1.6,7.7-4.8,9.3-9.4
				c0.6-1.8,1-3.7,1.5-5.6c0.3-1,1.2-1.9,2.3-2c3-0.5,5-2.2,6.8-4.4c2.4-3,4.9-6,7.5-8.8c0.2-0.2,0.3-0.6,0.7-0.5
				c0.4,0.1,0.6,0.5,0.6,0.9c0.1,1-0.3,1.7-0.9,2.3c-2.1,2.4-3.1,5.3-3.7,8.4c-0.2,1-0.5,1.9-1,2.7c-1.4,2.4-2.9,4.8-3.6,7.7
				c-0.3,1.4-1.5,2.4-2.2,3.6c-0.2,0.4-0.7,0.6-1.1,0.5c-3.4-0.1-5.5,2-7.3,4.4c-1.9,2.6-4.2,4.8-6.3,7.3c-3,3.6-6.5,6.8-8.7,10.9
				c-0.5,0.9-1,1.4-2.1,0.5c-1.1-1-3.5-0.6-4.7,0.4c-2.1,1.8-4.3,3.6-6.5,5.4c-0.5,0.4-0.9,0.6-1.6,0.1c-0.9-0.6-1.8-0.3-2.6,0.3
				c-5.1,3.8-10.7,6.6-16.4,9.4c-0.6,0.3-1.2,0.6-1.8,0.9c-3.2,1.7-6.5,1.8-10,1.3c-1.9-0.3-3.7,0-5.4,1.1c-1.5,1-3.3,1.2-5,1.7
				c-0.5,0.1-0.8-0.1-1.2-0.2c-2.9-1.1-5.6-1.3-8.5,0.5c-1.8,1.2-4.2,1.1-6.4,1.5c-3.7,0.8-7.6,1.3-11.1,2.9
				c-3.5,1.6-7,1.8-10.7,1.2c-1.3-0.2-2.6-0.3-3.8,0.5c-0.5,0.3-0.9,0.3-1.4,0c-1.3-0.9-2.6-0.6-4-0.2c-0.5,0.1-1,0.8-1.3,0.3
				c-0.4-0.6-0.5-1.5,0-2.1c0.6-0.8,0.6-1.7,1-2.5c0.1-0.3,0.2-0.6-0.1-0.8c-0.4-0.2-0.6,0.1-0.8,0.5c-0.6,1.5-1.7,2.7-1.9,4.3
				c-0.1,0.8-0.5,1-1.2,0.9c-1-0.2-2.2,0-3-0.5C96.4,290,97.7,288.8,97.2,287.7z M46.2,293.8c1.4,0,2.8-0.9,2.9-2
				c0.1-1.4-1.4-2.8-3.1-2.8c-1.6-0.1-2.8,0.9-2.9,2.3C43.1,292.7,44.5,293.8,46.2,293.8z"/>
			<path class="st4" d="M118.5,316.8c-1.7-1.5-3.2-3.1-4.7-4.8c-2-2.2-4-4.4-6-6.6c-0.6-0.6-1.3-1.2-1.6-2c-0.3-0.6-0.7-0.6-1.3-0.2
				c-0.4-0.1-0.9-0.3-1.3-0.4c-0.2-0.8-0.2-1.5-0.3-2.3c-0.1-2.2-0.1-4.5-0.3-6.7c-0.1-0.9,0.2-1.4,1.1-1.7c1.5-0.6,2.9-1.2,4.5,0
				c0.5,0.4,1.1,0.2,1.6-0.1c1.2-0.9,2.7-0.9,4-0.6c3.8,0.8,7.3,0.2,10.9-1.3c4.9-2.1,10.1-2.5,15.2-3.6c1.1-0.2,2.1-0.6,3.1-1.2
				c1.5-1,3.3-1.3,4.9-0.5c2.8,1.3,5.5,0.8,7.7-0.6c3.2-2,6.4-1.6,9.7-1.2c1.7,0.2,3.2-0.3,4.6-0.9c4-1.6,8-3.4,11.6-5.8
				c1.5-1,3.1-1.7,4.6-2.5c1.4-0.7,2.7-1.6,3.9-2.7c0.8-0.7,1.5-1.1,2.4-0.1c0.5,0.5,1,0.3,1.5-0.1c2.6-1.7,4.8-3.9,7.2-5.8
				c1.3-1,2.7-1.2,4-0.1c0.9,0.8,2.3,0.3,3.2-1.2c0.6-1.1,1.3-2.2,2.2-3.2c1.3-1.6,2.8-3,4-4.7c2.7-3.6,6.4-6.3,8.7-10.3
				c0.7-1.2,1.8-2.3,2.8-3.3c0.7-0.7,1.8-0.7,2.8-0.8c1.4-0.2,2.2-0.8,3.1-1.9c2.1-2.5,2.7-5.8,4.5-8.4c0.3-0.4,0.3-0.9,0.9-1.1
				c0.3,2.7,0.5,5.1-1.5,7.6c-3.9,4.8-7.6,9.9-10.1,15.6c-0.3,0.7-0.7,1.3-1.4,1.7c-1.4,0.8-2.4,1.9-3.3,3.2
				c-1.4,1.1-2.2,2.5-3.2,3.9c-1.6,2.2-3.2,4.5-5.9,5.7c-3.9,1.6-6.8,4.2-9,7.8c-1.5,2.5-3.5,4.5-6.2,5.8c-1.3,0.6-2.5,1.4-3.7,2.1
				c-3.1,1.7-6,3.6-8.4,6.2c-2.3,2.4-5.2,4-8.5,4.5c-4.1,0.7-7.9,1.9-11.1,4.7c-2.5,2.3-5.5,3-8.8,3.1c-3.1,0-6,0.9-8.8,2.3
				c-1.9,1-3.9,1.8-6.1,1.7c-0.9,0-1.9,0.1-2.8,0.1c-0.7-0.5-1.5-0.6-2.3-0.6c-7.3,0.3-14.6,0.5-21.8,1c-0.6,0-1.1-0.5-1.9,0.2
				c0.9,0.2,1.7,0.3,2.4,0.4c3.5,0.3,7,0.1,10.4,0.4c3.2,0.2,6.4-0.4,9.6,0c-2.1,0.7-4.1,1.4-6.2,2.1c-0.7,0.2-1.2,0.5-1.1,1.3
				c-0.8,1.1-0.1,1.7,0.8,2.2c1.7,0.7,3.3,1.4,5.1,1.9c1.1,2,2.3,3.9,3.8,5.8c0.3,0.4,0.5,0.8,0.8,1.2c-3.6-0.4-7.2-0.9-10.8-1.5
				c-2.5-0.4-4.9-1.1-7-2.6C120.2,317.5,119.5,316.9,118.5,316.8z M119.3,313.4c0.6,0,0.8,0,1.1,0c0.7,0,1.3-0.2,1.4-1
				c0.1-0.9-0.5-1.3-1.2-1.4c-0.9-0.2-1.8-0.2-2.7,0.1c-0.5,0.2-0.8,0.5-0.8,1.1c0,0.5,0.3,0.9,0.8,1
				C118.5,313.3,119.1,313.4,119.3,313.4z"/>
			<path class="st5" d="M206,247.1c0.1,1.4-0.6,2.5-1.4,3.4c-1.5,1.8-3.3,3-5.6,3.8c-3.5,1.3-7.1,2.3-10.7,3.1
				c-0.8,0.2-1.6,0.4-2.2,1.1c-2,2.5-4.8,3.2-7.6,3.9c-5.5,1.4-11.1,2.1-16.7,2.9c-1.1,0.2-2,0.5-2.3,1.7c-0.2,0.8-0.9,1.2-1.7,1.5
				c-3.9,1.6-8,2.3-12.1,2.7c-4.5,0.4-9,1-13.5,2c-1.8,0.4-3.4,1.6-5.2,2c-4.9,1.1-9.8,1.6-14.7,2c-4.7,0.4-9.4,1-13.8,2.9
				c-0.7,0.3-1.5,0.4-2.3,0.4c-5.5,0.2-11,0.4-16.6,0.8c-2.9,0.2-5.8,1.2-8.7,1.7c-3.6,0.6-7.2,0.9-10.8,1.4
				c-5.8,0.8-11.6,1.4-17.2,2.7c-0.2,0-0.4,0.1-0.6,0.1c0-0.1,0-0.2,0-0.2c4.1-2.1,8.2-4.3,12.7-5.5c4.8-1.2,9.6-1.9,14.6-2.3
				c3.5-0.3,7-0.8,10.4-1.3c4.4-0.6,8.7-1.1,13.1-1.7c5.1-0.7,10.2-1.9,15.3-2.9c6.6-1.3,13.3-2.7,19.9-4.1c3.3-0.7,5.5-2.7,7.2-5.4
				c1.8-2.9,3.3-6,5.1-8.9c2.9-4.6,6.2-8.9,10.8-12.1c0.5-0.4,1-0.9,1.8-0.9c-2.8,5-4.8,10.3-6.5,15.7c-0.8,2.4-1.6,4.8-3.4,6.7
				c-0.4,0.4-1,0.7-0.6,1.4c0.4,0.6,1.1,0.5,1.6,0.3c1.5-0.3,3-0.7,4.4-1.3c0.6,0.2,1.1,0.1,1.6-0.1c4.1-1.6,8.3-2.9,12.5-4.3
				c1.9,0.3,3.8,0.2,5.6,0c2.1-0.2,4.1-0.9,6.1-1.5c4-1.1,8.1-2.1,12-3.5c3.9-1.4,8-2.3,11.6-4.5c0.8-0.5,1.5-1,2.1-1.7
				c1.6-0.4,3.4-0.1,4.3-1.9C205,247.4,205.5,247.3,206,247.1z"/>
			<path class="st6" d="M35.4,299c1.3-1.6,2.8-1.9,4.8-1c2.7,1.3,5.5,1,8.4,0.1c4.3-1.4,8.4-3.3,12.9-4c1.1-0.2,2.2-0.3,3.1,0.5
				c0.5,0.5,1.1,0.3,1.6,0c1.6-1,3.6-1.1,5.2-2.1c0.5-0.3,1.2-0.5,1.9-0.4c1.8,0.3,3.5,0.6,5.3,1c-0.2,2.9-0.2,5.9,0.1,8.8
				c-1.7,0.1-3.5,0.2-5.2,0.4c-1.5,0.2-2,1.5-1.1,2.7c0.3,0.4,0.7,0.8,1.1,1.1c2.2,2.1,4.9,3.3,7.5,4.9c0.4,1.3,1,2.5,2.7,2.2
				c1.9,1,4.1,1,6.1,1.6c0,0,0.1,0,0.1,0c0.5,0.2,1,0.4,1.4,0.5c2.6,0.5,5,1.4,7.5,2.1c-4.5,0.4-9,0.3-13.5-0.2
				c-4.3-0.5-8.6-0.3-13,0.1c-2.4,0.2-4.7,0.8-7.2,0.4c-2.2-0.3-4.3-0.6-6.5-0.9c-0.8-0.8-1.8-1.4-2.4-2.4c0.7-0.2,1.3,0.1,1.8,0.3
				c1.1,0.2,1.9,0,2.3-1c0.3-0.7,0.8-0.9,1.5-0.9c1.1,0.1,2.2,0,3.3,0.2c1.2,0.2,2.9-1,3.2-2.1c0.3-1.2-0.2-2.1-1.6-2.9
				c-2.1-1.2-4.2-2-6.4-2.9c-0.3-0.7-0.9-1-1.6-1.2C51.2,301.9,43.3,300.3,35.4,299z"/>
			<path class="st7" d="M218.1,265.5c-0.5,1.5-1.7,2.5-2.5,3.8c-1.8,2.7-3.2,5.7-5.2,8.3c-1.3,1.7-2.4,3.5-3.7,5.3
				c-0.5,0.7-1.2,1.2-2,1.4c-3.1,0.7-5.1,2.8-7.1,5.1c-2,2.3-4.3,4.4-6.8,6.2c-2.8,2.1-5.5,4.4-8.5,6.2c-3.3,2-6.3,4.5-9.9,5.9
				c-2.6,1-4.9,2.6-7.5,3.7c-3.1,1.3-6.1,2.5-9.3,3.4c-1.8,0.5-3.3,1.5-5.2,1.9c-2.7,0.5-5.3,0.8-8,1.1c-0.9,0.1-1.8-0.1-2.5,0.7
				c-0.3,0.3-0.5,0.1-0.7-0.2c-0.7-1.1-1.4-2.2-2.1-3.2c-0.4-0.6,0.1-0.8,0.5-1.1c0.9-0.7,1.9-1.3,2.3-2.5c2-0.3,4-0.5,5.9-1
				c5-1.3,9.8-3,14.7-4.6c5.4-1.8,10.6-4.1,15.5-6.8c7.8-4.2,15.3-9.1,22.4-14.4c6.1-4.5,11.3-9.8,16.1-15.7
				C215.6,267.7,216.7,266.4,218.1,265.5z"/>
			<path class="st8" d="M218.1,265.5c-1.4,0.9-2.4,2.2-3.5,3.5c-4.8,5.8-10,11.1-16.1,15.7c-7.1,5.3-14.6,10.2-22.4,14.4
				c-5,2.7-10.1,5-15.5,6.8c-4.9,1.6-9.7,3.3-14.7,4.6c-1.9,0.5-4,0.7-5.9,1c-0.1-1.8,0.4-3.6-0.8-5.2c0.9,0,1.9-0.1,2.8-0.1
				c2.2,0,4.2-0.7,6.1-1.7c2.7-1.4,5.7-2.2,8.8-2.3c3.3,0,6.3-0.8,8.8-3.1c3.1-2.9,6.9-4.1,11.1-4.7c3.3-0.5,6.3-2.1,8.5-4.5
				c2.5-2.6,5.3-4.6,8.4-6.2c1.3-0.7,2.4-1.5,3.7-2.1c2.7-1.3,4.7-3.3,6.2-5.8c2.2-3.6,5.1-6.2,9-7.8c2.6-1.1,4.2-3.4,5.9-5.7
				c1-1.4,1.9-2.8,3.2-3.9c0,1.5-0.8,2.8-1.3,4.2c-0.2,0.1-0.3,0.3-0.3,0.5l0,0c-0.3,0.1-0.5,0.3-0.5,0.6c0,0,0,0,0,0
				c-0.3,0.1-0.4,0.2-0.3,0.5l0,0C218.6,264.2,218,264.6,218.1,265.5L218.1,265.5z"/>
			<path class="st7" d="M162.7,260.3c-4.2,1.4-8.4,2.6-12.5,4.3c-0.5,0.2-1.1,0.3-1.6,0.1c0.7-1,0.8-2.1,1.1-3.3
				c0.8-3.9,1.3-7.8,2.8-11.6c1.4-3.7,3.5-6.8,6.6-9.3c-0.8,5.3-0.2,10.4,1,15.5C160.4,257.9,161.1,259.4,162.7,260.3z"/>
			<path class="st9" d="M98.8,317.4c-2.5-0.7-5-1.6-7.5-2.1c-0.5-0.1-1-0.3-1.4-0.5c1-0.3,0.6-1.1,0.4-1.5c-1.2-2.9-1.3-6.1-1.8-9.2
				c-0.1-0.9-0.1-1.8-0.1-2.7c0.5,0,1,0,1.5,0c0.1,0.7,0.2,1.4,0.3,2.1c0.3,2.9,0.7,5.7,1.8,8.4c0.4,1,1,1.5,2.1,1.2
				c0.5,0.4,0.7,1.5,1.3,1.2c0.7-0.3,0.1-1.3-0.1-1.9c-1-3.6-1.6-7.3-2-11.1c0.3,0,0.7,0,1,0c0.1,1.2,0.3,2.5,0.3,3.7
				c0,2.4,0.6,4.7,1.2,7.1c0.2,0.7,0.6,1.1,1.4,1.1c0.4,0.6,0.7,1.2,1.1,1.7c0.2,0.3,0.6,0.7,1.1,0.5c0.4-0.2,0.2-0.7,0.1-1.1
				c-0.4-1.6-0.9-3.1-1.1-4.7c-0.4-2.7-1.1-5.5-1.1-8.2c0.8-0.1,1.7-0.1,2.5-0.2c-0.2,2.4,0.4,4.8,0.6,7.2c0.1,1.4,0.2,2.9,0.8,4.2
				c0.4,0.8,0.8,1.5,1.9,1.1c0.3,0.3,0.5,0.7,0.8,1c0.4,0.4,0.8,0.8,1.3,0.5c0.5-0.3,0.3-0.9,0.1-1.3c-0.9-1.6-1-3.3-1.3-5
				c-0.3-2-0.6-4-0.4-6.1c0.4,0.1,0.9,0.3,1.3,0.4c0.8,2.4,1.8,4.8,2.8,7.2c0.8,1.9,1.7,3.8,2.9,5.6
				C106.7,316.7,102.8,317.7,98.8,317.4z"/>
			<path class="st6" d="M228.2,182.1c0.9,1.1,1.1,2.6,1.5,3.9c0.7,2.1,1.6,4.2,2,6.4c-0.2,0.2-0.4,0.3-0.6,0.5
				c-2.2,4.5-6,8-8.2,12.5c-0.7-6.3-0.8-12.5,0.1-18.8C225,185.3,226.5,183.5,228.2,182.1z"/>
			<path class="st3" d="M223,205.4c2.2-4.5,6-8,8.2-12.5c0.1-0.2,0.4-0.3,0.6-0.5c1.2,2.8,1.4,5.8,2.2,8.6c0.2,0.6,0.2,1.2,0.4,1.7
				c-3.1,3.2-5.7,6.8-8.7,10.1c-0.4,0.5-0.7,1.2-1.4,1.5C223.6,211.4,223.2,208.4,223,205.4z"/>
			<path class="st10" d="M98.8,317.4c4,0.3,7.8-0.7,11.7-1.4c0.7,0.7,1.1,1.5,1.5,2.4c-0.3,0.1-0.6,0.2-0.9,0.2
				c-4.1,0.8-8.2,1.5-12.3,1.5c-4.2,0-8.4,0.1-12.6-0.3c-2.6-0.3-5.1-1-7.7-0.9c-2.3,0.1-4.5,0.1-6.8,0.3c-3.6,0.3-7.1-0.2-10.6-0.5
				c-1-0.4-1.8-0.9-2.4-1.8c2.2,0.3,4.3,0.5,6.5,0.9c2.4,0.4,4.8-0.2,7.2-0.4c4.3-0.3,8.6-0.6,13-0.1
				C89.8,317.7,94.3,317.8,98.8,317.4z"/>
			<path class="st11" d="M61.1,318.6c3.5,0.3,7.1,0.9,10.6,0.5c2.3-0.2,4.5-0.2,6.8-0.3c2.6-0.1,5.2,0.6,7.7,0.9
				c4.2,0.5,8.4,0.4,12.6,0.3c4.2,0,8.3-0.7,12.3-1.5c0.3-0.1,0.6-0.1,0.9-0.2c0.6,0.6,1.2,1.3,1.8,1.9c0.6,0.6,0.5,0.8-0.3,1
				c-2.8,0.7-5.8,1.1-8.6,1.2c-9.3,0.3-18.5-0.2-27.7-1.1c-4.9-0.5-9.9-0.8-14.7-2.2C61.9,319,61.4,319.1,61.1,318.6z"/>
			<path class="st10" d="M159.1,240.5c-3.1,2.5-5.1,5.6-6.6,9.3c-1.5,3.7-2,7.7-2.8,11.6c-0.2,1.1-0.4,2.3-1.1,3.3
				c-1.4,0.6-2.9,1-4.4,1.3c-0.6,0.1-1.3,0.3-1.6-0.3c-0.4-0.7,0.2-1,0.6-1.4c1.8-1.9,2.6-4.3,3.4-6.7c1.8-5.4,3.7-10.8,6.5-15.7
				c0,0,0,0,0,0c0.2,0,0.3-0.1,0.3-0.2c2-1.1,4-2.4,6.3-3.2c0,0.7-0.3,1.3-0.5,1.8C159.2,240.3,159.1,240.4,159.1,240.5L159.1,240.5
				z"/>
			<path class="st12" d="M151,337.5c-0.5,0.2-0.9-0.1-1.4-0.2c-5.4-1.4-10.3-4.1-14.9-7.2c-3.2-2.1-6.4-4.4-9.6-6.5
				c0.2,0,0.4,0,0.5,0c3.8,0.9,7.6,1.9,11.5,2.8c2,0.4,3.9,1.2,5.9,1.3C145.9,330.7,148.6,334,151,337.5L151,337.5z"/>
			<path class="st13" d="M236.2,207.6c0.8,0.9,0.9,2,1.5,3c0.3,0.5,0.5,1.3,1,1.6c1.3,0.8,0.9,1.5,0,2.3c-3.1,2.9-5.6,6.4-8.6,9.4
				c-1.3,1.3-2.9,1.4-4.4,1.8c-0.4,0.1-0.7,0-0.7-0.5c-0.1-0.9-0.1-1.7-0.2-2.6c1.5-2.1,3.2-4.1,4.8-6.2
				C231.9,213.6,234,210.6,236.2,207.6z"/>
			<path class="st12" d="M243.1,232.9c-0.9,0.1-1.9,0.2-2.7,0.7c-0.9-5.4-0.4-10.5,3-14.9c0.6-0.8,1-1.8,1.1-2.9
				c2.1,0.7,4.1,1.5,6.1,2.4c-1.9,3.7-3.9,7.3-5.7,11C244.2,230.4,243.3,231.5,243.1,232.9z"/>
			<path class="st14" d="M253.4,231.7c-2.4,0.6-4.9,1.1-7.4,0.9c0.8-1.4,1.6-2.8,2.3-4.3c1.6-3.2,3.3-6.2,4.6-9.5
				c2.4,0.6,5,0.3,7.4,0.9c-0.3,1-0.8,1.9-1.3,2.8c-1.7,2.5-3.4,5.1-5,7.6C253.7,230.7,253.4,231.1,253.4,231.7z"/>
			<path class="st15" d="M236.2,207.6c-2.2,3-4.3,6-6.6,8.9c-1.6,2-3.2,4.1-4.8,6.2c-0.2-2.8-0.4-5.6-0.5-8.4c0.7-0.2,0.9-1,1.4-1.5
				c2.9-3.3,5.6-6.9,8.7-10.1C235,204.4,235.6,206,236.2,207.6z"/>
			<path class="st10" d="M143.1,327.6c-2-0.1-3.9-0.8-5.9-1.3c-3.8-0.9-7.7-1.9-11.5-2.8c-0.2,0-0.3,0-0.5,0
				c-2.6-1.9-4.6-4.3-6.7-6.7c0.9,0.1,1.6,0.7,2.4,1.2c2.1,1.5,4.5,2.1,7,2.6c3.6,0.6,7.2,1.1,10.8,1.5
				C140.3,323.8,141.7,325.7,143.1,327.6z"/>
			<path class="st9" d="M35.4,299c7.9,1.3,15.7,2.9,23.5,4.8c0.7,0.2,1.3,0.5,1.6,1.2c-1.2-0.3-2.5-0.5-3.7-0.9
				c-1-0.3-1.8-0.1-2.2,0.9c-0.2,0.7-0.6,0.7-1.2,0.5c-0.9-0.4-1.8-0.6-2.8-0.5c-0.5,0-1.1,0.1-1.2,0.6c-0.3,1.3-1,0.6-1.7,0.5
				c-1.6-0.4-3.1-1.3-5-0.9c-0.9,0.2-2-1.1-3-1.7c-1.5-1-2.9-2-4.4-3C34.3,299.8,34.3,299.4,35.4,299z"/>
			<path class="st10" d="M253.4,231.7c-0.1-0.6,0.3-1.1,0.6-1.5c1.7-2.5,3.4-5.1,5-7.6c0.6-0.9,1-1.8,1.3-2.8
				c1.9,0.3,3.8,0.6,5.7,0.9c-0.4,0.3-1,0.6-1.3,1.1c-2,2.8-3.9,5.8-5.4,8.9C257.5,231.5,255.4,231.4,253.4,231.7z"/>
			<path class="st16" d="M132,330.9c-10.1-3.7-16.3-11.1-21.6-20c1.1,0.1,1.6,0.9,2.1,1.5c2.6,3.2,5.5,6,8.2,9.1
				c2.6,3,5.9,5.2,9.1,7.5C130.5,329.5,131.3,329.9,132,330.9z"/>
			<path class="st5" d="M223.5,229.8c-1.1,8.2-5.3,13.8-13.6,15C215.2,240.4,219.4,235.4,223.5,229.8z"/>
			<path class="st10" d="M252.9,218.8c-1.3,3.3-3.1,6.4-4.6,9.5c-0.7,1.5-1.5,2.8-2.3,4.3c-0.9,0.1-1.9,0.2-2.8,0.3
				c0.2-1.4,1.1-2.5,1.7-3.7c1.9-3.7,3.8-7.3,5.7-11C251.4,218.5,252.1,218.7,252.9,218.8z"/>
			<path class="st13" d="M81.9,301.7c-0.5-1.5-0.6-3.2-0.8-4.8c-0.1-1.1-0.3-2.2-0.3-3.3c0-1.5,0.9-2,2.1-1.2c1,0.7,1.9,0.8,3,0.6
				c-0.4,2.8-0.7,5.7-1.1,8.5C83.9,301.6,82.9,301.6,81.9,301.7z"/>
			<path class="st15" d="M259.5,230.7c1.5-3.2,3.3-6.1,5.4-8.9c0.3-0.4,0.8-0.7,1.3-1.1c0.8,0.1,1.6,0.1,2.4,0.4
				c-1.4,2.5-2.9,5-4.3,7.5C262.7,229.6,261.1,230.2,259.5,230.7z"/>
			<path class="st16" d="M103,313.7c-1.1,0.4-1.6-0.3-1.9-1.1c-0.6-1.3-0.7-2.8-0.8-4.2c-0.2-2.4-0.8-4.8-0.6-7.2
				c0.2-1,0.2-1.9,0.1-2.9c-0.2-2-0.3-4,0.1-5.9c0.9-0.1,1,0.4,1,1.1c0.2,4.6,0,9.3,0.8,13.8C102.1,309.5,102.6,311.6,103,313.7z"/>
			<path class="st16" d="M78.6,301.9c-0.3-2.9-0.2-5.9-0.1-8.8c1.1-0.3,1.4,0.2,1.3,1.3c-0.2,4.5,0.1,9,1.5,13.3
				c0.6,1.7,1.5,3.3,2.6,4.7c-0.1,0.3-0.3,0.6-0.4,0.8c-1.7,0.3-2.3-0.8-2.7-2.2C80.1,308,79.3,304.9,78.6,301.9z"/>
			<path class="st9" d="M83.6,313.2c0.1-0.3,0.3-0.6,0.4-0.8c0.4,0.2,0.7,0.7,1.1,0.3c0.4-0.4,0.1-0.9-0.1-1.3
				c-1.6-3.1-2.4-6.4-3.1-9.7c1-0.1,2-0.1,3-0.2c0,0.5,0,1,0.1,1.5c0,3,0.6,5.9,1.6,8.8c0.3,0.8,0.6,1.6,1.7,1.4
				c0.5,0.5,0.9,1,1.4,1.5C87.7,314.2,85.5,314.2,83.6,313.2z"/>
			<path class="st16" d="M94,313.1c-1.1,0.3-1.6-0.2-2.1-1.2c-1.1-2.7-1.6-5.6-1.8-8.4c-0.1-0.7-0.2-1.4-0.3-2.1
				c0.2-2.5-0.4-5.1,0.1-7.6c1.1,0,1.6,0.1,1.5,1.5c-0.6,6,0.1,11.9,2.5,17.5C94,313,94,313.1,94,313.1z"/>
			<path class="st13" d="M99.9,292.3c-0.5,2-0.4,4-0.1,5.9c0.1,1,0.1,1.9-0.1,2.9c-0.8,0.1-1.7,0.1-2.5,0.2c-0.5-2.7-0.4-5.4-0.6-8
				c-0.1-1,0.3-1.4,1.3-1.3C98.6,292.1,99.3,292,99.9,292.3z"/>
			<path class="st16" d="M88.3,313.2c-1.1,0.1-1.4-0.7-1.7-1.4c-1-2.8-1.6-5.7-1.6-8.8c0-0.5,0-1-0.1-1.5c0.4-2.8,0.7-5.6,1.1-8.5
				c1.7-0.4,2-0.3,1.4,1.3c-1.9,5.5-0.9,11-0.1,16.6C87.4,311.8,87.9,312.5,88.3,313.2z"/>
			<path class="st13" d="M264.1,228.6c1.4-2.5,2.9-5,4.3-7.5c1.9,0.2,3.7-0.1,5.8,0.3c-2.7,2.1-5.2,4.1-7.9,5.9
				C265.7,227.7,265.1,228.5,264.1,228.6z"/>
			<path class="st16" d="M97.1,313.2c-0.8,0.1-1.2-0.4-1.4-1.1c-0.6-2.3-1.2-4.6-1.2-7.1c0-1.2-0.2-2.5-0.3-3.7
				c-0.1-3.1-0.1-6.2,0.4-9.2c0.4,0,1.2-0.8,1,0.4c-1.2,6.9-0.3,13.6,1.4,20.3C97.1,312.9,97.1,313.1,97.1,313.2z"/>
			<path class="st10" d="M128.3,311.1c-0.1-0.8,0.4-1.1,1.1-1.3c2.1-0.7,4.1-1.4,6.2-2.1c2.2-0.2,2.2-0.2,2,2.6
				c-2.1,0.7-4.3,1-6.5,1.1C130.1,311.5,129.1,311.7,128.3,311.1z"/>
			<path class="st9" d="M128.3,311.1c0.8,0.6,1.8,0.4,2.7,0.3c2.2-0.1,4.4-0.5,6.5-1.1c0.2,0.5-0.1,0.8-0.5,1.1
				c-0.5,0.3-1,0.8-1.6,1.1c-1,0.6-1.4,1.5-1.3,2.7c-1.8-0.5-3.5-1.2-5.1-1.9C128.2,312.8,127.5,312.2,128.3,311.1z"/>
			<path class="st9" d="M199.8,290.8c1-1.6,2.2-3.1,4.1-3.9c0.7-0.3,1.2-0.4,1.2,0.7c-0.1,2.1,0,4.3,0,6.4c-1-0.5-1.7-1.3-2.5-2
				C201.8,291.2,200.9,290.7,199.8,290.8z"/>
			<path class="st10" d="M199.8,290.8c1.1,0,2,0.4,2.8,1.2c0.8,0.7,1.5,1.5,2.5,2c0,0.4,0.3,1-0.5,0.9c-2.2-0.3-4.5-0.3-6.7-0.9
				c-0.8-0.2-0.9-0.5-0.3-1C198.3,292.2,199.1,291.5,199.8,290.8z"/>
			<path class="st9" d="M228.2,182.1c-1.8,1.5-3.3,3.2-5.2,4.5c0.1-1.3,0.1-2.6,0.5-3.9c1.4-1,2.5-2.6,4.1-3.4
				C228,180.2,228.5,181.1,228.2,182.1z"/>
			<path class="st16" d="M204.4,247.3c-0.9,1.8-2.8,1.5-4.3,1.9c1.6-2.6,3.4-5,4.6-8.1c0.6,1.6,0.3,3,0.6,4.3
				C205.1,246.1,204.8,246.7,204.4,247.3z"/>
			<path class="st13" d="M227.6,179.3c-1.6,0.8-2.6,2.4-4.1,3.4c0.2-2.8,1.2-5.5,2.1-8.4C226.5,176.1,227.2,177.7,227.6,179.3z"/>
			<path class="st13" d="M94.7,292.1c-0.6,3-0.5,6.1-0.4,9.2c-0.3,0-0.7,0-1,0c-0.3-0.5-0.2-1-0.3-1.5c-0.1-1.9-0.2-3.8-0.2-5.7
				C92.8,293,93.8,292.6,94.7,292.1z"/>
			<path class="st13" d="M89.9,293.8c-0.5,2.5,0.1,5.1-0.1,7.6c-0.5,0-1,0-1.5,0c-0.4-2.5,0.2-4.9,0.3-7.4
				C88.8,292.8,89.4,293.1,89.9,293.8z"/>
			<path class="st9" d="M223.7,260.6c0.1-1.3,0.6-2.5,1.7-3.3c0.4-0.3,0.7-0.4,0.8,0.2c0.3,1.7,1.2,3.3,1.4,5
				C226.3,261.9,225,261.2,223.7,260.6z"/>
			<path class="st16" d="M223.7,260.6c1.3,0.6,2.6,1.3,4,1.9c0.3,0.5,0.5,1-0.5,0.9c-0.6,0-1.3,0-1.9,0
				C222.4,263.4,222.3,263.1,223.7,260.6z"/>
			<path class="st9" d="M204.4,247.3c0.3-0.6,0.6-1.2,0.9-1.9c0.2,0.6,0.4,1.1,0.6,1.7C205.5,247.3,205,247.4,204.4,247.3z"/>
			<path class="st7" d="M218.1,265.5c0-0.9,0.5-1.3,1.3-1.6C219.2,264.7,218.6,265.1,218.1,265.5z"/>
			<path class="st7" d="M219.6,263.5c0-0.3,0.2-0.5,0.5-0.6C220.1,263.3,220.1,263.5,219.6,263.5z"/>
			<path class="st7" d="M219.3,264c-0.1-0.3,0-0.4,0.3-0.5C219.7,263.7,219.6,263.9,219.3,264z"/>
			<path class="st7" d="M220.1,262.9c0-0.2,0-0.4,0.3-0.5C220.4,262.6,220.4,262.8,220.1,262.9z"/>
			<path class="st5" d="M153.4,241.6c-0.1,0.1-0.1,0.3-0.3,0.2C153.2,241.7,153.3,241.7,153.4,241.6z"/>
			<path class="st7" d="M159,240.5c0.1-0.1,0.1-0.2,0.2-0.3C159.2,240.4,159.2,240.5,159,240.5z"/>
			<path class="st12" d="M151,337.5c0,0,0.1,0,0.1,0.1c0,0,0,0,0,0.1C151.1,337.5,151,337.5,151,337.5
				C151,337.5,151,337.5,151,337.5z"/>
			<path class="st2" d="M46.2,293.8c-1.7-0.1-3-1.1-3-2.5c0-1.4,1.3-2.4,2.9-2.3c1.7,0.1,3.1,1.4,3.1,2.8
				C49,292.9,47.6,293.9,46.2,293.8z"/>
			<path class="st16" d="M119.3,313.4c-0.2,0-0.8-0.1-1.3-0.2c-0.5-0.1-0.8-0.5-0.8-1c0-0.5,0.3-0.9,0.8-1.1
				c0.9-0.3,1.8-0.3,2.7-0.1c0.7,0.1,1.3,0.5,1.2,1.4c-0.1,0.8-0.7,1-1.4,1C120.1,313.4,119.9,313.4,119.3,313.4z"/>
			<path class="st15" d="M78.6,301.9c0.7,3.1,1.5,6.1,2.2,9.2c-2.5-1.6-5.3-2.8-7.5-4.9c-0.4-0.4-0.7-0.7-1.1-1.1
				c-0.9-1.2-0.4-2.5,1.1-2.7C75.1,302.1,76.9,302,78.6,301.9z"/>
		</g>
	</g>
</g>
</svg>
