<?xml version="1.0" encoding="utf-8"?>
<!-- Generator: Adobe Illustrator 23.0.4, SVG Export Plug-In . SVG Version: 6.00 Build 0)  -->
<svg version="1.1" id="Capa_1" xmlns="http://www.w3.org/2000/svg" xmlns:xlink="http://www.w3.org/1999/xlink" x="0px" y="0px"
	 viewBox="0 0 1069 373.9" style="enable-background:new 0 0 1069 373.9;" xml:space="preserve">
<style type="text/css">
	.st0{clip-path:url(#SVGID_2_);}
	.st1{clip-path:url(#SVGID_4_);}
	.st2{fill:#214477;}
	.st3{fill:#D7F4DD;}
	.st4{fill:#04B3AD;}
	.st5{fill:#04B1AC;}
	.st6{fill:#05B3AD;}
	.st7{fill:#F38383;}
	.st8{fill:#D6F4DD;}
	.st9{fill:#EE8283;}
	.st10{fill:#D5F3DC;}
	.st11{fill:#EF8283;}
	.st12{fill:#F18283;}
	.st13{fill:#06B1AC;}
	.st14{fill:#07B3AE;}
	.st15{fill:#F28384;}
	.st16{fill:#CEEBD8;}
	.st17{clip-path:url(#SVGID_6_);}
	.st18{clip-path:url(#SVGID_8_);}
	.st19{clip-path:url(#SVGID_10_);}
	.st20{clip-path:url(#SVGID_12_);}
	.st21{clip-path:url(#SVGID_14_);}
	.st22{clip-path:url(#SVGID_16_);}
	.st23{fill:#204478;}
	.st24{fill:#264376;}
	.st25{fill:#374B78;}
	.st26{fill:#F28283;}
	.st27{fill:#CCE8D6;}
	.st28{fill:#D9F1DA;}
	.st29{fill:#06A9D7;}
	.st30{fill:#07ACD9;}
	.st31{fill:#0BA9D6;}
	.st32{fill:#2665AC;}
	.st33{fill:#CDECD9;}
	.st34{fill:#B9DCD0;}
	.st35{fill:#08A6D4;}
	.st36{fill:#0AA0CF;}
	.st37{fill:#1D4578;}
	.st38{fill:#04ADAA;}
	.st39{fill:#DDE7D2;}
	.st40{fill:#F08384;}
	.st41{fill:#0483C3;}
	.st42{fill:#E88385;}
	.st43{fill:#04B0AC;}
	.st44{fill:#F48383;}
	.st45{fill:#0CAFDC;}
	.st46{fill:#D3F2DC;}
	.st47{fill:#08B0DD;}
	.st48{fill:#03B2AD;}
	.st49{fill:#0483C4;}
	.st50{fill:#03B1AC;}
	.st51{clip-path:url(#SVGID_18_);}
	.st52{clip-path:url(#SVGID_20_);}
	.st53{fill:#214578;}
	.st54{fill:#D0EED9;}
	.st55{fill:#C6E4D4;}
	.st56{fill:#EE8183;}
	.st57{fill:#0A84C2;}
	.st58{fill:#05B0AC;}
	.st59{fill:#E98083;}
	.st60{fill:#06ABA9;}
	.st61{fill:#CCE9D7;}
	.st62{fill:#09ABD8;}
	.st63{fill:#E37E82;}
	.st64{fill:#09A5A6;}
	.st65{fill:#BFDACE;}
	.st66{fill:#D87A81;}
	.st67{fill:#AECBC5;}
	.st68{fill:#F05A5E;}
	.st69{clip-path:url(#SVGID_22_);}
	.st70{clip-path:url(#SVGID_26_);}
	.st71{clip-path:url(#SVGID_30_);}
	.st72{clip-path:url(#SVGID_34_);}
	.st73{fill:none;stroke:#000000;stroke-miterlimit:10;}
</style>
<g>
	<defs>
		<polygon id="SVGID_5_" points="23,170 280,170 280,373.5 21.3,371.8 		"/>
	</defs>
	<clipPath id="SVGID_2_">
		<use xlink:href="#SVGID_5_"  style="overflow:visible;"/>
	</clipPath>
	<g class="st0">
		<defs>
			<polygon id="SVGID_7_" points="22.9,341 283.1,398.8 283.1,170.7 22.9,170 			"/>
		</defs>
		<clipPath id="SVGID_4_">
			<use xlink:href="#SVGID_7_"  style="overflow:visible;"/>
		</clipPath>
		<g class="st1">
			<g>
				<path class="st2" d="M140.8,336.9c1.6,2.3,3.1,4.5,4.7,6.5c2.9,3.7,5.8,7.3,8.4,11c0.3,0.5,0.7,0.8,1.1,1.3
					c0.4,0.6,0.7,1.2,0.3,1.9c-0.4,0.7-1.1,0.8-1.8,0.6c-1.8-0.4-3.7-0.8-5.5-1.5c-6.1-2.3-12.2-4.6-18.1-8
					c-3.4-1.9-6.6-4.3-9.6-6.9c-1.4-1.3-2.5-2.9-3.7-4.4c-0.5-0.6-0.8-0.8-1.5-0.6c-1.3,0.4-2.8,0.4-4.2,0.4
					c-5.6-0.1-11.3-1.5-17-2.6c-8.2-1.6-16.2-4.2-24.4-6.4c-2.8-0.8-5.5-2-8.2-3c-0.9-0.3-1.7-0.8-2.4-1.5c-2.4-2.3-4.6-4.7-6.3-7.5
					c-0.4-0.7-0.7-1.3-0.2-1.9c0.5-0.6,1.2-0.5,1.9-0.3c1.2,0.3,2.4,0.6,3.6,1c0.5,0.2,0.7,0,0.9-0.3c0.5-0.8,1.3-1,2.3-0.8
					c1.5,0.3,3,0.5,4.6,0.5c-1.1-0.8-2.1-1.7-3.2-2.3c-1.7-0.9-3.3-2-5.1-2.5c-0.3-0.1-0.7-0.3-0.9,0.1c-0.8,1.5-2.1,1-3.4,0.4
					c-0.8-0.4-1.6-1.1-1.9,0.5c-0.1,0.8-1.3,0.9-2.4,0.1c-0.9-0.6-1.9-1.1-3-1.6c-0.6-0.2-0.9-0.5-1.3,0.3c-0.4,0.8-1.3,0.7-2,0
					c-4.4-4.3-9.6-7.4-14.5-10.7c-1.2-0.8-2.3-1.9-3.7-2.3c-1-0.3-1-1.2-0.5-2.1c0.5-0.9,1.3-1.5,2.2-1.9c5.4-2.8,10.8-5.3,16.3-7.5
					c2-0.8,4.1-1.5,6.1-2.3c5.3-2,10.9-2.2,16.7-2.1c6.1,0.1,12.2,0.4,18.3,0.7c8.2,0.3,16.3,0.1,24.4-0.4c6.5-0.5,13-1,19.6-1.7
					c2.8-0.3,4.7-1.8,6.2-4.1c2.4-3.7,4.3-7.7,7-11.4c2.7-3.8,5.6-7.6,9.5-10.4c3.5-2.5,7.2-5,11.3-6c1.7-0.4,2.6,0.9,1.9,2.6
					c-2.5,5.9-1.9,11.9-0.7,17.6c0.2,0.8,0.3,1.5,0.4,2.3c0.4,1.7,0.8,2,2.5,2.2c2.7,0.2,5.2-0.4,7.7-0.8c5-0.8,10-1.7,14.9-2.8
					c2.1-0.5,4.3-0.9,6.4-1.3c3-0.5,4.6-2.5,6.1-4.7c0.9-1.4,1.7-2.8,2.4-4.2c0.2-0.3,0.3-0.7,0.5-1c0.4-0.7,1-1.3,2-0.9
					c1.1,0.3,1.4,1.3,1.6,2.1c0.4,1.5,0.7,3.1,1,4.7c1.6-1,3.2-1.8,4.6-2.8c2.7-2,5.3-3.8,7.5-5.9c1.6-1.6,2.1-3.7,1.9-6.2
					c-0.3-3.6-0.9-7.3-1.5-11c-1-6.3-1.5-12.5-0.7-18.3c0.5-3.8,1.2-7.5,2.8-10.7c0.4-0.7,0.6-1.8,1.9-1c1.3,0.8,1.7,2.3,2.1,3.5
					c1,2.8,2.1,5.4,2.7,7.9c1.3,5,3.2,9.8,4.5,14c0.9,2.9,1.4,5.5,2.6,8.3c0.7,1.7,1.6,3.3,2.4,4.9c0.3,0.5,0.8,1,1.3,1.4
					c2,1.8,4.1,3.4,6.6,4.7c2.4,1.3,4.7,2.8,7.3,3.5c6.7,2,13.2,4,19.9,4.4c1.3,0.1,2.7,0.2,4,0.3c0.7,0,1.2,0.2,1.3,0.5
					c0.2,0.3-0.2,0.6-0.7,0.7c-4.5,1.1-8.1,2.6-12.2,3.8c-3.3,0.9-7,1.4-11.1,0.9c-2.5-0.3-5-0.2-7.6-0.6c-1.1-0.2-2.1-0.3-3.2-0.5
					c-2.2-0.5-3.9-0.2-5.2,0.8c-2.4,2-4.9,4.3-7.1,7.1c-1,1.2-2,2.5-2.8,4c-0.8,1.3-0.8,2.8-0.3,4.4c0.7,2.1,1.3,4,1.8,6
					c0.4,1.5-0.2,2.2-1.8,1.8c-2.1-0.6-4.2-0.7-6.3-1.3c-0.7-0.2-1.3-0.2-1.7,0.3c-0.9,0.9-1.8,1.7-2.6,2.6c-2,2.2-3.6,4.7-5.6,7
					c-1.4,1.5-2.7,3.1-4.1,4.7c-0.7,0.8-1.1,1.6-1.1,2.7c0.1,2.1,0.1,4.3,0.2,6.4c0.1,1.7-0.7,2.2-2.6,1.8c-2-0.5-4.1-0.4-6.1-0.7
					c-0.3,0-0.6,0-0.9-0.1c-2.3-1-4.2-0.3-6.1,1.1c-2.7,2-5.3,4-8.2,5.9c-3.4,2.2-6.7,4.7-10.5,6.6c-3.6,1.8-7.1,4.2-10.9,5.7
					c-4.5,1.8-8.8,4.2-13.4,5C146.3,336.5,143.6,336.7,140.8,336.9z M219.6,284.7C219.6,284.7,219.6,284.7,219.6,284.7
					c0.4,0.2,0.5-0.1,0.5-0.4c0,0,0,0,0,0c0.2,0,0.3-0.2,0.3-0.4c0.4-1.2,1.3-2.3,1.3-3.7c0.9-1.1,1.9-2.1,3.3-2.6
					c0.6-0.2,1.1-0.8,1.4-1.4c2.4-5.1,6.1-8.6,9.9-11.5c2-1.5,1.6-3.3,1.3-5.3c-0.6,0-0.7,0.4-0.9,0.6c-1.7,1.4-2.2,3.8-4.3,5.4
					c-0.9,0.7-1.7,1.1-3.1,0.9c-1-0.1-2.1-0.4-2.8,0c-1,0.6-2.1,1.3-2.8,2.3c-2.2,3.1-6,4.9-8.7,8.1c-1.2,1.4-2.7,2.6-4,3.9
					c-0.8,0.8-1.5,1.7-2.2,2.7c-0.8,1.3-2.3,1.5-3.2,0.6c-1.2-1.2-2.7-1.3-4-0.5c-2.4,1.5-4.6,3.3-7.2,4.6c-0.5,0.3-1,0.5-1.5-0.1
					c-0.9-1.1-1.6-0.8-2.4-0.2c-1.2,0.9-2.5,1.6-3.9,2.2c-1.6,0.6-3.2,1.3-4.6,2.1c-3.7,2-7.6,3.6-11.6,5c-1.4,0.5-2.9,1-4.6,0.7
					c-3.3-0.5-6.5-1-9.7,1c-2.3,1.4-5,1.9-7.7,0.5c-1.6-0.8-3.4-0.6-4.9,0.4c-1,0.6-2,0.9-3.1,1.1c-5.1,0.9-10.4,0.9-15.2,2.6
					c-3.6,1.2-7.1,1.4-10.9,0c-1.3-0.5-2.7-0.7-4,0c-0.5,0.3-1.1,0.3-1.6-0.1c-1.5-1.5-2.9-1.1-4.5-0.7c-0.9,0.2-1.2,0.7-1.1,1.6
					c0.1,2.3,0.2,4.7,0.3,7c0,0.8,0.1,1.6,0.3,2.4c-0.2,2.1,0,4.3,0.4,6.4c0.3,1.8,0.4,3.7,1.3,5.5c0.2,0.5,0.3,1.1-0.1,1.3
					c-0.5,0.3-1-0.2-1.3-0.7c-0.3-0.4-0.5-0.8-0.8-1.2c-0.4-2.3-0.9-4.6-1.3-6.9c-0.8-4.9-0.6-9.7-0.7-14.6c0-0.8-0.1-1.4-1-1.4
					c-0.6-0.5-1.3-0.4-2-0.6c-1-0.3-1.4,0-1.3,1.1c0.2,2.8,0.1,5.6,0.6,8.5c0,2.9,0.7,5.8,1.1,8.8c0.3,1.7,0.7,3.4,1.1,5.1
					c0.1,0.4,0.2,0.9-0.1,1.1c-0.4,0.2-0.8-0.3-1.1-0.7c-0.4-0.6-0.7-1.3-1.1-2c0-0.1,0-0.3,0-0.4c-1.7-7.2-2.6-14.4-1.3-21.3
					c0.2-1.2-0.6-0.6-1-0.6c-0.8,0.3-1.9,0.6-1.9,1.7c0,2,0.1,4,0.2,6c0,0.5,0,1.1,0.3,1.6c0.4,4,1,7.9,2,11.9
					c0.2,0.7,0.8,1.7,0.1,1.9c-0.6,0.2-0.8-1-1.3-1.5c0-0.1,0-0.2-0.1-0.3c-2.4-6.3-3.1-12.5-2.5-18.6c0.1-1.4-0.4-1.7-1.5-1.9
					c-0.6-0.8-1.1-1.2-1.2,0c-0.2,2.5-0.8,4.9-0.4,7.6c0,0.9,0,1.9,0.1,2.8c0.4,3.3,0.5,6.5,1.7,9.8c0.2,0.5,0.6,1.4-0.4,1.5
					c0,0-0.1,0-0.1,0c-0.5-0.6-0.9-1.2-1.4-1.8c-0.4-0.9-0.9-1.7-1-2.6c-0.8-5.8-1.8-11.7,0.1-17.1c0.6-1.6,0.3-1.7-1.4-1.6
					c-1.1,0-2.1-0.3-3-1.2c-1.2-1.1-2.1-0.7-2.1,0.8c0,1.1,0.1,2.3,0.2,3.4c0.2,1.7,0.2,3.4,0.8,5.1c0.6,3.6,1.5,7.1,3.1,10.6
					c0.2,0.5,0.5,1,0.1,1.4c-0.4,0.3-0.8-0.3-1.1-0.5c-1.1-1.7-2-3.4-2.6-5.3c-1.5-4.7-1.7-9.4-1.5-14c0.1-1.2-0.2-1.7-1.3-1.6
					c-1.8-0.6-3.5-1.3-5.3-1.9c-0.7-0.2-1.3-0.2-1.9,0.1c-1.6,0.8-3.6,0.6-5.2,1.4c-0.5,0.2-1,0.3-1.6-0.3c-0.9-1-2-1-3.1-1
					c-4.5,0.1-8.6,1.5-12.9,2.4c-2.9,0.6-5.6,0.6-8.4-0.9c-2-1.1-3.4-0.8-4.8,0.7c-1.1,0.3-1.1,0.7-0.1,1.4c1.5,1,2.9,2.2,4.4,3.3
					c1,0.7,2.2,2.1,3,2c1.9-0.2,3.3,0.9,5,1.4c0.7,0.2,1.4,1,1.7-0.3c0.1-0.4,0.7-0.5,1.2-0.5c1,0,1.9,0.4,2.8,0.9
					c0.6,0.3,0.9,0.3,1.2-0.3c0.4-1,1.1-1.1,2.2-0.7c1.2,0.5,2.5,1,3.7,1.5c2.2,1.3,4.3,2.5,6.4,4c1.4,1,1.9,2,1.6,3.2
					c-0.3,1.1-2,2-3.2,1.6c-1.1-0.4-2.2-0.5-3.3-0.7c-0.7-0.2-1.2,0-1.5,0.6c-0.4,0.9-1.3,1.1-2.3,0.7c-0.6-0.2-1.1-0.6-1.8-0.5
					c0.7,1.1,1.6,1.9,2.4,2.8c0.6,1,1.4,1.7,2.4,2.2c0.3,0.5,0.8,0.5,1.2,0.7c4.8,2.2,9.8,3.4,14.7,4.8c9,2.7,18.4,5.1,27.7,6.4
					c2.9,0.4,5.8,0.6,8.6,0.3c0.8-0.1,1-0.3,0.3-1c-0.6-0.7-1.2-1.5-1.8-2.2c-0.4-1-0.8-1.9-1.5-2.7c-1.1-2-2-4.1-2.9-6.3
					c-1-2.6-1.9-5.3-2.8-8c0.5-0.3,1-0.2,1.3,0.5c0.4,0.9,1,1.6,1.6,2.3c2,2.6,4.1,5.2,6,7.9c1.5,2,3,3.9,4.7,5.8
					c2,2.8,4.1,5.7,6.7,7.9c3.2,2.7,6.3,5.3,9.5,7.8c4.6,3.6,9.4,6.6,14.9,8.2c0.4,0.1,0.9,0.4,1.4,0.2c0,0,0,0.1,0.1,0.1
					c0,0,0-0.1,0-0.1c0,0-0.1,0-0.1-0.1c-2.4-3.5-5.1-6.9-7.9-10.3c-1.3-2.1-2.8-4.1-4.4-6c-0.3-0.4-0.5-0.9-0.8-1.3
					c-1.4-2-2.7-4.1-3.7-6.4c-0.2-1.2,0.2-2.2,1.3-2.7c0.5-0.3,1-0.7,1.6-1c0.4-0.2,0.6-0.5,0.5-1.1c0.2-2.9,0.2-2.9-1.9-2.9
					c-3.2-0.7-6.4-0.4-9.6-1c-3.5-0.7-6.9-1-10.4-1.8c-0.8-0.2-1.5-0.5-2.4-0.8c0.8-0.5,1.3,0.1,1.9,0.1c7.3,0.5,14.5,1.3,21.8,1.5
					c0.8,0,1.6,0.2,2.3,0.8c1.1,1.8,0.6,3.7,0.8,5.6c-0.4,1.2-1.4,1.8-2.3,2.5c-0.3,0.2-0.9,0.4-0.5,1.1c0.7,1.2,1.4,2.4,2.1,3.6
					c0.2,0.3,0.4,0.6,0.7,0.3c0.7-0.7,1.6-0.5,2.5-0.6c2.7-0.2,5.4-0.4,8-0.9c1.8-0.4,3.4-1.5,5.2-2.1c3.2-1.1,6.3-2.4,9.3-3.9
					c2.6-1.2,4.9-3,7.5-4.1c3.6-1.6,6.7-4.1,9.9-6.2c3-1.9,5.7-4.1,8.5-6c2.5-1.7,4.8-3.5,6.8-5.5c2-2,4-3.7,7.1-4.1
					c0.8-0.1,1.5-0.5,2-1c1.2-1.4,2.4-2.9,3.7-4.2c2-2,3.4-4.4,5.2-6.6c0.8-1,2.1-1.8,2.5-3.1c0,0,0,0,0,0c0.6-0.3,1.1-0.6,1.3-1.2
					c0,0,0,0,0,0C219.6,285.1,219.7,285,219.6,284.7z M227.6,285.1c-0.2-1.6-1.1-3.2-1.4-4.9c-0.1-0.6-0.5-0.5-0.8-0.3
					c-1.1,0.6-1.6,1.6-1.7,2.8c-1.4,2.1-1.2,2.4,1.6,2.9c0.6,0.1,1.3,0.2,1.9,0.3C228.1,286,227.9,285.6,227.6,285.1z M205.4,264.5
					c-0.3-1.4,0-2.7-0.7-4.4c-1.2,2.7-3,4.8-4.6,7.1c-0.6,0.6-1.3,1-2.1,1.3c-3.6,1.6-7.7,1.9-11.6,2.8c-3.9,0.9-7.9,1.5-12,2.2
					c-2,0.3-4,0.9-6.1,0.9c-1.8,0.1-3.7,0-5.6-0.4c-1.7-1.1-2.3-2.6-2.7-4.5c-1.2-5.3-1.8-11-1-16.9c0,0,0,0,0,0
					c0.2,0,0.2-0.2,0.2-0.3c0.2-0.6,0.6-1.2,0.5-2.1c-2.3,0.8-4.3,2.3-6.3,3.6c-0.1,0.1-0.2,0.2-0.3,0.3c0,0,0,0,0,0
					c-0.8-0.1-1.3,0.6-1.8,1c-4.6,3.5-7.9,8.1-10.8,12.7c-1.8,2.9-3.4,5.8-5.2,8.7c-1.6,2.7-3.9,4.6-7.2,5
					c-6.6,0.8-13.3,1.4-19.9,1.8c-5.1,0.3-10.1,0.7-15.3,0.7c-4.4-0.1-8.7-0.3-13.1-0.4c-3.5-0.1-7-0.1-10.4-0.4
					c-4.9-0.3-9.8-0.4-14.6,0.3c-4.5,0.6-8.6,2.4-12.7,4.2c0,0,0,0.1,0,0.2c0.2,0,0.4,0,0.6-0.1c5.7-0.9,11.5-0.7,17.2-0.8
					c3.6,0,7.2,0.3,10.8,0.2c2.9-0.1,5.7-0.6,8.7-0.3c5.5,0.5,11,1.3,16.6,1.9c0.8,0.1,1.6,0.1,2.3-0.1c4.4-1.3,9.1-1.1,13.8-0.9
					c5,0.3,9.9,0.3,14.7-0.3c1.9-0.2,3.5-1.3,5.2-1.6c4.4-0.7,8.9-1,13.5-1.3c4.1-0.3,8.2-1.1,12.1-2.5c0.7-0.3,1.4-0.7,1.7-1.5
					c0.4-1.2,1.2-1.5,2.3-1.6c5.6-0.5,11.2-0.7,16.7-1.5c2.8-0.4,5.7-0.8,7.7-3c0.5-0.6,1.4-0.7,2.2-0.8c3.6-0.3,7.2-0.9,10.7-1.6
					c2.2-0.4,4.1-1.4,5.6-2.9c0.8-0.8,1.5-1.7,1.4-3.1C205.8,265.7,205.6,265.1,205.4,264.5z M222.5,216.8c-0.3,0.9-0.3,2-0.4,3.1
					c-0.8,4.9-0.5,10.2,0.2,15.5c0.3,2.5,0.7,5,1.5,7.6c0.2,2.3,0.5,4.5,0.7,6.8c0.1,0.7,0.2,1.4,0.2,2.1c0,0.4,0.3,0.6,0.7,0.6
					c1.5,0.2,3.2,0.6,4.4,0.1c2.9-1.3,5.3-2.9,8.3-3.6c0.9-0.2,1.2-0.5-0.1-1.5c-0.6-0.4-0.7-1-1.1-1.5c-0.6-0.9-0.7-1.7-1.5-2.6
					c-0.7-1.4-1.3-2.8-2-4.3c-0.1-0.5-0.2-0.9-0.4-1.4c-0.9-2.5-1.2-4.8-2.4-7.6c-0.4-2-1.4-4.2-2.1-6.4c-0.4-1.3-0.6-2.7-1.5-4.2
					c0.2-0.7-0.3-1.8-0.6-2.9c-0.4-1.7-1.1-3.6-2-5.9C223.6,212.7,222.6,214.4,222.5,216.8z M205,309.5c0-1.8,0-3.6,0-5.4
					c0-0.9-0.4-0.8-1.2-0.6c-1.9,0.6-3.1,1.8-4.1,3.2c-0.7,0.6-1.5,1.2-2.2,1.8c-0.6,0.5-0.6,0.7,0.3,0.9c2.2,0.5,4.5,0.6,6.7,0.9
					C205.3,310.4,205,309.9,205,309.5z M267.8,260.1c-0.8-0.2-1.6-0.3-2.4-0.5c-1.9-0.4-3.8-0.9-5.8-1.4c-2.4-0.8-5-1.2-7.4-2.2
					c-0.8-0.3-1.6-0.6-2.3-1c-2-1.1-4-2.2-6.1-3.3c-0.1,0.6-0.4,1.1-1,1.5c-3.3,1.7-3.6,5.1-2.7,9.2c0.9-0.1,1.8,0,2.7,0.1
					c0.9,0.2,1.9,0.3,2.8,0.4c2.5,0.7,5,0.8,7.4,0.9c2,0.2,4.1,0.6,6,0.3c1.6-0.1,3.2-0.2,4.6-0.6c0.9,0,1.5-0.3,2.2-0.5
					c2.6-0.7,5.1-1.5,7.7-2.4C271.5,260.4,269.6,260.4,267.8,260.1z M97.2,296.6c0.5,1.2-0.8,2.2,0.1,3c0.8,0.7,2,0.6,3,1
					c0.8,0.3,1.1,0.1,1.2-0.7c0.2-1.7,1.3-2.8,1.9-4.2c0.1-0.3,0.3-0.7,0.8-0.3c0.3,0.2,0.2,0.6,0.1,0.9c-0.4,0.8-0.4,1.7-1,2.4
					c-0.5,0.6-0.4,1.5,0,2.2c0.3,0.6,0.9-0.1,1.3-0.1c1.4-0.2,2.7-0.2,4,0.8c0.5,0.4,1,0.5,1.4,0.3c1.2-0.7,2.5-0.5,3.8,0
					c3.7,1.2,7.2,1.4,10.7,0.1c3.5-1.3,7.3-1.4,11.1-2c2.1-0.3,4.5-0.1,6.4-1.2c2.8-1.8,5.6-1.5,8.5-0.3c0.4,0.2,0.8,0.3,1.2,0.2
					c1.7-0.5,3.5-0.7,5-1.7c1.7-1.1,3.5-1.4,5.4-1c3.5,0.7,6.8,0.7,10-0.9c0.6-0.3,1.2-0.5,1.9-0.8c5.6-2.5,11.3-4.7,16.4-7.8
					c0.8-0.5,1.8-0.6,2.6,0c0.7,0.5,1.1,0.4,1.6,0.1c2.2-1.5,4.4-2.9,6.5-4.3c1.1-0.8,3.6-0.8,4.7,0.3c1.1,1.1,1.6,0.7,2.1-0.1
					c2.3-3.6,5.7-6.3,8.7-9.2c2-2,4.4-3.6,6.2-5.6c1.7-1.8,3.8-3,7.2-2.2c0.4,0.1,0.9,0.1,1.1-0.2c0.7-0.8,1.8-1.3,2.2-2.4
					c0.6-2,2.1-3.5,3.5-4.8c0.5-0.5,0.8-1,1-1.6c0.5-2,1.4-3.6,3.4-4.5c0.5-0.2,1-0.6,0.8-1.2c-0.1-0.3-0.2-0.6-0.6-0.8
					c-0.4-0.2-0.5,0-0.6,0.1c-2.6,0.9-4.9,2.1-7.3,3.4c-1.8,1-3.8,1.7-6.7,1.2c-1.1-0.2-2,0.2-2.3,0.9c-0.5,1.3-0.8,2.8-1.4,4.2
					c-1.6,3.5-4.6,5.7-9.2,6.2c-1.9,0.2-3.8,0.4-5.6,1c-0.6,0.2-1.1,0.5-1.3,1.2c-1.2,2.9-3.7,4.5-6.7,5.2
					c-3.5,0.9-7.1,1.4-10.8,1.6c-1.2,0.1-2.3,0.3-3.1,1.3c-0.5,0.7-1.4,1-2.2,1.3c-3.9,1.6-8.2,1.6-12.4,2.1
					c-3.1,0.4-6.2,0.4-9.3,0.7c-0.7,0.1-1.5,0-1.8,0.9c-0.4,1.1-1.3,1.7-2.3,2.1c-3.8,1.5-7.9,2.2-12,2.7
					c-5.5,0.6-11.1,0.3-16.3,2.3c-3.1,1.2-6.5,1.1-9.8,1.3c-3.6,0.3-7.3-0.5-10.9-0.4c-3,0.1-6,0-8.9,0.6c-1.2,0.2-2.3,0.7-3.5,0.5
					c-4-0.6-8-0.6-12.1-1.4c-1.5-0.3-3-0.5-4.5-0.6c-5.7-0.1-11.2,0.5-17,0.2c-4.6-0.3-9.2-0.1-13.8,0c-5.3,0.2-10.3,1.5-15.4,2.9
					c-2.5,0.7-4.8,2-7.1,3.3c1.3,1.3,2.8,2,4.1,3c1.9,1.4,1.9,1.4,3.8,0.2c0.1-0.1,0.2-0.1,0.3-0.2c1.5-1.4,3.1-1.3,5-0.4
					c2.7,1.3,5.3,1.6,8.1,1c4.5-1,8.8-2.4,13.5-2.4c1.1,0,2,0.2,3,0.9c0.3,0.2,0.6,0.6,0.9,0.4c1.3-0.6,3-0.4,4.3-1
					c1.5-0.7,3.1-0.5,4.7,0.1c1.2,0.4,2.4,0.8,3.6,1.2c1.4,0.4,2.1,0,2.5-1.3c0.2-0.6,0.4-1.2,0.7-1.7c0.1-0.3,0.2-0.7,0.7-0.4
					c0.4,0.2,0.3,0.6,0.2,1c-0.1,0.2-0.1,0.4-0.2,0.6c-0.5,0.8-0.6,1.5,0.7,1.9c0.8,0.2,1.2,1.2,2.1,1.3c2.9,0.5,3.3,0.2,4.1-2.7
					c0,0,0-0.1,0-0.1c0.1-0.3,0.1-0.8,0.6-0.6c0.4,0.2,0.3,0.6,0.3,0.9c0,0.8-0.1,1.6-0.4,2.3c-0.7,1.3,0.5,1.5,1.1,1.8
					c0.6,0.4,1.2,0.3,1.4-0.6c0.2-0.8,0.3-1.6,1-2.2c0.8,0.8-0.3,1.2,0.2,2c0.7-0.4,1.5-0.4,2.4-0.2c0.6,0.1,0.7-0.3,0.8-0.7
					C96.5,298,96.6,297.2,97.2,296.6z M131.8,346.8c-0.7-1-1.5-1.6-2.2-2.2c-3.2-2.8-6.5-5.4-9.1-8.9c-2.6-3.6-5.6-7-8.2-10.7
					c-0.5-0.7-1-1.6-2.1-1.9C115.2,332.7,121.9,341.9,131.8,346.8z M223.2,255c-3.9,3.4-8.1,6.8-13.4,9.9
					C218.1,265.4,222.3,261.4,223.2,255z"/>
				<path class="st3" d="M97.2,296.6c-0.6,0.6-0.7,1.4-0.9,2.1c-0.1,0.5-0.2,0.9-0.8,0.7c-0.9-0.2-1.7-0.1-2.4,0.2
					c-0.5-0.8,0.6-1.2-0.2-2c-0.6,0.5-0.8,1.4-1,2.2c-0.2,0.9-0.7,1-1.4,0.6c-0.6-0.4-1.8-0.6-1.1-1.8c0.4-0.6,0.5-1.4,0.4-2.3
					c0-0.3,0.1-0.8-0.3-0.9c-0.5-0.2-0.5,0.3-0.6,0.6c0,0,0,0.1,0,0.1c-0.8,2.9-1.2,3.2-4.1,2.7c-0.8-0.1-1.3-1.1-2.1-1.3
					c-1.3-0.4-1.2-1.1-0.7-1.9c0.1-0.2,0.2-0.4,0.2-0.6c0.1-0.3,0.2-0.7-0.2-1c-0.4-0.3-0.6,0.2-0.7,0.4c-0.2,0.6-0.5,1.1-0.7,1.7
					c-0.4,1.3-1.1,1.7-2.5,1.3c-1.2-0.3-2.4-0.8-3.6-1.2c-1.6-0.6-3.2-0.8-4.7-0.1c-1.3,0.6-3,0.4-4.3,1c-0.4,0.2-0.6-0.2-0.9-0.4
					c-0.9-0.7-1.9-0.9-3-0.9c-4.7,0-9.1,1.4-13.5,2.4c-2.8,0.7-5.4,0.4-8.1-1c-1.8-0.9-3.5-1-5,0.4c-0.1,0.1-0.2,0.1-0.3,0.2
					c-1.9,1.2-1.9,1.2-3.8-0.2c-1.3-1-2.8-1.7-4.1-3c2.3-1.3,4.6-2.6,7.1-3.3c5-1.4,10.1-2.8,15.4-2.9c4.6-0.1,9.2-0.3,13.8,0
					c5.7,0.3,11.3-0.3,17-0.2c1.5,0,3,0.3,4.5,0.6c4,0.8,8,0.7,12.1,1.4c1.3,0.2,2.4-0.3,3.5-0.5c2.9-0.5,5.9-0.5,8.9-0.6
					c3.6-0.1,7.3,0.6,10.9,0.4c3.3-0.2,6.7-0.2,9.8-1.3c5.2-2,10.8-1.7,16.3-2.3c4.1-0.5,8.2-1.1,12-2.7c1-0.4,1.9-1,2.3-2.1
					c0.3-0.9,1.1-0.8,1.8-0.9c3.1-0.3,6.2-0.3,9.3-0.7c4.2-0.5,8.5-0.5,12.4-2.1c0.8-0.3,1.6-0.6,2.2-1.3c0.8-1,1.8-1.2,3.1-1.3
					c3.7-0.3,7.3-0.8,10.8-1.6c3-0.7,5.5-2.3,6.7-5.2c0.3-0.6,0.7-0.9,1.3-1.2c1.8-0.6,3.7-0.8,5.6-1c4.6-0.5,7.7-2.7,9.2-6.2
					c0.6-1.4,0.9-2.8,1.4-4.2c0.3-0.8,1.2-1.1,2.3-0.9c2.9,0.6,4.9-0.1,6.7-1.2c2.4-1.4,4.7-2.6,7.3-3.4c0.2-0.1,0.3-0.3,0.6-0.1
					c0.4,0.2,0.6,0.5,0.6,0.8c0.1,0.6-0.3,1-0.8,1.2c-2.1,0.9-3,2.5-3.4,4.5c-0.1,0.7-0.5,1.2-1,1.6c-1.4,1.4-2.8,2.8-3.5,4.8
					c-0.3,1-1.4,1.6-2.2,2.4c-0.2,0.3-0.7,0.3-1.1,0.2c-3.4-0.8-5.5,0.4-7.2,2.2c-1.9,2-4.2,3.6-6.2,5.6c-3,2.9-6.5,5.6-8.7,9.2
					c-0.5,0.8-1,1.2-2.1,0.1c-1.1-1.1-3.5-1.1-4.7-0.3c-2.1,1.5-4.3,2.9-6.5,4.3c-0.5,0.3-0.9,0.5-1.6-0.1c-0.9-0.7-1.8-0.5-2.6,0
					c-5.1,3.1-10.8,5.3-16.4,7.8c-0.6,0.3-1.2,0.5-1.9,0.8c-3.2,1.5-6.5,1.5-10,0.9c-1.9-0.4-3.7-0.1-5.4,1c-1.5,1-3.3,1.2-5,1.7
					c-0.5,0.1-0.8-0.1-1.2-0.2c-2.9-1.2-5.6-1.4-8.5,0.3c-1.8,1.1-4.2,0.9-6.4,1.2c-3.7,0.5-7.6,0.7-11.1,2c-3.5,1.3-7,1.1-10.7-0.1
					c-1.3-0.4-2.6-0.7-3.8,0c-0.5,0.3-0.9,0.2-1.4-0.3c-1.3-1.1-2.6-1-4-0.8c-0.5,0.1-1,0.7-1.3,0.1c-0.4-0.6-0.5-1.6,0-2.2
					c0.6-0.7,0.7-1.6,1-2.4c0.1-0.3,0.2-0.6-0.1-0.9c-0.4-0.3-0.6,0.1-0.8,0.3c-0.6,1.4-1.7,2.5-1.9,4.2c-0.1,0.8-0.5,1-1.2,0.7
					c-1-0.4-2.2-0.3-3-1C96.4,298.9,97.6,297.8,97.2,296.6z M46.2,295.1c1.4,0.2,2.8-0.6,2.9-1.7c0.1-1.4-1.4-2.9-3.1-3.2
					c-1.6-0.2-2.8,0.7-2.9,2C43.1,293.6,44.5,294.8,46.2,295.1z"/>
				<path class="st4" d="M118.4,330.5c-1.7-1.8-3.2-3.7-4.7-5.8c-2-2.7-4-5.3-6-7.9c-0.6-0.7-1.3-1.4-1.6-2.3
					c-0.3-0.7-0.7-0.8-1.3-0.5c-0.4-0.2-0.9-0.5-1.3-0.7c-0.2-0.8-0.2-1.6-0.3-2.4c-0.1-2.3-0.1-4.7-0.3-7c-0.1-1,0.2-1.4,1.1-1.6
					c1.5-0.4,2.9-0.7,4.5,0.7c0.5,0.5,1.1,0.4,1.6,0.1c1.2-0.7,2.7-0.5,4,0c3.8,1.4,7.3,1.2,10.9,0c4.9-1.6,10.1-1.7,15.2-2.6
					c1.1-0.2,2.1-0.5,3.1-1.1c1.5-1,3.3-1.2,4.9-0.4c2.8,1.4,5.5,0.9,7.7-0.5c3.2-2,6.4-1.5,9.7-1c1.7,0.3,3.2-0.2,4.6-0.7
					c4-1.4,8-3,11.6-5c1.5-0.8,3.1-1.4,4.6-2.1c1.4-0.6,2.8-1.3,3.9-2.2c0.8-0.6,1.5-0.9,2.4,0.2c0.5,0.6,1,0.4,1.5,0.1
					c2.6-1.3,4.8-3.1,7.2-4.6c1.3-0.8,2.7-0.7,4,0.5c0.9,0.9,2.3,0.6,3.2-0.6c0.6-1,1.3-1.9,2.2-2.7c1.3-1.3,2.8-2.5,4-3.9
					c2.7-3.2,6.4-5,8.7-8.1c0.7-1,1.8-1.7,2.8-2.3c0.7-0.5,1.8-0.2,2.8,0c1.4,0.2,2.2-0.2,3.1-0.9c2.1-1.6,2.6-3.9,4.3-5.4
					c0.2-0.2,0.3-0.6,0.9-0.6c0.3,2,0.6,3.8-1.3,5.3c-3.8,2.9-7.4,6.5-9.9,11.5c-0.3,0.6-0.7,1.1-1.4,1.4c-1.4,0.5-2.4,1.5-3.3,2.6
					c-1.4,0.8-2.2,2.1-3.2,3.2c-1.6,1.8-3.2,3.7-5.9,4.3c-3.9,0.9-6.8,2.9-9,5.9c-1.5,2.1-3.5,3.7-6.2,4.7c-1.3,0.5-2.5,1.1-3.7,1.6
					c-3.1,1.3-6,3-8.5,5.5c-2.3,2.2-5.3,3.7-8.5,4.2c-4.1,0.6-7.9,1.8-11.1,4.8c-2.5,2.4-5.5,3.2-8.8,3.3c-3.1,0.1-6,1-8.8,2.4
					c-1.9,1-3.9,1.8-6.1,1.6c-0.9-0.1-1.9,0-2.8-0.1c-0.7-0.5-1.5-0.7-2.3-0.8c-7.3-0.2-14.6-1-21.8-1.5c-0.6,0-1.1-0.7-1.9-0.1
					c0.9,0.3,1.7,0.6,2.4,0.8c3.5,0.8,7,1.1,10.4,1.8c3.2,0.6,6.4,0.3,9.6,1c-2.1,0.6-4.1,1.1-6.2,1.6c-0.7,0.2-1.2,0.4-1.1,1.3
					c-0.8,1.1-0.1,1.8,0.8,2.4c1.7,1,3.3,1.9,5.1,2.5c1.1,2.2,2.3,4.4,3.7,6.4c0.3,0.4,0.5,0.9,0.8,1.3c-3.6-0.7-7.2-1.5-10.8-2.6
					c-2.5-0.7-4.9-1.8-7-3.6C120,331.5,119.3,330.8,118.4,330.5z M119.2,327.1c0.6,0.1,0.8,0.1,1.1,0.2c0.7,0.1,1.3-0.1,1.4-0.9
					c0.1-0.9-0.5-1.4-1.2-1.6c-0.9-0.3-1.8-0.4-2.7-0.2c-0.5,0.1-0.8,0.4-0.8,1c0,0.6,0.3,1,0.8,1.2
					C118.4,326.9,118.9,327,119.2,327.1z"/>
				<path class="st5" d="M206,266.3c0.1,1.4-0.6,2.3-1.4,3.1c-1.5,1.5-3.3,2.4-5.6,2.9c-3.5,0.7-7.1,1.2-10.7,1.6
					c-0.8,0.1-1.6,0.2-2.2,0.8c-2,2.3-4.8,2.6-7.7,3c-5.5,0.8-11.1,1-16.7,1.5c-1.1,0.1-2,0.4-2.3,1.6c-0.2,0.8-0.9,1.2-1.7,1.5
					c-3.9,1.5-8,2.3-12.1,2.5c-4.5,0.3-9,0.7-13.5,1.3c-1.8,0.3-3.4,1.4-5.2,1.6c-4.9,0.6-9.8,0.6-14.7,0.3
					c-4.7-0.3-9.4-0.4-13.8,0.9c-0.7,0.2-1.5,0.2-2.3,0.1c-5.5-0.7-11-1.4-16.6-1.9c-2.9-0.3-5.8,0.3-8.7,0.3
					c-3.6,0.1-7.2-0.2-10.8-0.2c-5.8,0-11.6-0.1-17.2,0.8c-0.2,0-0.4,0-0.6,0.1c0-0.1,0-0.2,0-0.2c4.1-1.8,8.2-3.5,12.7-4.2
					c4.8-0.7,9.6-0.6,14.6-0.3c3.5,0.2,7,0.3,10.4,0.4c4.4,0.1,8.7,0.3,13.1,0.4c5.1,0.1,10.2-0.4,15.3-0.7c6.6-0.4,13.3-1,19.9-1.8
					c3.3-0.4,5.5-2.3,7.2-5c1.8-2.9,3.3-5.9,5.2-8.7c2.9-4.6,6.2-9.2,10.8-12.7c0.5-0.4,1-1.1,1.8-1c-2.8,5.7-4.8,11.3-6.5,16.7
					c-0.8,2.4-1.6,4.8-3.4,6.7c-0.4,0.4-1,0.7-0.6,1.4c0.4,0.7,1.1,0.5,1.6,0.4c1.5-0.2,3-0.7,4.4-1.3c0.6,0.2,1.1,0.2,1.6-0.1
					c4.1-1.7,8.3-2.8,12.5-3.9c1.9,0.4,3.8,0.4,5.6,0.4c2.1-0.1,4.1-0.6,6.1-0.9c4-0.7,8.1-1.2,12-2.2c3.9-0.9,8-1.2,11.6-2.8
					c0.8-0.3,1.5-0.7,2.1-1.3c1.6-0.1,3.4,0.5,4.3-1.1C205,266.4,205.5,266.4,206,266.3z"/>
				<path class="st6" d="M35.4,299.4c1.3-1.5,2.8-1.8,4.8-0.7c2.7,1.5,5.5,1.5,8.4,0.9c4.3-0.9,8.4-2.3,12.9-2.4c1.1,0,2.2,0,3.1,1
					c0.5,0.6,1.1,0.5,1.6,0.3c1.6-0.8,3.6-0.5,5.2-1.4c0.5-0.3,1.2-0.3,1.9-0.1c1.8,0.6,3.5,1.3,5.3,1.9c-0.2,3-0.2,6,0.1,9.1
					c-1.7-0.2-3.5-0.4-5.2-0.5c-1.5-0.1-2,1.2-1.1,2.6c0.3,0.5,0.7,0.9,1,1.3c2.2,2.5,4.9,4.3,7.5,6.3c0.4,1.5,1,2.7,2.7,2.7
					c1.9,1.4,4.1,1.8,6.1,2.8c0,0,0.1,0,0.1,0c0.5,0.3,0.9,0.6,1.4,0.8c2.6,1,5,2.4,7.5,3.6c-4.5-0.4-9-1.4-13.5-2.8
					c-4.3-1.3-8.6-1.9-12.9-2.4c-2.4-0.2-4.7,0-7.2-0.8c-2.2-0.7-4.3-1.3-6.5-1.9c-0.8-0.9-1.8-1.7-2.4-2.8c0.7-0.1,1.3,0.3,1.8,0.5
					c1.1,0.4,1.9,0.2,2.3-0.7c0.3-0.7,0.8-0.8,1.5-0.6c1.1,0.3,2.2,0.3,3.3,0.7c1.2,0.4,2.9-0.5,3.2-1.6c0.3-1.2-0.2-2.1-1.6-3.2
					c-2-1.5-4.2-2.7-6.4-4c-0.3-0.8-0.9-1.2-1.6-1.4C51.1,303.7,43.3,301.2,35.4,299.4z"/>
				<path class="st7" d="M218.1,286.3c-0.5,1.3-1.7,2-2.5,3.1c-1.8,2.2-3.2,4.5-5.2,6.6c-1.3,1.3-2.5,2.8-3.7,4.2
					c-0.5,0.6-1.2,0.9-2,1c-3.1,0.4-5.1,2.1-7.1,4.1c-2,2-4.3,3.8-6.8,5.5c-2.8,1.9-5.5,4.1-8.5,6c-3.3,2.1-6.3,4.6-9.9,6.2
					c-2.6,1.2-4.9,2.9-7.5,4.1c-3.1,1.4-6.1,2.8-9.3,3.9c-1.8,0.6-3.3,1.7-5.2,2.1c-2.7,0.5-5.3,0.7-8,0.9c-0.9,0.1-1.8-0.2-2.5,0.6
					c-0.3,0.3-0.5,0-0.7-0.3c-0.7-1.2-1.4-2.4-2.1-3.6c-0.4-0.7,0.1-0.9,0.5-1.1c0.9-0.6,1.9-1.3,2.3-2.5c2-0.2,4-0.3,5.9-0.8
					c5-1.3,9.8-3.2,14.7-5c5.4-2,10.6-4.5,15.6-7.2c7.8-4.3,15.3-8.7,22.4-13.1c6.1-3.7,11.3-7.7,16.1-12.2
					C215.6,287.9,216.7,286.9,218.1,286.3z"/>
				<path class="st8" d="M218.1,286.3c-1.4,0.6-2.4,1.7-3.5,2.6c-4.8,4.5-10,8.5-16.1,12.2c-7.1,4.3-14.6,8.8-22.4,13.1
					c-5,2.7-10.2,5.2-15.6,7.2c-4.9,1.8-9.8,3.7-14.7,5c-1.9,0.5-4,0.6-5.9,0.8c-0.1-1.9,0.4-3.8-0.8-5.6c0.9,0,1.9,0,2.8,0.1
					c2.2,0.1,4.2-0.6,6.1-1.6c2.7-1.5,5.7-2.4,8.8-2.4c3.3-0.1,6.3-0.9,8.8-3.3c3.2-3,7-4.2,11.1-4.8c3.3-0.5,6.3-2,8.5-4.2
					c2.5-2.4,5.3-4.1,8.5-5.5c1.3-0.5,2.4-1.2,3.7-1.6c2.7-1,4.7-2.6,6.2-4.7c2.2-3,5.1-5,9-5.9c2.6-0.6,4.2-2.5,5.9-4.3
					c1-1.1,1.9-2.4,3.2-3.2c0,1.5-0.8,2.5-1.3,3.7c-0.2,0.1-0.3,0.2-0.3,0.4c0,0,0,0,0,0c-0.3,0-0.5,0.2-0.5,0.4c0,0,0,0,0,0
					c-0.3,0-0.4,0.2-0.3,0.4c0,0,0,0,0,0C218.6,285.2,218,285.5,218.1,286.3C218.1,286.3,218.1,286.3,218.1,286.3z"/>
				<path class="st7" d="M162.7,274.2c-4.2,1.2-8.4,2.3-12.5,3.9c-0.5,0.2-1.1,0.3-1.6,0.1c0.7-1,0.8-2.2,1.1-3.3
					c0.8-3.9,1.3-7.8,2.8-11.8c1.4-3.9,3.5-7.5,6.6-10.3c-0.8,6-0.2,11.6,1,16.9C160.4,271.5,161.1,273.1,162.7,274.2z"/>
				<path class="st9" d="M98.7,327.7c-2.5-1.2-4.9-2.6-7.5-3.6c-0.5-0.2-1-0.5-1.4-0.8c1-0.1,0.6-1,0.4-1.5
					c-1.2-3.3-1.3-6.5-1.7-9.8c-0.1-1-0.1-1.9-0.1-2.8c0.5,0.1,1,0.2,1.5,0.3c0.1,0.8,0.2,1.5,0.3,2.3c0.3,3,0.7,6.1,1.8,9.1
					c0.4,1.1,0.9,1.7,2,1.6c0.5,0.5,0.7,1.7,1.3,1.5c0.7-0.2,0.1-1.3-0.1-1.9c-1-4-1.6-7.9-2-11.9c0.3,0.1,0.7,0.1,1,0.2
					c0.1,1.3,0.3,2.6,0.3,3.9c0,2.5,0.6,5,1.2,7.5c0.2,0.8,0.6,1.3,1.4,1.4c0.4,0.7,0.7,1.3,1.1,2c0.2,0.4,0.6,0.9,1.1,0.7
					c0.4-0.1,0.2-0.7,0.1-1.1c-0.4-1.7-0.9-3.4-1.1-5.1c-0.4-2.9-1-5.9-1.1-8.8c0.8,0.1,1.7,0.2,2.5,0.2c-0.2,2.5,0.4,5.1,0.6,7.6
					c0.1,1.5,0.2,3,0.8,4.6c0.4,0.9,0.8,1.7,1.9,1.5c0.3,0.4,0.5,0.8,0.8,1.2c0.4,0.5,0.8,1,1.3,0.7c0.5-0.2,0.3-0.9,0.1-1.3
					c-0.9-1.8-1-3.6-1.3-5.5c-0.3-2.1-0.6-4.3-0.4-6.4c0.4,0.2,0.9,0.5,1.3,0.7c0.8,2.7,1.8,5.3,2.8,8c0.8,2.2,1.7,4.3,2.9,6.3
					C106.5,328.5,102.7,328.8,98.7,327.7z"/>
				<path class="st6" d="M227.1,219.2c0.9,1.5,1.1,2.9,1.5,4.2c0.7,2.2,1.7,4.4,2.1,6.4c-0.2,0-0.4,0-0.5,0.1
					c-2.1,2.3-5.7,3-7.9,5.5c-0.8-5.3-1-10.6-0.2-15.5C223.9,220,225.4,219.4,227.1,219.2z"/>
				<path class="st3" d="M222.3,235.4c2.1-2.5,5.7-3.2,7.9-5.5c0.1-0.1,0.4-0.1,0.5-0.1c1.2,2.8,1.5,5.2,2.4,7.6
					c0.2,0.5,0.3,1,0.4,1.4c-3,0.8-5.5,2.2-8.4,3.5c-0.4,0.2-0.6,0.7-1.3,0.6C223,240.4,222.5,237.9,222.3,235.4z"/>
				<path class="st10" d="M98.7,327.7c4,1,7.8,0.7,11.7,0.6c0.7,0.8,1.1,1.8,1.5,2.7c-0.3,0-0.6,0.1-0.9,0.1
					c-4.1,0.2-8.1,0.1-12.3-0.6c-4.2-0.8-8.4-1.5-12.6-2.8c-2.6-0.8-5.1-2-7.7-2.4c-2.3-0.3-4.5-0.8-6.8-1
					c-3.6-0.3-7.1-1.5-10.6-2.4c-1-0.5-1.8-1.2-2.4-2.2c2.2,0.6,4.3,1.2,6.5,1.9c2.4,0.8,4.8,0.6,7.2,0.8c4.3,0.4,8.6,1,12.9,2.4
					C89.7,326.4,94.2,327.3,98.7,327.7z"/>
				<path class="st11" d="M61.1,322.1c3.5,0.8,7.1,2.1,10.6,2.4c2.3,0.2,4.5,0.6,6.8,1c2.6,0.4,5.1,1.6,7.7,2.4
					c4.2,1.3,8.4,2,12.6,2.8c4.2,0.8,8.2,0.8,12.3,0.6c0.3,0,0.6-0.1,0.9-0.1c0.6,0.7,1.2,1.5,1.8,2.2c0.6,0.7,0.5,0.9-0.3,1
					c-2.8,0.3-5.7,0.1-8.6-0.3c-9.3-1.4-18.7-3.7-27.7-6.4c-4.9-1.4-9.9-2.6-14.7-4.8C61.9,322.6,61.3,322.6,61.1,322.1z"/>
				<path class="st10" d="M159.1,252.7c-3.1,2.7-5.1,6.3-6.6,10.3c-1.5,4-2,7.9-2.8,11.8c-0.2,1.1-0.4,2.3-1.1,3.3
					c-1.4,0.6-2.9,1-4.4,1.3c-0.6,0.1-1.3,0.3-1.6-0.4c-0.4-0.7,0.2-1,0.6-1.4c1.8-1.9,2.6-4.3,3.4-6.7c1.8-5.4,3.7-11,6.5-16.7
					c0,0,0,0,0,0c0.2,0,0.3-0.1,0.3-0.3c2.1-1.3,4-2.7,6.3-3.6c0,0.9-0.3,1.5-0.5,2.1C159.2,252.5,159.1,252.6,159.1,252.7
					C159,252.7,159,252.7,159.1,252.7z"/>
				<path class="st12" d="M150.8,354.6c-0.5,0.2-0.9-0.1-1.4-0.2c-5.4-1.5-10.3-4.5-14.9-8.2c-3.2-2.5-6.4-5.1-9.5-7.8
					c0.2,0,0.3,0,0.5,0.1c3.8,1.5,7.6,2.9,11.5,4.1c2,0.6,3.8,1.5,5.9,1.7C145.8,347.7,148.4,351.1,150.8,354.6
					C150.8,354.6,150.8,354.6,150.8,354.6z"/>
				<path class="st13" d="M235.4,243.2c0.8,0.9,0.9,1.8,1.5,2.6c0.3,0.5,0.5,1,1.1,1.5c1.3,1,0.9,1.3,0.1,1.5
					c-3,0.8-5.4,2.4-8.3,3.6c-1.2,0.5-2.8,0.1-4.4-0.1c-0.4,0-0.7-0.3-0.7-0.6c-0.1-0.7-0.2-1.4-0.2-2.1c1.5-1.1,3.1-2,4.6-2.9
					C231.3,245.5,233.3,244.3,235.4,243.2z"/>
				<path class="st12" d="M242.8,262.6c-0.9-0.1-1.8-0.3-2.7-0.1c-1-4.2-0.6-7.5,2.7-9.2c0.6-0.3,0.9-0.8,1-1.5
					c2.1,1.1,4.1,2.2,6.1,3.3c-1.8,1.6-3.6,3.4-5.4,5.4C243.9,261.1,243,261.6,242.8,262.6z"/>
				<path class="st14" d="M253.1,263.9c-2.4-0.1-4.9-0.2-7.4-0.9c0.7-0.8,1.5-1.6,2.2-2.3c1.5-1.7,3.2-3.1,4.4-4.7
					c2.4,1,5,1.4,7.4,2.2c-0.3,0.5-0.7,0.9-1.2,1.3c-1.6,1.1-3.2,2.3-4.8,3.6C253.3,263.3,253,263.5,253.1,263.9z"/>
				<path class="st15" d="M235.4,243.2c-2.1,1.1-4.1,2.4-6.3,3.6c-1.5,0.9-3.1,1.8-4.6,2.9c-0.2-2.3-0.5-4.5-0.7-6.8
					c0.7,0.1,0.9-0.4,1.3-0.6c2.8-1.3,5.4-2.7,8.4-3.5C234.1,240.3,234.7,241.8,235.4,243.2z"/>
				<path class="st10" d="M142.9,344.3c-2-0.2-3.9-1.1-5.9-1.7c-3.8-1.2-7.6-2.7-11.5-4.1c-0.2-0.1-0.3,0-0.5-0.1
					c-2.6-2.3-4.6-5.1-6.7-7.9c0.9,0.2,1.6,1,2.4,1.6c2.1,1.8,4.5,2.8,7,3.6c3.6,1,7.2,1.9,10.8,2.6
					C140.2,340.2,141.6,342.2,142.9,344.3z"/>
				<path class="st9" d="M35.4,299.4c7.9,1.8,15.7,4.3,23.5,7.4c0.7,0.3,1.3,0.7,1.6,1.4c-1.2-0.5-2.5-0.9-3.7-1.5
					c-1-0.5-1.8-0.3-2.2,0.7c-0.2,0.7-0.6,0.6-1.2,0.3c-0.9-0.5-1.8-0.9-2.8-0.9c-0.5,0-1.1,0-1.2,0.5c-0.3,1.2-1,0.5-1.7,0.3
					c-1.6-0.5-3.1-1.6-5-1.4c-0.9,0.1-2-1.3-3-2c-1.5-1.1-2.9-2.3-4.4-3.3C34.3,300.1,34.3,299.7,35.4,299.4z"/>
				<path class="st10" d="M253.1,263.9c-0.1-0.4,0.2-0.6,0.5-0.9c1.6-1.3,3.2-2.5,4.8-3.6c0.5-0.4,1-0.8,1.2-1.3
					c1.9,0.5,3.8,1,5.7,1.4c-0.4,0.1-0.9,0.2-1.2,0.4c-2,1.2-3.7,2.5-5.1,4.2C257.2,264.4,255.1,264.1,253.1,263.9z"/>
				<path class="st16" d="M131.8,346.8c-9.9-4.9-16.7-14.1-21.5-23.7c1.1,0.3,1.6,1.2,2.1,1.9c2.6,3.7,5.5,7.1,8.2,10.7
					c2.6,3.5,5.9,6.2,9.1,8.9C130.4,345.2,131.2,345.8,131.8,346.8z"/>
				<path class="st5" d="M223.2,255c-0.9,6.4-5.1,10.4-13.4,9.9C215.1,261.8,219.3,258.3,223.2,255z"/>
				<path class="st10" d="M252.3,256c-1.2,1.6-2.9,3-4.4,4.7c-0.7,0.8-1.5,1.5-2.2,2.3c-0.9-0.1-1.9-0.3-2.8-0.4
					c0.1-1,1.1-1.5,1.6-2.1c1.8-2,3.6-3.8,5.4-5.4C250.7,255.4,251.5,255.7,252.3,256z"/>
				<path class="st13" d="M81.9,308.4c-0.5-1.7-0.6-3.4-0.8-5.1c-0.1-1.2-0.3-2.3-0.2-3.4c0-1.5,0.9-1.9,2.1-0.8
					c1,0.9,1.9,1.2,3,1.2c-0.4,2.9-0.7,5.7-1.1,8.6C83.9,308.7,82.9,308.5,81.9,308.4z"/>
				<path class="st15" d="M259.1,264.2c1.4-1.7,3.2-3,5.1-4.2c0.3-0.2,0.8-0.3,1.2-0.4c0.8,0.1,1.6,0.3,2.4,0.5
					c-1.4,1.1-2.7,2.3-4.1,3.5C262.3,264.1,260.7,264.2,259.1,264.2z"/>
				<path class="st16" d="M102.9,324.7c-1.1,0.3-1.6-0.6-1.9-1.5c-0.6-1.5-0.7-3.1-0.8-4.6c-0.2-2.5-0.8-5.1-0.6-7.6
					c0.2-1,0.2-1.9,0.1-3c-0.2-2.1-0.3-4.2,0.1-6.2c0.9,0,1,0.6,1,1.4c0.1,4.8-0.1,9.6,0.7,14.6C102,320.1,102.5,322.4,102.9,324.7z
					"/>
				<path class="st16" d="M78.6,308c-0.3-3.1-0.2-6.1-0.1-9.1c1.1-0.1,1.4,0.4,1.3,1.6c-0.2,4.6,0.1,9.2,1.5,14
					c0.6,1.9,1.5,3.6,2.6,5.3c-0.1,0.3-0.3,0.5-0.4,0.8c-1.7,0-2.3-1.3-2.7-2.7C80,314.6,79.3,311.3,78.6,308z"/>
				<path class="st9" d="M83.5,320.6c0.1-0.3,0.3-0.5,0.4-0.8c0.4,0.2,0.7,0.8,1.1,0.5c0.4-0.3,0.1-0.9-0.1-1.4
					c-1.6-3.4-2.4-7-3-10.6c1,0.1,2,0.3,3,0.4c0,0.5,0,1.1,0.1,1.6c0,3.1,0.6,6.2,1.6,9.3c0.3,0.8,0.6,1.7,1.7,1.8
					c0.5,0.6,0.9,1.2,1.4,1.8C87.6,322.4,85.4,322,83.5,320.6z"/>
				<path class="st16" d="M94,322.5c-1.1,0.1-1.6-0.5-2-1.6c-1.1-3-1.5-6-1.8-9.1c-0.1-0.8-0.2-1.5-0.3-2.3c0.2-2.6-0.4-5.3,0.1-7.8
					c1.1,0.2,1.6,0.4,1.5,1.9c-0.6,6.2,0.1,12.4,2.5,18.6C93.9,322.3,93.9,322.4,94,322.5z"/>
				<path class="st13" d="M99.9,301.9c-0.5,2-0.4,4.1-0.1,6.2c0.1,1.1,0.1,2-0.1,3c-0.8-0.1-1.7-0.2-2.5-0.2
					c-0.4-2.9-0.3-5.6-0.6-8.5c-0.1-1.1,0.3-1.4,1.3-1.1C98.5,301.5,99.2,301.4,99.9,301.9z"/>
				<path class="st16" d="M88.2,321.5c-1.1-0.1-1.4-1-1.7-1.8c-1-3.1-1.6-6.2-1.6-9.3c0-0.5,0-1.1-0.1-1.6c0.4-2.9,0.7-5.7,1.1-8.6
					c1.7-0.1,2,0,1.4,1.6c-1.9,5.4-0.9,11.2-0.1,17.1C87.4,319.8,87.8,320.6,88.2,321.5z"/>
				<path class="st13" d="M263.7,263.7c1.4-1.3,2.7-2.4,4.1-3.5c1.9,0.3,3.7,0.3,5.8,0.6c-2.6,0.9-5.1,1.7-7.7,2.4
					C265.2,263.3,264.6,263.7,263.7,263.7z"/>
				<path class="st16" d="M97,323.1c-0.8-0.1-1.2-0.6-1.4-1.4c-0.6-2.5-1.2-5-1.2-7.5c0-1.3-0.2-2.6-0.3-3.9
					c-0.1-3.2-0.1-6.4,0.5-9.5c0.4,0,1.2-0.6,1,0.6c-1.2,6.9-0.3,14.1,1.3,21.3C97,322.8,97,323,97,323.1z"/>
				<path class="st10" d="M128.2,325.8c-0.1-0.9,0.4-1.1,1.1-1.3c2.1-0.5,4.1-1,6.2-1.6c2.2,0,2.2,0,1.9,2.9
					c-2.1,0.5-4.3,0.7-6.5,0.6C130,326.4,129,326.5,128.2,325.8z"/>
				<path class="st9" d="M128.2,325.8c0.8,0.8,1.8,0.6,2.7,0.6c2.2,0.1,4.4-0.1,6.5-0.6c0.1,0.5-0.1,0.8-0.5,1.1
					c-0.5,0.3-1,0.7-1.6,1c-1.1,0.6-1.4,1.5-1.3,2.7c-1.8-0.6-3.4-1.5-5.1-2.5C128,327.6,127.3,326.9,128.2,325.8z"/>
				<path class="st9" d="M199.8,306.6c1-1.4,2.2-2.6,4.1-3.2c0.7-0.2,1.2-0.3,1.2,0.6c-0.1,1.8,0,3.6,0,5.4c-1-0.4-1.7-1.1-2.5-1.8
					C201.8,307.1,200.9,306.7,199.8,306.6z"/>
				<path class="st10" d="M199.8,306.6c1.1,0,2,0.4,2.8,1.1c0.8,0.7,1.5,1.4,2.5,1.8c0,0.3,0.3,0.8-0.5,0.7
					c-2.2-0.3-4.5-0.3-6.7-0.9c-0.8-0.2-0.9-0.4-0.3-0.9C198.3,307.9,199,307.2,199.8,306.6z"/>
				<path class="st9" d="M227.1,219.2c-1.7,0.2-3.2,0.8-5,0.7c0.1-1,0.1-2.2,0.4-3.1c1.4,0,2.4-0.7,4-0.4
					C226.8,217.4,227.3,218.5,227.1,219.2z"/>
				<path class="st16" d="M204.4,266.2c-0.9,1.6-2.8,1-4.3,1.1c1.6-2.3,3.3-4.4,4.6-7.1c0.6,1.7,0.4,3,0.7,4.4
					C205.1,265,204.7,265.6,204.4,266.2z"/>
				<path class="st13" d="M226.5,216.4c-1.6-0.3-2.6,0.4-4,0.4c0.1-2.4,1.1-4.1,2-6.3C225.3,212.8,226,214.6,226.5,216.4z"/>
				<path class="st13" d="M94.6,300.8c-0.6,3.1-0.6,6.3-0.5,9.5c-0.3-0.1-0.7-0.1-1-0.2c-0.3-0.5-0.2-1.1-0.3-1.6
					c-0.1-2-0.2-4-0.2-6C92.8,301.4,93.8,301.1,94.6,300.8z"/>
				<path class="st13" d="M89.9,301.7c-0.5,2.5,0.1,5.3-0.1,7.8c-0.5-0.1-1-0.2-1.5-0.3c-0.4-2.6,0.2-5.1,0.4-7.6
					C88.8,300.5,89.4,300.9,89.9,301.7z"/>
				<path class="st9" d="M223.7,282.7c0.1-1.2,0.6-2.2,1.7-2.8c0.4-0.2,0.7-0.3,0.8,0.3c0.3,1.7,1.2,3.3,1.4,4.9
					C226.3,284.3,225,283.5,223.7,282.7z"/>
				<path class="st16" d="M223.7,282.7c1.3,0.8,2.6,1.6,4,2.4c0.3,0.5,0.5,1-0.5,0.8c-0.6-0.1-1.3-0.2-1.9-0.3
					C222.4,285.1,222.3,284.8,223.7,282.7z"/>
				<path class="st9" d="M204.4,266.2c0.3-0.6,0.6-1.1,0.9-1.6c0.2,0.6,0.4,1.2,0.6,1.7C205.5,266.4,205,266.4,204.4,266.2z"/>
				<path class="st7" d="M218.1,286.3c0-0.8,0.5-1.1,1.3-1.2C219.2,285.7,218.6,286,218.1,286.3z"/>
				<path class="st7" d="M219.6,284.7c0-0.3,0.2-0.4,0.5-0.4C220.1,284.6,220.1,284.8,219.6,284.7z"/>
				<path class="st7" d="M219.3,285.1c-0.1-0.2,0-0.4,0.3-0.4C219.7,285,219.6,285.1,219.3,285.1z"/>
				<path class="st7" d="M220.1,284.3c0-0.2,0-0.4,0.3-0.4C220.4,284,220.4,284.2,220.1,284.3z"/>
				<path class="st5" d="M153.4,253.9c-0.1,0.2-0.1,0.3-0.3,0.3C153.2,254.1,153.3,254,153.4,253.9z"/>
				<path class="st7" d="M159,252.7c0.1-0.1,0.1-0.2,0.2-0.3C159.2,252.6,159.2,252.7,159,252.7z"/>
				<path class="st12" d="M150.8,354.6c0,0,0.1,0,0.1,0.1c0,0,0,0,0,0.1C150.9,354.7,150.9,354.7,150.8,354.6
					C150.8,354.6,150.8,354.6,150.8,354.6z"/>
				<path class="st2" d="M46.2,295.1c-1.7-0.2-3-1.4-3-2.8c0-1.4,1.3-2.3,2.9-2c1.7,0.2,3.1,1.7,3.1,3.2
					C49,294.5,47.6,295.3,46.2,295.1z"/>
				<path class="st16" d="M119.2,327.1c-0.2-0.1-0.8-0.2-1.3-0.4c-0.5-0.2-0.8-0.6-0.8-1.2c0-0.6,0.3-0.9,0.8-1
					c0.9-0.2,1.8,0,2.7,0.2c0.7,0.2,1.3,0.7,1.2,1.6c-0.1,0.8-0.7,0.9-1.4,0.9C120,327.2,119.7,327.2,119.2,327.1z"/>
				<path class="st15" d="M78.6,308c0.7,3.3,1.5,6.5,2.2,9.8c-2.5-2.1-5.3-3.8-7.5-6.3c-0.4-0.4-0.7-0.9-1-1.3
					c-0.9-1.4-0.4-2.6,1.1-2.6C75.1,307.6,76.8,307.9,78.6,308z"/>
			</g>
		</g>
	</g>
</g>
</svg>
