<?xml version="1.0" encoding="utf-8"?>
<!-- Generator: Adobe Illustrator 23.0.4, SVG Export Plug-In . SVG Version: 6.00 Build 0)  -->
<svg version="1.1" id="Capa_1" xmlns="http://www.w3.org/2000/svg" xmlns:xlink="http://www.w3.org/1999/xlink" x="0px" y="0px"
	 viewBox="0 0 1440 505" style="enable-background:new 0 0 1440 505;" xml:space="preserve">
<style type="text/css">
	.st0{fill:#3E476C;}
	.st1{fill:#204478;}
	.st2{fill:#09B3AD;}
	.st3{fill:#1B3E74;}
	.st4{fill:#1D4076;}
	.st5{fill:#193E74;}
	.st6{fill:#274D80;}
	.st7{fill:#0483C4;}
	.st8{fill:#D6F0DD;}
	.st9{fill:#F38283;}
	.st10{fill:#21457A;}
	.st11{fill:#EF8283;}
	.st12{fill:#D9F5DE;}
	.st13{fill:#06AFDD;}
	.st14{fill:#D8F4DE;}
	.st15{filter:url(#Adobe_OpacityMaskFilter);}
	.st16{clip-path:url(#SVGID_3_);}
	.st17{clip-path:url(#SVGID_5_);}
	.st18{mask:url(#SVGID_1_);}
	.st19{filter:url(#Adobe_OpacityMaskFilter_1_);}
	.st20{enable-background:new    ;}
	.st21{clip-path:url(#SVGID_9_);}
	.st22{clip-path:url(#SVGID_11_);}
	.st23{clip-path:url(#SVGID_15_);}
	.st24{filter:url(#Adobe_OpacityMaskFilter_2_);}
	.st25{clip-path:url(#SVGID_17_);}
	.st26{clip-path:url(#SVGID_21_);}
	.st27{clip-path:url(#SVGID_25_);}
	.st28{clip-path:url(#SVGID_29_);}
	.st29{clip-path:url(#SVGID_33_);}
	.st30{clip-path:url(#SVGID_37_);}
	.st31{fill:#D9F5DE;stroke:#3E476C;stroke-width:3;stroke-miterlimit:10;}
	.st32{clip-path:url(#SVGID_41_);}
	.st33{fill:#3A496F;}
	.st34{fill:#02B7D5;}
	.st35{fill:#1F4277;}
	.st36{fill:#A3C1BF;}
	.st37{fill:#1E3F75;}
	.st38{fill:#173971;}
	.st39{fill:#244478;}
	.st40{fill:#DD8285;}
	.st41{fill:#042163;}
	.st42{fill:#507191;}
	.st43{fill:#155B82;}
	.st44{fill:#0B83C3;}
	.st45{fill:#05B2AD;}
	.st46{fill:#D4E9DD;}
	.st47{fill:#DFF2E2;}
	.st48{fill:#EF8383;}
	.st49{fill:#D9F6DE;}
	.st50{clip-path:url(#SVGID_45_);}
	.st51{clip-path:url(#SVGID_47_);}
	.st52{fill:#F3835E;}
	.st53{fill:#91E68A;}
	.st54{fill:#01B8D6;}
	.st55{fill:#02B8D6;}
	.st56{fill:#EE595E;}
	.st57{fill:#EC595E;}
	.st58{fill:#91E58A;}
	.st59{fill:#FBB86B;}
	.st60{fill:#D5F2DB;}
	.st61{fill:#C7F1DE;}
	.st62{fill:#1B3C73;}
	.st63{fill:#D8F2DD;}
	.st64{fill:#1E4276;}
	.st65{fill:#1D3E74;}
	.st66{fill:#234679;}
	.st67{fill:#02B9D7;}
	.st68{fill:#05B0DE;}
	.st69{fill:#D9F4DE;}
	.st70{fill:#05B3AD;}
	.st71{fill:#F28383;}
	.st72{fill:#F18282;}
	.st73{fill:#EE8383;}
	.st74{fill:#1E3D73;}
	.st75{fill:#25477A;}
	.st76{fill:#E68384;}
	.st77{fill:#193A71;}
	.st78{fill:#D9F3DE;}
	.st79{fill:#CFEEDC;}
	.st80{fill:#26477A;}
	.st81{fill:#27497C;}
	.st82{fill:#08B1DF;}
	.st83{fill:#09AFDD;}
	.st84{fill:#DFF7DF;}
	.st85{fill:#0782C2;}
	.st86{fill:#0E84C3;}
</style>
<g>
	<g>
		<path class="st0" d="M158.3,460.2c-2.4,0-4.7-0.2-6.9-0.5c-4.8-0.8-9.9-1-14.8-1.3l-1.9-0.1c-7.6-0.4-14.5-2.7-20.6-6.9
			c-0.6-0.4-1.2-0.6-2.4-0.6l-0.6,0c-5.8,0-11.8,1.2-17,2.3c-5.2,1.1-10.4,1.6-15.6,1.6c-7.5,0-15-1.1-22.5-3.2
			c-6.7-1.9-14.7-4.1-23-5.6c-3.2-0.6-4.8-2.1-4.8-4.6c0-1,0.4-4.3,4.9-5.1c1.5-0.3,2.9-0.5,4.4-0.7c2.3-0.4,4.6-0.7,6.8-1.2
			c1.4-0.3,2.7-0.7,4.1-1.2c-2.2,0-4,0-5.7-0.1l-0.5,0c-7-0.2-14.2-0.4-21.2-2.5c-1.1-0.3-2.3-0.8-3.5-1.4c-2.3-1.1-3.4-3.3-2.9-5.6
			c0.2-0.8,1.2-3.6,5-3.6c6.1,0,12.3-1.3,18.3-2.5l0.2,0c1.7-0.3,3.3-0.7,5-1c4.2-0.8,7.6-2.5,10.2-5c1.2-1.1,2.5-1.7,3.9-1.7
			c0.8,0,1.6,0.2,2.3,0.6c5,2.4,10.4,3.2,16.1,4.1c2.6,0.4,5.2,0.8,7.8,1.3c6.7,1.4,13.6,2.1,20.5,2.1c4.2,0,8.4-0.3,12.6-0.8l0.3,0
			c0.5-0.1,1.1-0.1,1.7-0.1c1.3,0,2.4,0.3,3.2,1.1c0.7,0.6,1.5,1.6,1.6,3.4c0.1,1.6-0.6,2.7-1.1,3.3c-1.5,1.6-3.7,1.7-4.9,1.7
			c-4.2,0.1-8,1.7-12.7,4.2c-2.1,1.1-4.3,2.1-6.5,2.9c5.9-0.2,11.7-0.4,17.2-0.6c1.3,0,2.7-0.1,4-0.4c1.2-0.3,2.4-0.4,3.6-0.4
			c3.5,0,6.9,1.3,10.1,3.8c4.3,3.5,9.5,4.9,15.1,6.5l0.2,0.1c2.4,0.7,4.9,0.9,7.5,1.1l0.2,0c0.7,0.1,1.5,0.1,2.2,0.2
			c2.7,0.3,5.3,1.1,7.8,1.8c1.1,0.3,2.3,0.7,3.4,1c2.9,0.7,5.7,1.4,8.6,2l0.1,0c1,0.2,4.2,0.9,4.3,4.5c0.1,2.5-1.5,4.2-4.4,4.8
			l-1.5,0.3C170.6,459,164.6,460.2,158.3,460.2z"/>
		<path class="st0" d="M57.2,411.1c0.6,0,1.1,0.1,1.7,0.4c5.2,2.5,10.7,3.4,16.5,4.2c2.5,0.4,5.1,0.7,7.7,1.3
			c6.9,1.4,13.8,2.1,20.8,2.1c4.3,0,8.5-0.3,12.8-0.8l0.3,0c0.5-0.1,1-0.1,1.5-0.1c0.8,0,1.6,0.2,2.3,0.7c0.4,0.4,1,1.1,1.1,2.3
			c0.1,1.1-0.4,1.8-0.7,2.2c-1,1.1-2.8,1.2-3.9,1.2c-4.5,0.1-8.5,1.8-13.4,4.4c-5.7,3.1-11.9,4.7-18,6.1c10-0.3,20-0.7,29.4-1
			c1.4-0.1,2.9-0.1,4.2-0.5c1.1-0.3,2.2-0.4,3.2-0.4c3.2,0,6.2,1.2,9.1,3.5c4.5,3.7,9.9,5.2,15.6,6.8l0.2,0.1
			c2.5,0.7,5.1,0.9,7.8,1.2c0.8,0.1,1.6,0.1,2.4,0.2c2.6,0.3,5.1,1,7.5,1.8c1.2,0.3,2.3,0.7,3.5,1c2.9,0.7,5.8,1.4,8.6,2l0.1,0
			c1,0.2,3,0.6,3.1,3c0.1,1.8-1,2.9-3.1,3.3l-1.5,0.3c-5.8,1.1-11.7,2.3-17.8,2.3c-2.2,0-4.4-0.2-6.7-0.5c-4.9-0.8-10-1.1-14.9-1.3
			l-1.9-0.1c-7.3-0.4-14-2.6-19.8-6.6c-0.9-0.6-1.8-0.9-3.2-0.9c-0.2,0-0.4,0-0.6,0c-6,0-12,1.2-17.4,2.3c-5,1-10.1,1.5-15.2,1.5
			c-7.3,0-14.7-1.1-22.1-3.2c-6.7-1.9-14.8-4.1-23.2-5.6c-1-0.2-3.6-0.6-3.5-3.1c0-0.9,0.4-3,3.7-3.6c1.5-0.3,2.9-0.5,4.4-0.7
			c2.3-0.4,4.6-0.7,6.8-1.2c3.3-0.7,6.4-2,10-4.2c-0.1,0-0.2,0-0.3,0c-1.7,0-3.4,0-5.2,0c-2.1,0-4.3,0-6.5-0.1l-0.5,0
			c-6.9-0.2-14-0.3-20.9-2.4c-1.1-0.3-2.1-0.7-3.3-1.3c-1.7-0.8-2.5-2.3-2.1-3.8c0.2-0.7,0.9-2.5,3.5-2.5c6.3,0,12.5-1.3,18.6-2.6
			c1.7-0.4,3.4-0.7,5.2-1c4.5-0.8,8.2-2.7,11-5.4C55.2,411.5,56.2,411.1,57.2,411.1 M57.2,408.1c-1.8,0-3.5,0.7-5,2.1
			c-2.4,2.3-5.6,3.9-9.4,4.6c-1.7,0.3-3.4,0.7-5,1l-0.2,0c-5.9,1.2-12,2.5-18,2.5c-3.9,0-5.9,2.5-6.4,4.8c-0.7,3,0.7,5.8,3.7,7.3
			c1.3,0.6,2.5,1.1,3.7,1.5c5,1.5,10.1,2.1,15.1,2.3c-0.9,0.2-1.8,0.3-2.7,0.5c-4.5,0.8-6.2,3.9-6.2,6.5c0,1.9,0.8,5.2,6,6.1
			c8.3,1.5,16.2,3.6,22.9,5.5c7.6,2.2,15.3,3.3,22.9,3.3c5.3,0,10.6-0.5,15.8-1.6c5.2-1.1,11.1-2.3,16.8-2.3c0.2,0,0.4,0,0.6,0
			c1,0,1.3,0.2,1.6,0.4c6.3,4.3,13.5,6.7,21.3,7.1l1.9,0.1c4.9,0.3,9.9,0.5,14.6,1.3c2.3,0.4,4.6,0.5,7.1,0.5
			c6.4,0,12.5-1.2,18.4-2.4l1.5-0.3c3.6-0.7,5.7-3.1,5.6-6.3c-0.1-2.2-1.1-4.9-5.5-5.9l-0.1,0c-2.8-0.6-5.7-1.3-8.5-2
			c-1.1-0.3-2.3-0.6-3.4-1c-2.6-0.8-5.2-1.6-8.1-1.9c-0.8-0.1-1.5-0.1-2.3-0.2l-0.2,0c-2.6-0.2-5-0.4-7.2-1.1l-0.2-0.1
			c-5.4-1.5-10.5-3-14.6-6.2c-3.4-2.8-7.1-4.1-11-4.1c-1.3,0-2.6,0.2-3.9,0.5c-1.1,0.3-2.4,0.3-3.7,0.4c-3.1,0.1-6.3,0.2-9.6,0.3
			c4.4-2.3,7.9-3.8,11.7-3.9c1.4,0,4.1-0.1,6-2.2c1.1-1.2,1.6-2.8,1.5-4.5c-0.1-1.8-0.9-3.4-2.2-4.4c-1.1-0.9-2.5-1.4-4.2-1.4
			c-0.7,0-1.4,0.1-1.9,0.2l-0.3,0c-4.1,0.5-8.3,0.8-12.4,0.8c-6.8,0-13.6-0.7-20.2-2.1c-2.6-0.5-5.3-0.9-7.9-1.3
			c-5.6-0.8-10.9-1.6-15.7-3.9C59.2,408.3,58.2,408.1,57.2,408.1L57.2,408.1z"/>
	</g>
	<g>
		<path class="st0" d="M307.3,508.4c-2.6,0-5.2-0.1-7.7-0.2c-7.2-0.4-14.6-0.9-21.6-1.5l-0.5,0c-2.9-0.2-5.7-0.4-8.6-0.6
			c-1.1-0.1-1.9-0.2-2.7-0.3c-2.5-0.5-4.1-2.1-4.2-4.4c-0.1-2,0.9-4.4,4.1-5.1c3.7-0.8,7-1.5,10.2-2.1c2.5-0.5,4.7-1.1,6.8-1.9
			c-0.4,0-0.9,0-1.3,0.1c-3.9,0.2-8.6,0.4-13.5,0.4c-9.1,0-22.9-0.6-36.3-5.5c-0.2-0.1-0.4-0.1-0.6-0.2c-1.3-0.4-5.2-1.7-4.6-5.9
			c0.2-1.6,1.2-4.2,5.5-4.2c0.4,0,0.7,0,1,0l0.4,0c1.2,0.1,2.4,0.1,3.7,0.1c10.5,0,21.1-2.1,31.3-4.1l0.3-0.1
			c2.1-0.4,4.3-0.8,6.4-1.2c4.7-0.9,9.3-2.5,13.8-4c2.1-0.7,4.3-1.5,6.5-2.1c1.5-0.5,2-0.9,2.3-1.4c0.8-1.2,2-2,3.4-2.2
			c0.2,0,0.4,0,0.6,0c0.8,0,2.1,0.2,3.4,1.3c1.3,1.1,2.9,1.8,4.6,2.4c1.3,0.5,2.6,1,3.9,1.5c8.7,3.4,17.6,7,27,8.4
			c2.8,0.4,5.6,1,8.3,1.5c3.7,0.7,7.5,1.5,11.2,1.9c2.1,0.2,4.4,0.3,7.1,0.3c1.9,0,3.9,0,5.8-0.1c0.9,0,1.8,0,2.7-0.1c1,0,2,0,3,0
			c1.1,0,2.3,0,3.4,0h0.1c1.1,0,2.2,0,3.4,0c0.9,0,1.8,0,2.7,0c2.5,0,4.3,1.5,4.8,3.8c0.5,2.5-0.9,4.7-3.3,5.4
			c-2.5,0.7-5,1.6-7.5,2.4c-5.1,1.8-10.2,3.5-15.8,4.3c-6.6,0.9-12.6,1.3-18.2,1.3c0,0,0,0,0,0c-2.7,0-5.4-0.1-7.9-0.3
			c0.2,0.1,0.8,0.2,0.8,0.2c2.8,0.6,4.2,2.2,4.2,4.5c0,1.2-0.4,4-4.5,4.7C328.5,507.4,317.4,508.4,307.3,508.4z"/>
		<path class="st0" d="M301.9,463.3c0.7,0,1.5,0.2,2.5,1c1.4,1.2,3.2,2,5.1,2.7c1.3,0.5,2.6,1,3.9,1.5c8.8,3.5,17.8,7.1,27.3,8.5
			c2.8,0.4,5.6,1,8.3,1.5c3.7,0.7,7.5,1.5,11.3,1.9c2.4,0.2,4.9,0.3,7.3,0.3c1.9,0,3.9,0,5.8-0.1c0.9,0,1.8,0,2.7-0.1c1,0,2,0,3,0
			c1.2,0,2.3,0,3.4,0c1.1,0,2.3,0,3.4,0c0.9,0,1.8,0,2.7,0c0,0,0,0,0,0c1.7,0,3,1,3.3,2.6c0.3,1.7-0.6,3.2-2.3,3.7
			c-2.5,0.7-5.1,1.6-7.6,2.5c-4.9,1.7-10,3.5-15.5,4.2c-6.5,0.9-12.4,1.3-18,1.3c-6.9,0-13.3-0.7-19.3-2.1c0,0,0.1,0,0.1,0.1
			c3.5,2.2,7.3,3.8,11.5,4.8l0.1,0c0.9,0.2,3,0.7,3,3.1c0,1.8-1.1,2.8-3.3,3.2c-12.6,2-23.4,3-33.6,3c-2.6,0-5.1-0.1-7.7-0.2
			c-7.2-0.4-14.5-0.9-21.6-1.5c-3-0.2-6.1-0.5-9.1-0.7c-1-0.1-1.8-0.2-2.5-0.3c-2.4-0.5-3-1.9-3-3c-0.1-0.8,0.1-2.9,3-3.5
			c3.7-0.8,7-1.5,10.2-2.1c5.5-1.1,10.1-3,14-5.7c-3.1,0.5-6.2,0.7-8.9,0.8c-4.4,0.2-8.9,0.4-13.4,0.4c-11.9,0-24-1.1-35.8-5.4
			c-0.2-0.1-0.4-0.1-0.6-0.2c-1.3-0.4-4-1.3-3.6-4.2c0.4-2.6,2.5-2.9,4-2.9c0.4,0,0.7,0,0.9,0l0.4,0c1.3,0.1,2.5,0.1,3.8,0.1
			c10.7,0,21.3-2.1,31.5-4.1c2.2-0.4,4.5-0.9,6.7-1.3c4.8-0.9,9.5-2.5,14-4c2.1-0.7,4.3-1.5,6.4-2.1c1.6-0.5,2.5-1.1,3.1-2
			c0.8-1.1,1.7-1.5,2.4-1.6C301.6,463.3,301.8,463.3,301.9,463.3 M301.9,460.3C301.9,460.3,301.9,460.3,301.9,460.3
			c-0.3,0-0.6,0-0.9,0.1c-1.7,0.2-3.3,1.3-4.4,2.8c-0.1,0.1-0.3,0.4-1.5,0.8c-2.2,0.7-4.4,1.4-6.5,2.2c-4.4,1.5-9,3.1-13.6,3.9
			c-2.1,0.4-4.3,0.8-6.4,1.2l-0.3,0.1c-10.1,2-20.6,4-31,4c-1.2,0-2.4,0-3.6-0.1l-0.4,0c-0.3,0-0.7,0-1.1,0c-3.9,0-6.5,2.1-7,5.5
			c-0.3,2.5,0.4,5.8,5.7,7.5c0.2,0.1,0.3,0.1,0.5,0.2c13.7,5,27.6,5.6,36.8,5.6c0.2,0,0.5,0,0.7,0c-1.1,0.2-2.1,0.5-3.2,0.7
			c-4.2,0.9-5.5,4.2-5.3,6.6c0.2,2.9,2.2,5.1,5.4,5.8c0.8,0.2,1.7,0.3,2.9,0.4c2.9,0.2,5.7,0.4,8.6,0.6l0.5,0
			c7.1,0.5,14.4,1.1,21.7,1.5c2.6,0.1,5.2,0.2,7.8,0.2c10.2,0,21.4-1,34.1-3c3.6-0.6,5.8-2.9,5.8-6.1c0-0.8-0.1-1.9-0.7-2.9
			c0.7,0,1.4,0,2.2,0c5.7,0,11.8-0.4,18.5-1.4c5.7-0.8,11-2.6,16-4.4c2.5-0.9,5-1.7,7.4-2.4c3.2-0.9,5-3.9,4.4-7.1
			c-0.6-3-3.1-5-6.2-5c0,0-0.1,0-0.1,0c-0.9,0-1.8,0-2.7,0c-1.1,0-2.3,0-3.4,0c0,0-0.1,0-0.1,0c-1.1,0-2.3,0-3.4,0c-1,0-2,0-3.1,0
			c-0.9,0-1.8,0-2.7,0.1c-1.9,0-3.8,0.1-5.7,0.1c-2.7,0-5-0.1-7-0.3c-3.6-0.3-7.3-1.1-11-1.8l-0.1,0c-2.7-0.5-5.6-1.1-8.4-1.5
			c-9.1-1.3-18-4.9-26.6-8.3c-1.3-0.5-2.6-1-3.9-1.5c-1.6-0.6-3.1-1.3-4.2-2.2C304.7,460.6,303,460.3,301.9,460.3L301.9,460.3z"/>
	</g>
	<g>
		<path class="st0" d="M63,337.6c-0.6,0-1.1-0.4-1.4-0.9l-2.9-6.8c-0.8-2-0.7-3.9-0.6-5.4c0-0.4,0.1-0.8,0.1-1.3
			c0-0.6,0-1.2-0.1-1.9c-0.1-1.9-0.2-4,0.5-6.1l2.9-9.7c0.2-0.6,0.8-1.1,1.4-1.1c0.1,0,0.1,0,0.2,0c0.7,0.1,1.3,0.7,1.3,1.5
			l0.1,30.2c0,0.7-0.5,1.3-1.2,1.5C63.2,337.6,63.1,337.6,63,337.6z"/>
		<path class="st0" d="M62.9,305.9l0.1,30.2l-2.9-6.8c-0.7-1.6-0.6-3.3-0.5-4.7c0-0.4,0.1-0.9,0.1-1.3c0-0.7,0-1.3-0.1-2
			c-0.1-1.8-0.2-3.7,0.4-5.6L62.9,305.9 M62.9,302.9c-1.3,0-2.5,0.9-2.9,2.1l-2.9,9.7c-0.7,2.4-0.6,4.6-0.5,6.6
			c0,0.7,0.1,1.2,0.1,1.8c0,0.3,0,0.7-0.1,1.1c-0.1,1.6-0.3,3.8,0.7,6.1l2.9,6.8c0.5,1.1,1.6,1.8,2.8,1.8c0.2,0,0.4,0,0.6-0.1
			c1.4-0.3,2.4-1.5,2.4-2.9l-0.1-30.2c0-1.5-1.1-2.7-2.6-3C63.2,302.9,63.1,302.9,62.9,302.9L62.9,302.9z"/>
	</g>
	<g>
		<path class="st0" d="M267.6,437.1c-0.5,0-1.1-0.3-1.3-0.8c-0.4,0-0.8,0-1.3,0l-1.3,0c-1.1,0-2.4,0-3.7-0.3
			c-0.8-0.1-1.3-0.8-1.2-1.6l0.3-3c0.1-0.8,0.7-1.4,1.5-1.4h11.7c0.8,0,1.4,0.6,1.5,1.4l0.2,2.6c0.1,0.7-0.3,1.3-1,1.5l-1.2,0.5
			c-0.1,0-0.1,0-0.2,0.1L268,437C267.9,437,267.8,437.1,267.6,437.1z"/>
		<path class="st0" d="M272.3,431.5l0.2,2.6l-1.2,0.5l-3.7,0.9l-0.4-0.8c0,0-0.1,0-0.1,0c-0.2,0-0.4,0-0.6,0c0,0-0.1,0-0.1,0h0
			c-0.4,0-0.9,0-1.3,0c-0.2,0-0.4,0-0.6,0c-0.2,0-0.4,0-0.6,0c-1.1,0-2.3,0-3.4-0.2l0.3-3H272.3 M272.3,428.5h-11.7
			c-1.6,0-2.8,1.2-3,2.7l-0.3,3c-0.1,1.5,0.9,2.9,2.5,3.2c1.4,0.3,2.7,0.3,4,0.3l0.6,0l0.7,0c0.2,0,0.4,0,0.5,0
			c0.6,0.5,1.3,0.8,2.1,0.8c0.2,0,0.5,0,0.7-0.1l3.7-0.9c0.1,0,0.2-0.1,0.4-0.1l1.2-0.5c1.2-0.5,2-1.7,1.9-3.1l-0.2-2.6
			C275.2,429.7,273.9,428.5,272.3,428.5L272.3,428.5z"/>
	</g>
	<g>
		<path class="st0" d="M437.4,471.8c-4.2,0-8.1-0.5-11.9-1.6c-3.7-1.1-7.7-1.3-11.4-1.5l-10.1-0.4c-0.7,0-1.4-0.6-1.4-1.3
			c-0.1-0.7,0.4-1.4,1.1-1.6l9.8-2.5c3.3-0.8,6.5-1.2,9.7-1.5c1.2-0.1,2.4-0.2,3.6-0.4c8.9-1.1,17.9-2.6,26.6-4l2.4-0.4
			c1.9-0.3,3.6-0.9,5.1-1.7c-0.5,0-1.1,0-1.6,0c-3.4,0-6.2-0.2-8.8-0.7c-1.4-0.2-2.7-0.7-3.9-1.1c-1.6-0.5-3-1-4.3-1l-0.2,0
			c-0.2,0-0.4,0-0.6,0c-2.2,0-4.2-0.4-6.2-0.9c-1.7-0.4-3.3-0.7-4.8-0.7l-0.1,0c-1.1,0-2.2,0.1-3.5,0.3c-0.9,0.1-1.7,0.2-2.6,0.2
			c-1.8,0-3.7-0.3-5.9-0.8c-2.6-0.6-5.3-1.2-8.1-1.2c-1.8,0-3.4,0.2-4.9,0.7c-5.1,1.6-10.4,2.2-15.5,2.7l-0.4,0
			c-1.4,0.1-2.8,0.3-4.2,0.5l-0.2,0c-3.8,0.5-7.6,1-11.6,1c-0.6,0-1.3,0-1.9,0c-2.5-0.1-5-0.4-7.4-0.6c-3-0.3-6-0.7-9-0.7
			c-0.7,0-1.3,0-2,0.1c0,0-2.2,0.1-2.3,0.1c-0.5,0-0.9-0.2-1.2-0.6c-0.3-0.4-0.4-0.9-0.2-1.4l0.7-2.1c0.3-1.1,1.2-2.5,3.4-2.8
			c1.7-0.5,3.4-1.1,5.2-1.8l-4.1-0.3c-0.6,0-1-0.4-1.3-0.9c-1.6,0.1-3.2,0.2-4.8,0.2c-5.2,0-10.5-0.8-15.7-2.3
			c-3.1-0.9-6.1-1.4-9-1.6l-0.5,0c-2.4,0.1-5,0.3-7.5,0.4c-3.7,0.3-7.4,0.5-11.3,0.5c-1.3,0-2.6,0-3.8-0.1
			c-6.9-0.4-13.9-1.8-22.2-4.5l-4.8-1.6c-0.6-0.2-1-0.8-1-1.5c0-0.3,0.1-0.5,0.2-0.7l-2,0c-4.6,0-9.3,0.1-14,0.1
			c-5.5,0-10.3,0-14.7-0.1c-1.8,0-3.5-0.1-5.2-0.2c-2-0.1-4-0.2-6-0.2c-1.3,0-2.5,0.1-3.6,0.2c0.1,0.2,0.1,0.4,0.1,0.6
			c0,0.7-0.6,1.3-1.4,1.4l-7.7,0.7c0.8,0.5,1.5,0.9,2.1,1.4c0.9,0.7,1.8,1.3,2.7,2c3.4,2.6,6.3,4.9,10.3,4.9c0.2,0,0.4,0,0.7,0
			c0,0,2.2-0.1,2.2-0.1c0.5,0,0.9,0.2,1.2,0.6c0.3,0.4,0.4,0.9,0.3,1.4l-1.2,4c-0.2,0.6-0.8,1.1-1.4,1.1l-3.5,0c-0.5,0-1.9,0-1.9,0
			c-1.1,0-2.2,0-3.3-0.1c-6.1-0.2-12.1-1.2-17.9-2.1c-1.4-0.2-2.7-0.4-4.1-0.6c-1.5-0.2-3-0.2-4.7-0.3c-2.5,0-5-0.1-7.7-0.8
			c-5.5-1.6-11.5-2.3-18.3-2.3c-1.1,0-2.1,0-3.2,0.1c-0.1,0-0.3,0-0.5,0c-0.7,0-1.4-0.1-2.1-0.2c-0.6-0.1-1.2-0.2-1.7-0.4
			c-0.3-0.1-0.5-0.1-0.8-0.2l-2.4-0.6c-0.5-0.1-0.9-0.5-1.1-1c-0.2-0.5,0-1.1,0.3-1.4l1.7-1.9c1.1-1.2,2.2-1.8,3.1-2.3l0.3-0.2
			c4-2.2,8.2-4.1,12.2-5.8c-1.1-0.1-2.2-0.2-3.3-0.3c-4.5-0.7-9.5-1.4-14.2-4.5c-1-0.6-2.1-1.1-3.3-1.7c-1.7-0.8-3.4-1.6-5.1-2.9
			c-0.4-0.3-1.3-0.4-2.3-0.4c-1-0.1-2.2-0.2-3.3-0.5c-0.3-0.1-0.7-0.2-1-0.3c-1-0.2-2.2-0.5-3.4-1.1l-3.7-1.8
			c-0.6-0.3-0.9-0.9-0.8-1.5s0.5-1.1,1.1-1.3l4-1c4.6-1.2,9.5-2.3,14.6-2.9l-0.5-0.2c-0.6-0.2-2-0.6-2.8-2.4l-0.1-0.2
			c-0.4,0.1-0.8,0.1-1.3,0.2c0,0-0.1,0-0.1,0c-0.3,0-0.6,0-0.9,0c-0.3,0-0.5,0-0.8,0c-0.2,0-0.4,0-0.6,0c-0.4,0-0.8,0.1-1.2,0.1
			c-0.6,0-1.3-0.1-1.8-0.1c-0.5,0-0.9-0.1-1.2-0.1c-0.6,0-0.8,0.1-1.1,0.3c-0.8,0.6-1.9,0.9-3.1,0.9c-1,0-2-0.2-2.8-0.4l-0.3-0.1
			c-1-0.2-2-0.3-3.1-0.3c-1.4,0-2.7,0.1-3.7,0.3c-0.7,0.1-1.4,0.1-2.3,0.1c-0.4,0-0.8,0-1.2,0c-0.4,0-0.8,0-1.2,0
			c-0.6,0-1,0-1.4,0.1c-1.8,0.2-3.7,0.3-5.6,0.3c-6.7,0-13.2-1.1-19.5-2.2c-2.3-0.4-4.6-0.8-6.9-1.1c-2-0.3-4-0.6-6-1
			c-5.5-0.9-11.1-1.9-16.6-1.9c-1.3,0-2.6,0.1-3.8,0.2c-4.4,0.4-8.7,0.6-12.9,0.7c-5.9,0.2-12,0.5-18,1.3c-0.4,0.1-0.8,0.1-1.3,0.1
			c-0.3,0-0.6,0-0.9,0c-0.2,0-0.5,0-0.7,0h-2c-0.5,0-0.9-0.2-1.2-0.6c-0.3-0.4-0.4-0.9-0.2-1.3l0.6-1.9c1.6-5.4,4.4-9.1,8.8-11.7
			c1.8-1,3.6-2,5.3-3l0.1-0.1c3.5-1.9,7.2-3.9,10.4-6.3l0.5-0.4c0.5-0.4,1-0.7,1.4-1.1c1.2-1.1,2.6-2,4-2.7c0-0.1,0.1-0.2,0.1-0.2
			c0,0,3.8-5.2,4.4-5.9c1.7-2.3,2.9-4.9,4.2-7.7c0.7-1.6,1.5-3.2,2.3-4.8c2.4-4.4,5.6-7.8,9-11.1c5.8-5.7,10.5-10.6,13.5-16.9
			c3.7-7.6,9.6-13.3,14.8-17.9c0.9-0.8,1.8-1.8,2.7-2.8c0.9-1,1.9-2,3-3c1.3-1.8,3.2-2.2,4.3-2.4c0.2,0,0.3-0.1,0.5-0.1
			c3.1-0.7,6.2-1,9.2-1.2c-0.5-1.4,0.1-2.9,0.4-3.8c0.6-1.6,1.2-3.2,1.9-4.7c0.8-2,1.6-4,2.4-6c0.4-1.1,0.8-2.1,1.2-3.1
			c1.4-3.5,2.8-7.2,3.7-10.8c0.5-1.9,1.5-3.5,2.4-4.9c0.6-1,1.2-1.8,1.5-2.7c1.8-4.9,5.3-5.5,8.1-5.5c0.5,0,1,0,1.4,0
			c1.8,0.1,3.6,0.3,5.5,0.6c0-0.9,0.4-1.9,1-2.9c1.6-2.7,3.5-5.4,6.9-7c1.6-0.8,2.9-1.9,3.8-3.3c1.7-2.5,4.2-3.1,6.1-3.5
			c0.4-0.1,0.7-0.2,1.1-0.3c0.6-0.1,1.1-0.2,1.6-0.2c1.2,0,2.3,0.3,2.9,0.6c1.3,0.4,2.6,0.6,4.5,0.6c1,0,2,0,3-0.1
			c0.6,0,1.3-0.1,1.9-0.1c1.4-0.5,2.8-0.6,3.9-0.6c0.9,0,1.7-0.1,2.3-0.3c2.3-0.8,3.9-2.2,5-4.4c0,0,0.2-0.3,0.2-0.3
			c0,0,0-0.1,0.1-0.1c0.9-1.3,2-1.7,2.8-1.8c0.2,0,0.4,0,0.5,0c1.4,0,2.4,0.8,2.8,1.1l0.1,0.1c3.8,2.4,7.1,4.3,10.5,6
			c1.1,0.5,2.1,0.8,3.1,0.8c0.2,0,0.3,0,0.5,0c0.3,0,0.5,0,0.7,0c1.9,0,3.5,0.7,4.5,2c0.8,1.1,1.9,2,3.1,3c1,0.9,2,1.8,3,2.8
			c3.5,0.1,6.5,1.4,9.2,3.8c0.6,0.5,1.2,1.3,1.6,2.3c0.1-0.1,0.2-0.1,0.2-0.2c3.1-2.3,6.6-3.6,11.1-4.1c12.6-1.2,25.8-1.8,41.7-1.8
			c3.2,0,6.5,0,9.9,0.1c0.6,0,1.3,0,1.9,0c5.9,0,11.8-0.3,17.6-0.7l2.9-0.2c1.7-0.5,3.4-0.7,5.2-0.7c3.9,0,7.6,1.2,11.1,2.3
			c0.8,0.3,1.6,0.5,2.3,0.8c1,0.3,1.8,0.5,2.6,0.5l5.4,0c2.8,0,5.7,0,8.7,0.3c4.1,0.3,7.7,1.9,11.6,3.7c0.4,0.2,0.8,0.4,1.3,0.5
			c0.9,0.4,1.7,0.7,2.5,1.2c1.1,0.6,2.3,0.9,3.8,0.9c0.7,0,1.4-0.1,2.4-0.2c2.1-0.3,4.2-0.4,6.3-0.5c3.2-0.2,6.1-0.3,9-1
			c0.7-0.2,1.5-0.3,2.2-0.3c0.7,0,1.4,0.1,2.1,0.2l0.4-0.6c1.2-1.9,3-3,4.6-3.8c0.4-0.2,0.8-0.4,1.2-0.6l0.1,0
			c1.6-0.8,3.1-1.5,4.4-2.5c1.1-0.9,2.3-1.4,3.6-1.4c1.2,0,2.4,0.4,3.5,1.3c1.3,1,2.9,1.2,4.6,1.3c1,0,2,0.1,3,0.1
			c5.7,0,11.4-0.7,16.9-1.4c1.5-0.2,3.2-0.8,4.9-1.5c0.7-0.3,1.3-0.5,2-0.7c0.9-0.3,1.7-0.5,2.4-0.5c1.7,0,3.2,0.7,4.7,2.2
			c2.1,2.1,4.7,3.8,7.3,5.4c1.8-2.9,4.1-4.9,6.3-6.7c1.7-1.4,3.7-2.1,6.1-2.1c1.2,0,2.3,0.2,3.3,0.3l0.2,0c3.6,0.5,7.4,0.7,11,0.8
			c3.1,0.1,6.2,0.3,9.3,0.6l0.3,0c0.5,0,1.3,0.1,2.1,0.4c2,0.8,4.1,1.5,6.1,2.1c2.1,0.7,4.3,1.4,6.4,2.3l1-0.9
			c2.4-2.1,5.1-3.7,8.5-4.7c0.6-0.2,1.6-0.5,2.6-0.5c1.8,0,3.4,0.7,4.8,2.1c1.4,1.5,3.4,2.5,5.4,3.6l0.8,0.4
			c0.6,0.3,1.2,0.6,1.7,0.9c1.2,0.6,2.3,1.2,3.4,1.8c0.9,0.5,1.8,0.8,2.8,0.8c3.7,0.2,6.2,2.3,8.2,4l0.1,0.1
			c0.3,0.2,0.5,0.4,0.8,0.7c1.1,0.9,2.1,1.9,3,2.9c1.3,1.3,2.6,2.7,4.3,3.7l3.7,2.2c0.5,0.3,0.8,1,0.7,1.6c0,0.1,0,0.1,0,0.1
			c0.4,0.3,0.8,0.6,1.2,1c5.2,4.7,9.9,7.9,14.8,10c0.9,0.4,1.8,0.9,2.5,1.4c0.3,0.2,0.6,0.4,1,0.6l1.3,0.7c0.7,0.4,1,1.3,0.6,2
			l-0.5,0.9c0.6,0.1,1.2,0.1,1.7,0.1c0.8,0,1.6-0.1,2.3-0.4c0.5-0.2,0.9-0.2,1.4-0.2c0.9,0,1.7,0.3,2.1,0.4
			c4.5,1.8,9.1,2.2,14.6,2.2c1.2,0,2.4,0,3.6,0l1.7,0c3.2,0,6.4-0.1,9.6-0.1c2,0,3.7,0.4,5.2,0.9c1.1,0.3,2.2,0.6,3.1,0.6
			c3.7,0.3,7.3,0.6,11,1l0.3,0c3.6,0.3,7.1,0.7,10.7,1c6.5,0.5,13.2,0.8,19.7,1.1c4.4,0.2,9,0.4,13.6,0.6c1,0.1,1.9,0.5,2.7,1.2
			l2.5,2.2c0.4,0.4,0.6,1,0.5,1.6c-0.2,0.6-0.7,1-1.2,1.1l-3.3,0.4c-1.4,0.2-2.9,0.5-4.4,0.8c-1.6,0.3-3.2,0.7-4.8,0.9
			c-3.4,0.5-6.8,0.5-9.9,0.6l-0.1,0c-0.5,0-1,0-1.5,0c1.5,0.6,3,1.3,4.5,1.9c1.6,0.7,3.2,1.4,4.8,2c2.9,1.1,6,1.6,9.4,1.7
			c4.7,0.1,8.9,0.8,12.9,2c7.9,2.5,16.3,2.8,23.8,3.1l1.9,0.1c6.4,0.2,12.9,0.5,19.6,2.2l4.3,1.1c0.6,0.2,1.1,0.7,1.1,1.3
			s-0.3,1.2-0.9,1.5l-4.1,1.7c-3.5,1.5-6.9,2.2-10.2,2.2c-0.2,0-0.5,0-0.7,0l-0.3,0c-0.7,0-1.4,0-2.1,0c-1.9,0-3.9,0.1-5.8,1
			c-1,0.5-2.1,0.7-3.4,0.7c-0.5,0-1.1,0-1.5-0.1l-0.3,0c-0.2,0-0.5,0-0.7,0l-0.8,0c-2.2,0-4.1,0-5.8,0.7c-1.9,0.8-3.9,0.9-5.4,0.9
			c-0.4,0-0.8,0-1.1,0c-0.8,0-1.6,0-2.3,0c-5.6,0-11.1,0.7-16.4,2c-1.6,0.4-3.3,0.6-5.1,0.6c-3.4,0-6.6-0.7-9.7-1.4l-0.5-0.1
			c3.2,1.8,6.7,2.7,10.5,2.7c1,0,2-0.1,3-0.2c0.4,0,0.7-0.1,1-0.1c1.6,0,3.1,0.5,4.4,1.5c1.4,1.1,3.4,1.3,5.6,1.5
			c2.9,0.2,5.9,0.3,8.7,0.4l0.4,0c2.6,0.1,5.2,0.2,7.7,0.4c3.6,0.2,7.2,0.5,10.8,0.5c0.8,0,1.6,0,2.4,0c0.1,0,0.1,0,0.2,0
			c1.7,0,3,1,3.5,2.7l0.3,1.3c0.2,0.7-0.2,1.5-0.9,1.8l-1.2,0.5c-1.6,0.6-3.1,0.7-4.4,0.8c-0.4,0-0.8,0-1.2,0.1
			c-7,0.8-14.1,1.4-20.7,2.1c-0.7,0.1-1.6,0.1-2.5,0.1c-1,0-1.9-0.1-2.7-0.3c-1.5-0.4-3-0.6-4.7-0.6c-1.5,0-3,0.1-4.8,0.5
			c-2.3,0.4-4.5,0.5-6.6,0.5c-2.5,0.1-4.9,0.1-7.1,0.8c-2,0.6-4,0.9-6,1.1c0.4,0.1,0.7,0.1,1.1,0.2c1.7,0.3,3.7,0.7,5.5,1.2
			c3.9,0.9,8,1.3,11.9,1.7c2.8,0.3,5.6,0.6,8.4,1c4.1,0.7,8.1,2.2,11.7,4.4c1.8,1.1,3.9,2.7,5.1,5.4c0.4,0.9,1.6,1.5,2.9,2
			c4.6,1.9,9.7,3.2,15.8,3.9c6.6,0.7,13.1,2,19.4,3.9c8.1,2.4,16.7,3.7,24.9,5c1.7,0.3,3.3,0.5,5,0.8c3.6,0.6,7.4,1.5,11.1,2.6
			l9.5,2.9c0.7,0.2,1.2,0.9,1,1.7c-0.1,0.7-0.7,1.3-1.5,1.3h-9.9c0,0-1.2,0-1.5,0c-0.3,0-0.7,0-1,0c-1.2-0.1-2.4-0.1-3.8-0.1
			c-3.5,0-7.1,0.2-10.6,0.4c-3.3,0.2-6.6,0.4-9.9,0.4c-1.7,0-3.4,0.5-5.3,1c-1.5,0.4-3.1,0.8-4.7,1c-2.7,0.3-5.4,0.5-8.3,0.5
			c-3.1,0-6.5-0.2-10.4-0.6c-2.2-0.2-4.4-0.3-6.9-0.3c-4,0-8.1,0.3-12.1,0.6c-2.6,0.2-4.8,0.3-6.9,0.3c0,0.1,0,0.2,0,0.2
			c-0.1,0.7-0.7,1.3-1.4,1.3l-5.9,0.3c6,2.3,11.9,3.4,17.9,3.4c1.5,0,3-0.1,4.6-0.2l0.1,0c0.2,0,0.4-0.1,0.8-0.1
			c1.3,0,2.1,0.6,2.6,1.2c0.8,1,2,1.2,3.9,1.6c1.5,0.3,3.1,0.6,4.7,1.5c0.1,0.1,0.3,0.1,0.5,0.2c0.3,0.1,0.5,0.2,0.8,0.3l2.9,1
			c0.5,0.2,0.9,0.7,1,1.2c0.1,0.6-0.2,1.1-0.7,1.4l-2.6,1.7c-1.1,0.7-2.3,1.1-3.5,1.1l-0.2,0c-0.4,0-0.7,0-1.1,0
			c-5.9,0-11.5,1.6-16.2,3.1c-3,1-6.3,1.6-10.1,2l-5,2.6c-3.4,1.8-6.5,2.4-9.4,3l-0.3,0.1c-4.4,0.9-8.8,1.5-13,2
			c-3.3,0.4-6.6,0.9-9.8,1.4c-0.5,0.1-0.9,0.2-1.4,0.2c5.8,3.3,11.8,6.8,18.3,8.2c2.3,0.5,4.7,1,7,1.4l0.4,0.1
			c1.3,0.3,2.5,0.5,3.8,0.8c1.9,0.4,3.6,1.1,5.5,2l4.1,1.8c0.6,0.2,0.9,0.8,0.9,1.4c0,0.6-0.4,1.2-1,1.4l-3.5,1.3
			c-2.9,1-5.4,1.5-8,2c-0.6,0.1-1.2,0.2-1.8,0.4c-4.7,1-9.9,1.9-15.1,2c-0.4,0-0.8,0-1.1,0c-4,0-7.3-0.5-10.5-1.6
			c-0.6-0.2-1.1-0.3-1.6-0.3c-0.7,0-1.3,0.2-1.9,0.5c-3.2,1.6-6.6,2.5-10.1,2.5c-2.4,0-5-0.4-7.6-1.2c-6.6-1.9-13.7-2.9-20.9-2.9
			l-0.8,0c-1.6,0-3.2,0.3-4.9,0.6c-1.7,0.3-3.4,0.6-5.3,0.6c3.2,1.9,6.5,3.6,10.1,4.9l4.6,1.6c0.6,0.2,1,0.8,1,1.5
			c0,0.7-0.5,1.2-1.1,1.4l-4.7,1.3c-4.2,1.2-8.4,1.7-13.6,1.8c-1.5,0-2.9,0-4.4,0c-5.1,0-10.4-0.1-15.5-0.3c-0.9,0-1.7,0-2.6,0
			c-4.1,0-8.2,0.3-12.3,0.6c-4,0.3-8.2,0.6-12.4,0.6c-5,0-10-0.6-15.1-1.2l-2.4-0.3c-2.4-0.3-5.6-0.6-9-0.6c-1.6,0-3.1,0.1-4.5,0.2
			c-0.4,0-0.7,0.1-1.1,0.1c-1.8,0-3.4-0.4-5-0.8c-0.8-0.2-1.5-0.4-2.2-0.5c-1.7-0.3-3.5-0.5-5.2-0.5c-0.8,0-1.5,0.1-2.1,0.2
			c-0.7,0.1-1.3,0.2-2,0.2c-1.1,0-2.1-0.1-3.2-0.4c2,2.7,4.9,4.7,9,6.2c0.4,0.1,0.8,0.3,1.2,0.4c1.8,0.6,3.9,1.4,6,2.9l2.6,1.9
			c0.5,0.3,0.7,0.9,0.6,1.5c-0.1,0.6-0.6,1-1.1,1.2l-3.1,0.7c-1.2,0.3-2.5,0.4-3.8,0.4c-1.6,0-3.1-0.2-4.4-0.4
			c-0.4-0.1-0.9-0.1-1.3-0.2c-1.6-0.2-3.3-0.3-5.1-0.3c-3.8,0-7.5,0.4-11.5,0.8l-1.8,0.2c-3.3,0.3-6.8,0.9-10,1.4
			c-6,0.9-12,1.9-18.3,1.9c-0.9,0-1.8,0-2.6-0.1c-1.4-0.1-2.8-0.2-4.2-0.3l-0.1,0c-1.8-0.1-3.6-0.3-5.4-0.3c-0.6,0-1.1,0-1.7,0
			c-5,0-10.5,0.6-17.2,1.9C444.8,471.4,441,471.8,437.4,471.8z"/>
		<path class="st0" d="M207.5,237.1c0.9,0,1.5,0.5,1.9,0.8c0.1,0.1,0.2,0.1,0.3,0.2c3.9,2.4,7.2,4.4,10.7,6.1c1.3,0.6,2.6,1,3.8,1
			c0.2,0,0.4,0,0.6,0c0.2,0,0.4,0,0.6,0c1.5,0,2.6,0.5,3.3,1.5c0.9,1.2,2.1,2.2,3.3,3.2c1.1,1,2.3,2,3.3,3.2c0.1,0,0.3,0,0.4,0
			c3.2,0,6,1.2,8.4,3.4c0.6,0.6,1.3,1.4,1.3,2.5c0,1.1-0.8,1.8-1.4,2.3c-4,3.2-8.1,6.9-12.1,10.8c-0.8,0.8-1.6,1.2-2.4,1.2l0,0
			l-2.5,1.4c-0.4,0.2-0.9,0.5-1.3,0.7c0.7-0.3,1.4-0.5,2.1-0.8c2.9-1,5-3,7.3-5.2c0.6-0.5,1.1-1.1,1.7-1.6c4.1-3.7,7.6-6.7,11-9.3
			c2.8-2.2,6.1-3.4,10.4-3.8c12.5-1.2,25.6-1.7,41.5-1.7c3.2,0,6.4,0,9.9,0.1c0.6,0,1.3,0,1.9,0c6,0,12-0.4,17.9-0.7l2.9-0.2
			c1.7-0.5,3.3-0.7,4.9-0.7c3.7,0,7.2,1.1,10.6,2.3c0.8,0.3,1.6,0.5,2.3,0.8c1.2,0.4,2.1,0.5,3,0.5c0.2,0,0.5,0,0.7,0
			c0.8,0,1.7,0,2.5,0c0.7,0,1.5,0,2.3,0c2.8,0,5.7,0,8.6,0.3c3.9,0.3,7.3,1.8,11.1,3.5c0.4,0.2,0.9,0.4,1.3,0.6
			c0.8,0.3,1.6,0.6,2.3,1.1c1.5,0.8,3,1.1,4.6,1.1c0.9,0,1.7-0.1,2.6-0.2c2.1-0.3,4.2-0.4,6.2-0.5c3.2-0.2,6.3-0.3,9.3-1
			c0.6-0.2,1.2-0.2,1.8-0.2c1.7,0,3.4,0.6,4.9,1.5c-0.3-0.2-0.5-0.4-0.8-0.6l-1-0.8l0.7-1.1c1-1.6,2.5-2.5,4-3.2
			c0.4-0.2,0.9-0.4,1.3-0.6c1.7-0.8,3.3-1.5,4.7-2.7c0.8-0.7,1.7-1.1,2.7-1.1c0.9,0,1.8,0.3,2.6,1c1.6,1.2,3.5,1.5,5.4,1.6
			c1,0.1,2.1,0.1,3.1,0.1c5.8,0,11.5-0.7,17.1-1.4c1.7-0.2,3.4-0.9,5.2-1.6c0.6-0.3,1.3-0.5,1.9-0.7c0.7-0.2,1.3-0.4,1.9-0.4
			c1.3,0,2.4,0.6,3.6,1.8c2.4,2.5,5.4,4.3,8.4,6.2c0.1,0.1,0.3,0.1,0.3,0.1c0,0,0,0,0,0c0.1,0,0.4-0.3,0.8-0.9
			c1.7-2.8,3.9-4.8,6.1-6.5c1.7-1.4,3.5-1.7,5.2-1.7c1.1,0,2.1,0.2,3.1,0.3l0.2,0c3.7,0.6,7.5,0.7,11.2,0.9c3,0.1,6.1,0.3,9.2,0.6
			l0.3,0c0.5,0,1.1,0.1,1.7,0.3c2,0.8,4.2,1.5,6.2,2.2c3,1,6.1,2,9,3.4l-1.7-1l1.6-1.4c2.2-2,4.8-3.4,7.9-4.4
			c0.6-0.2,1.4-0.4,2.2-0.4c1.2,0,2.5,0.4,3.7,1.6c1.6,1.6,3.6,2.7,5.8,3.8l0.8,0.4c0.6,0.3,1.2,0.6,1.8,0.9
			c1.1,0.6,2.3,1.2,3.4,1.8c1.1,0.6,2.2,0.9,3.5,1c3.1,0.1,5.3,2,7.3,3.7c0.3,0.2,0.6,0.5,0.9,0.7c1,0.9,2,1.8,2.8,2.8
			c1.3,1.4,2.7,2.9,4.6,4l3.7,2.2l-2.1,0.3c1.2,0.4,2.5,1.1,3.7,2.3c5.3,4.8,10.1,8.1,15.2,10.3c0.9,0.4,1.6,0.8,2.4,1.3
			c0.3,0.2,0.6,0.4,1,0.6l1.3,0.7l-1.4,2.6l-2.9-0.6c1.1,0.3,2.2,0.5,3.2,0.8c1.4,0.4,2.6,0.5,3.7,0.5c1,0,1.9-0.2,2.8-0.5
			c0.3-0.1,0.7-0.2,1-0.2c0.7,0,1.3,0.2,1.5,0.3c4.9,2,9.9,2.3,15.2,2.3c1.2,0,2.5,0,3.7,0l1.6,0c3.2,0,6.4-0.1,9.6-0.1
			c1.7,0,3.3,0.4,4.9,0.8c1.2,0.3,2.3,0.6,3.4,0.7c3.8,0.3,7.5,0.7,11.3,1c3.6,0.3,7.1,0.7,10.7,1c6.6,0.5,13.3,0.8,19.8,1.1
			c4.4,0.2,9,0.4,13.5,0.6c0.6,0,1.2,0.3,1.8,0.8l2.5,2.2l-3.3,0.4c-1.5,0.2-3.1,0.5-4.6,0.8c-1.5,0.3-3,0.7-4.6,0.9
			c-3.3,0.4-6.7,0.5-9.7,0.6l-0.1,0c-2.4,0-4.6,0.1-6.6,1c-0.3,0.1-0.6,0.2-0.9,0.3c3.6,0.6,6.8,2.1,10,3.5c1.6,0.7,3.3,1.5,4.9,2.1
			c3.1,1.1,6.3,1.7,9.9,1.8c4.5,0.1,8.6,0.7,12.5,2c8.1,2.5,16.6,2.9,24.2,3.2l1.9,0.1c6.3,0.2,12.8,0.5,19.3,2.2l4.3,1.1l-4.1,1.7
			c-3.3,1.4-6.5,2.1-9.7,2.1c-0.2,0-0.5,0-0.7,0l-0.3,0c-0.7,0-1.4,0-2.1,0c-2.3,0-4.4,0.2-6.4,1.2c-0.9,0.4-1.8,0.6-2.7,0.6
			c-0.5,0-1,0-1.4-0.1c-0.3,0-0.7-0.1-1-0.1c-0.1,0-0.1,0-0.2,0l-0.6,0c-2.2,0-4.4,0-6.4,0.8c-1.6,0.7-3.2,0.8-4.9,0.8
			c-0.4,0-0.7,0-1.1,0c-0.8,0-1.6,0-2.4,0c-5.8,0-11.4,0.7-16.7,2c-1.6,0.4-3.2,0.6-4.7,0.6c-3.2,0-6.3-0.7-9.4-1.4l-0.7-0.2
			c-0.5-0.1-0.9-0.2-1.4-0.3c-2.2-0.5-4.2-1-6.3-1.1c-0.1,0-0.2,0-0.3,0c0,0,0.1,0,0.1,0l0.3,0.1c0.5,0.3,0.9,0.5,1.4,0.8
			c1.3,0.7,2.7,1.4,4,2.3c3.8,2.6,8,3.9,12.8,3.9c1,0,2.1-0.1,3.2-0.2c0.3,0,0.6-0.1,0.9-0.1c1.3,0,2.4,0.4,3.5,1.2
			c1.7,1.3,4,1.6,6.3,1.8c2.9,0.3,6,0.3,8.9,0.4l0.4,0c2.6,0.1,5.2,0.2,7.7,0.4c3.6,0.2,7.2,0.5,10.9,0.5c0.8,0,1.6,0,2.5,0
			c0.1,0,0.1,0,0.1,0c1.5,0,1.9,1.1,2,1.6l0.3,1.3l-1.2,0.5c-1.3,0.5-2.7,0.6-3.9,0.7c-0.4,0-0.9,0-1.3,0.1
			c-7,0.8-14.1,1.4-20.7,2.1c-0.7,0.1-1.5,0.1-2.3,0.1c-0.8,0-1.6-0.1-2.3-0.3c-1.6-0.4-3.3-0.6-5-0.6c-1.6,0-3.2,0.2-5,0.5
			c-2.1,0.4-4.3,0.4-6.4,0.5c-2.6,0.1-5.1,0.1-7.5,0.8c-2.9,0.8-5.7,1.2-8.7,1.2c-1.9,0-3.8-0.2-5.7-0.5c-1.5-0.2-3.1-0.5-4.5-1.9
			c-0.2-0.2-0.5-0.3-0.9-0.3c-0.3,0-0.7,0.1-1.2,0.2c0.1,0.1,0.2,0.1,0.3,0.2c4.8,3.1,10.3,4.2,16,5.3c1.8,0.4,3.7,0.7,5.5,1.1
			c4,0.9,8.1,1.4,12.1,1.8c2.7,0.3,5.5,0.6,8.3,1c3.9,0.6,7.7,2.1,11.2,4.2c1.6,1,3.5,2.4,4.5,4.8c0.6,1.4,2.1,2.1,3.7,2.8
			c4.7,2,10,3.3,16.2,4c6.5,0.7,12.9,2,19.2,3.8c8.2,2.4,16.8,3.8,25.1,5.1c1.7,0.3,3.3,0.5,5,0.8c3.6,0.6,7.2,1.4,10.9,2.6l9.5,2.9
			h-9.9c-0.2,0-0.5,0-0.7,0c-0.2,0-0.5,0-0.8,0c-0.3,0-0.6,0-0.9,0c-1.3-0.1-2.6-0.1-3.9-0.1c-3.6,0-7.2,0.2-10.8,0.4
			c-3.2,0.2-6.5,0.4-9.8,0.4c-1.9,0-3.7,0.5-5.6,1c-1.5,0.4-3,0.8-4.5,1c-2.6,0.3-5.2,0.5-8.1,0.5c-3.1,0-6.5-0.2-10.3-0.6
			c-2.3-0.2-4.7-0.3-7.1-0.3c-3.9,0-7.9,0.3-12.2,0.6c-2.3,0.2-4.6,0.3-7.1,0.3c-3.3,0-6.8-0.2-10.2-0.9l9,2.5l-8.5,0.4l0.3,1.4
			l-2.4-0.6c-0.3-0.1-0.6-0.2-0.8-0.3c0.1,0.1,0.3,0.1,0.4,0.2c7.7,3.7,15.3,5.5,23.1,5.5c1.6,0,3.1-0.1,4.7-0.2l0.1,0
			c0.1,0,0.3,0,0.6,0c0.4,0,1,0.1,1.4,0.6c1.2,1.4,2.9,1.8,4.8,2.1c1.4,0.3,2.9,0.6,4.3,1.3c0.2,0.1,0.5,0.2,0.8,0.3
			c0.2,0.1,0.5,0.2,0.8,0.2l2.9,1l-2.6,1.7c-0.9,0.6-1.8,0.9-2.7,0.9c0,0-0.1,0-0.2,0c-0.4,0-0.7,0-1.1,0c-6,0-11.8,1.6-16.7,3.2
			c-3.3,1.1-6.7,1.6-10,1.9l-5.3,2.7c-3.2,1.7-6.2,2.3-9,2.8l-0.3,0.1c-4.3,0.9-8.7,1.4-12.9,2c-3.2,0.4-6.6,0.9-9.9,1.4
			c-2.8,0.5-5.7,0.6-8.5,0.6c-0.8,0-1.5,0-2.3,0c1.1,0.2,2.1,0.3,3.1,0.3c0.4,0,0.7,0,1.1,0c0.1,0,0.2,0,0.3,0c1,0,1.8,0.5,2.4,0.9
			c0.1,0.1,0.3,0.2,0.5,0.3l1.6,0.9c5.9,3.4,12,6.9,18.7,8.4c2.3,0.5,4.7,1,7,1.5c1.4,0.3,2.8,0.6,4.1,0.8c1.8,0.4,3.4,1.1,5.2,1.9
			l4.1,1.8l-3.5,1.3c-2.7,1-5.3,1.5-7.7,2c-0.6,0.1-1.2,0.2-1.8,0.4c-4.7,1-9.7,1.9-14.8,2c-0.4,0-0.7,0-1.1,0
			c-3.8,0-7-0.5-10.1-1.5c-0.7-0.2-1.4-0.4-2.1-0.4c-0.9,0-1.8,0.2-2.6,0.7c-3,1.5-6.1,2.3-9.5,2.3c-2.3,0-4.7-0.4-7.2-1.1
			c-6.6-1.9-13.8-3-21.3-3c-0.3,0-0.5,0-0.8,0c-1.7,0-3.4,0.3-5.2,0.6c-1.7,0.3-3.5,0.6-5.3,0.6c-0.1,0-0.3,0-0.4,0
			c-2.3,0-4.4-0.4-6.5-1.2l-0.4-0.1c-0.1,0-0.2-0.1-0.3-0.1c0.1,0,0.1,0.1,0.2,0.1c0.2,0.1,0.3,0.2,0.5,0.3c1.1,0.6,2.2,1.3,3.3,2
			c4.2,2.5,8.5,5.2,13.5,6.9l4.6,1.6l-4.7,1.3c-4.1,1.1-8.2,1.7-13.2,1.7c-1.5,0-2.9,0-4.4,0c-5.1,0-10.3-0.1-15.4-0.3
			c-0.9,0-1.8,0-2.7,0c-4.1,0-8.3,0.3-12.4,0.6c-4,0.3-8.1,0.6-12.2,0.6c-5.1,0-10.1-0.6-14.9-1.2l-2.4-0.3
			c-2.6-0.3-5.8-0.6-9.2-0.6c-1.5,0-3,0.1-4.6,0.2c-0.3,0-0.6,0-1,0c-1.6,0-3.2-0.4-4.7-0.7c-0.8-0.2-1.6-0.4-2.3-0.5
			c-1.8-0.3-3.6-0.6-5.4-0.6c-0.8,0-1.6,0.1-2.4,0.2c-0.6,0.1-1.2,0.1-1.8,0.1c-1.7,0-3.4-0.4-5.3-1.1c-0.4-0.1-0.5-0.2-0.7-0.2
			c-0.1,0-0.1,0-0.2,0.1c-0.1,0.1-0.1,0.1-0.1,0.1c0,0.1,0.2,0.6,0.4,0.9c2.2,4.2,5.7,7,11.1,9c0.4,0.1,0.8,0.3,1.2,0.4
			c1.7,0.6,3.7,1.3,5.6,2.7l2.6,1.9l-3.1,0.7c-1.2,0.3-2.4,0.4-3.5,0.4c-1.5,0-2.9-0.2-4.2-0.4c-0.4-0.1-0.9-0.1-1.3-0.2
			c-1.8-0.2-3.5-0.3-5.3-0.3c-3.8,0-7.7,0.4-11.7,0.8l-1.8,0.2c-3.4,0.3-6.8,0.9-10.2,1.4c-5.8,0.9-11.9,1.8-18,1.8
			c-0.9,0-1.7,0-2.6-0.1c-1.4-0.1-2.8-0.2-4.2-0.3c-1.8-0.1-3.6-0.3-5.5-0.3c-0.6,0-1.1,0-1.7,0c-5.2,0-10.7,0.6-17.5,1.9
			c-4,0.8-7.8,1.2-11.2,1.2c-4.1,0-7.8-0.5-11.4-1.6c-3.9-1.1-7.9-1.4-11.8-1.5l-10.1-0.4l9.8-2.5c3.1-0.8,6.4-1.1,9.5-1.5
			c1.2-0.1,2.4-0.2,3.6-0.4c8.9-1.1,17.9-2.6,26.7-4l2.4-0.4c2.2-0.4,4.1-1,5.8-2.1c2.5-1.5,5.3-2.5,8.1-3c-0.6,0-1.1,0-1.6,0.1
			c-0.8,0-1.6,0.1-2.3,0.1c-2.3,0.1-4.5,0.2-6.9,0.2c-2.8,0-5.7-0.2-8.5-0.7c-1.3-0.2-2.5-0.6-3.7-1c-1.6-0.5-3.2-1.1-4.8-1.1
			c-0.1,0-0.2,0-0.3,0c-0.2,0-0.4,0-0.5,0c-2.1,0-4-0.4-5.9-0.8c-1.7-0.4-3.4-0.7-5.1-0.8c0,0-0.1,0-0.1,0c-1.1,0-2.3,0.1-3.7,0.3
			c-0.8,0.1-1.6,0.2-2.4,0.2c-1.7,0-3.5-0.3-5.5-0.8c-2.6-0.6-5.5-1.3-8.5-1.3c-1.8,0-3.6,0.2-5.4,0.8c-5,1.6-10.2,2.1-15.2,2.7
			l-0.4,0c-1.5,0.2-2.9,0.3-4.4,0.5c-3.7,0.5-7.5,0.9-11.4,0.9c-0.6,0-1.2,0-1.8,0c-2.5-0.1-4.9-0.4-7.3-0.6c-3-0.3-6.1-0.7-9.1-0.7
			c-0.7,0-1.4,0-2.1,0.1l-2.2,0.1l0.7-2.1c0.5-1.5,1.8-1.7,2.3-1.8c0.1,0,0.1,0,0.2,0c2.9-0.8,5.7-1.9,9-3.7l-1.9,0.4l0.2-1.3
			l-6.6-0.4l6.2-2.1c-4.1,1-8.2,1.5-12.3,1.5c-5.1,0-10.2-0.8-15.3-2.3c-3.2-1-6.3-1.5-9.4-1.6l-0.5,0c-2.5,0.1-5.1,0.3-7.6,0.4
			c-3.7,0.3-7.4,0.5-11.2,0.5c-1.2,0-2.5,0-3.7-0.1c-6.8-0.3-13.7-1.8-21.8-4.5l-4.8-1.6l7.2-1.9c2.7-0.7,5.2-1.4,7.7-2
			c0,0,0.1,0,0.1,0c-1.2,0.1-2.5,0.3-3.8,0.5c-1.1,0.2-2.3,0.4-3.5,0.5c-0.8,0.1-1.5,0.1-2.3,0.2c-1.6,0.2-3.3,0.4-5,0.4l-3.6,0
			c-4.6,0-9.3,0.1-14,0.1c-4.9,0-9.8,0-14.6-0.1c-1.7,0-3.4-0.1-5.1-0.2c-2-0.1-4.1-0.2-6.1-0.2c-1.3,0-2.5,0-3.7,0.2
			c-1.7,0.2-3.5,0.2-5.2,0.2c-1.9,0-3.7-0.1-5.5-0.2l9.5,2l-9.7,0.9l0.1,1.1l-1.8-0.3c1.8,0.9,3.5,1.9,5.2,3.1
			c0.9,0.6,1.8,1.3,2.6,2c3.4,2.7,6.7,5.2,11.2,5.2c0.3,0,0.5,0,0.8,0l2.1-0.1l-1.2,4l-2.2,0c-0.4,0-0.8,0-1.2,0c-0.5,0-0.9,0-1.4,0
			l-0.5,0c-1.1,0-2.2,0-3.2,0c-6-0.2-11.9-1.2-17.7-2.1c-1.4-0.2-2.7-0.4-4.1-0.6c-1.6-0.2-3.2-0.3-4.9-0.3c-2.4,0-4.9-0.1-7.3-0.7
			c-5.6-1.6-11.8-2.4-18.7-2.4c-1.1,0-2.2,0-3.3,0.1c-0.1,0-0.3,0-0.4,0c-0.6,0-1.3-0.1-1.9-0.1c-0.5-0.1-1-0.2-1.6-0.3
			c-0.2-0.1-0.5-0.1-0.8-0.2l-2.4-0.6l1.7-1.9c0.9-1,1.8-1.5,2.7-2l0.3-0.2c5.6-3.1,11.7-5.6,17.1-7.9l0.2-0.1
			c0.3-0.1,0.7-0.3,0.9-0.4c0.1-0.1,0.2-0.1,0.2-0.2c-0.1,0-0.1,0-0.2,0c-0.7,0-1.3,0-2,0c-2.5,0-5.1,0-7.7-0.4
			c-4.3-0.7-9.2-1.4-13.6-4.3c-1.1-0.7-2.2-1.2-3.5-1.8c-1.6-0.7-3.3-1.5-4.8-2.7c-0.8-0.6-1.9-0.7-3.2-0.8c-1-0.1-2-0.1-3-0.5
			c-0.4-0.1-0.8-0.2-1.2-0.3c-0.9-0.2-1.9-0.4-3.1-1l-3.7-1.8l4-1c4.9-1.2,10.1-2.5,15.4-3c1.3-0.1,2.5-0.5,3.6-1.1
			c0.2-0.1,0.3-0.2,0.4-0.2c-0.1,0-0.2-0.1-0.3-0.1c-1.3-0.4-2.6-0.8-4-1.2l-1-0.3c-0.5-0.1-1.4-0.4-1.8-1.5l-0.4-0.9l0.7-0.7
			c1.4-1.4,3.1-1.8,4.6-2.2l0.3-0.1c5.5-1.4,11.3-2.6,17.9-3.5c0.3-0.1,0.7-0.1,1-0.1c1.4,0,2.8,0.4,4,0.8l-2-0.8l4.8-1
			c1-0.2,2-0.4,3-0.7c4.4-1,8.6-1.9,12.9-2.1c2.4-0.1,4.7-0.8,6.8-1.5c3.3-1.1,6.9-1.7,10.8-1.8c2-0.1,4-0.1,6.1-0.1
			c4.3,0,8.7-0.1,12.9-0.5c2.8-0.2,5.6-0.4,8.3-0.6c5.1-0.3,10.3-0.7,15.4-1.3c2.7-0.3,5.4-1.2,8.2-2.1c1.5-0.5,3.1-1,4.7-1.4
			l0.8-0.2c3-0.8,6.2-1.6,9.5-1.7c0.1,0,0.2,0,0.4,0c3.7,0,7.2,1,10.3,1.9c2.4,0.7,5,1.1,7.9,1.1c0,0,0,0,0,0
			c-4.3-0.3-8.5-1.3-12.5-2.5c-2-0.6-4.1-0.8-6.2-0.8c-2.3,0-4.7,0.3-7.1,1l-2.1,0.6c-4,1.1-8.1,2.2-12.1,3.5
			c-1.1,0.4-2.3,0.6-3.7,0.6c-8.1,0.2-14.8,0.7-20.9,1.6c-1,0.1-2,0.2-3,0.2c-0.7,0-1.4,0-2.1,0c-0.7,0-1.4,0-2,0c-0.4,0-0.7,0-1,0
			c-5.5,0.2-11.3,0.5-17.1,0.9c-1.6,0.1-3.4,0.5-5.6,1.4c-2.7,1-5.4,1.6-8.1,1.7c-3.7,0.2-7.3,1-11.1,1.8c-2.8,0.6-5.8,1.3-8.8,1.7
			c-7.3,0.9-14.7,2.5-21.8,4.1l-2,0.5c-1.3,0.3-1.5,0.4-1.7,0.9c-0.6,1.7-2.2,1.7-2.8,1.7c-0.3,0-0.6,0-0.9,0c-0.3,0-0.5,0-0.8,0
			c-0.3,0-0.6,0-0.8,0c-0.3,0-0.7,0.1-1,0.1c-0.6,0-1.1-0.1-1.6-0.1c-0.5-0.1-1-0.1-1.4-0.1c-0.8,0-1.4,0.1-2,0.6
			c-0.6,0.5-1.4,0.6-2.2,0.6c-0.9,0-1.7-0.2-2.5-0.3l-0.3-0.1c-1.2-0.2-2.3-0.3-3.4-0.3c-1.4,0-2.7,0.1-3.9,0.3
			c-0.7,0.1-1.4,0.1-2.1,0.1c-0.4,0-0.8,0-1.2,0c-0.4,0-0.8,0-1.1,0c-0.5,0-1.1,0-1.6,0.1c-1.8,0.2-3.7,0.3-5.5,0.3
			c-6.6,0-13-1.1-19.2-2.2c-2.3-0.4-4.6-0.8-6.9-1.2c-2-0.3-4-0.6-5.9-1c-5.5-1-11.2-1.9-16.9-1.9c-1.3,0-2.6,0.1-3.9,0.2
			c-4.3,0.4-8.6,0.6-12.9,0.7c-6,0.2-12.1,0.5-18.1,1.3c-0.4,0.1-0.7,0.1-1.1,0.1c-0.3,0-0.6,0-0.9,0c-0.2,0-0.5,0-0.7,0h-2l0.6-1.9
			c1.5-5,4.1-8.5,8.1-10.9c1.8-1,3.6-2,5.4-3c3.6-1.9,7.3-4,10.6-6.4l0.5-0.4c0.6-0.4,1.1-0.8,1.5-1.2c1.8-1.6,3.7-2.6,5.6-3.2
			l-1.2,0l2.7-3.6c0.6-0.8,1.1-1.6,1.7-2.3c1.8-2.4,3-5.1,4.3-8c0.7-1.5,1.4-3.1,2.3-4.7c2.3-4.2,5.4-7.5,8.7-10.8
			c5.9-5.8,10.6-10.8,13.8-17.3c3.6-7.4,9.3-13,14.5-17.5c1-0.9,1.9-1.8,2.8-2.9c0.9-1,1.9-2.1,3-3c1-1.4,2.4-1.7,3.5-1.9
			c0.2,0,0.4-0.1,0.5-0.1c3.4-0.8,6.9-1,10.2-1.3c0.7,0,1.4-0.1,2.1-0.2c1.3-0.1,2.7-0.3,4-0.5c0.5-0.1,0.9-0.1,1.4-0.2
			c3.9-3.9,7.8-6.2,12.1-7.1c1.6-0.3,3.2-0.6,4.8-0.9c1.4-0.3,2.8-0.5,4.1-0.8c1.2-0.2,2.4-0.5,3.3-1.2c3-2.1,6.4-2.9,9.6-3.6
			c0.8-0.2,1.7-0.4,2.5-0.6c0.3-0.2,0.6-0.3,1-0.5c-1.9,0.4-3.8,0.9-5.6,1.4l-2.9,0.7c-1.2,0.3-2.2,0.7-3.1,1.3
			c-3.1,2.1-6.5,2.7-9.8,3.2c-1,0.2-1.9,0.3-2.8,0.5c-3.5,0.7-6.3,1.7-8.8,2.9c-0.9,0.5-1.9,1.3-2.9,2.6c-1.5,1.9-3.5,2.3-5.4,2.4
			c-0.3,0-0.7,0.1-1,0.1c-0.8,0-1.7-0.2-2.2-0.9c-0.8-1.1-0.3-2.4,0.1-3.3c0.6-1.6,1.2-3.1,1.9-4.7c0.8-2,1.6-4,2.4-6.1
			c0.4-1,0.8-2.1,1.2-3.1c1.4-3.6,2.8-7.2,3.8-11c0.4-1.7,1.3-3.1,2.2-4.5c0.6-1,1.2-2,1.6-3c1.4-3.9,3.9-4.5,6.7-4.5
			c0.4,0,0.9,0,1.4,0c2.6,0.1,5.2,0.5,7.8,1c-0.2-0.2-0.4-0.4-0.5-0.7c-0.6-1.4,0.2-2.8,0.5-3.3c1.6-2.6,3.2-5,6.2-6.5
			c1.8-0.9,3.3-2.2,4.4-3.8c1.3-2,3.5-2.5,5.2-2.9c0.4-0.1,0.8-0.2,1.1-0.3c0.4-0.1,0.8-0.2,1.2-0.2c1,0,1.9,0.3,2.5,0.5
			c1.6,0.5,3.2,0.7,4.9,0.7c1,0,2-0.1,3.1-0.1c0.7,0,1.4-0.1,2.1-0.1c1.3-0.5,2.6-0.6,3.7-0.6c1-0.1,1.9-0.1,2.7-0.4
			c2.7-1,4.6-2.6,5.8-5.1l0.1-0.2c0.5-0.7,1.1-1.1,1.8-1.2C207.3,237.2,207.4,237.1,207.5,237.1 M531.7,259
			c-0.2-0.1-0.3-0.2-0.5-0.3c-0.1,0-0.3-0.1-0.4-0.1C531.1,258.7,531.4,258.8,531.7,259 M193,263.4c0.1-0.1,0.2-0.1,0.3-0.2
			c0,0,0,0,0,0c-0.1,0-0.2-0.1-0.2-0.1C193.1,263.2,193.1,263.2,193,263.4C193.1,263.3,193.1,263.3,193,263.4 M416.4,264.6
			c-0.7-0.4-1.4-0.8-2-1.2c0.1,0.1,0.2,0.2,0.3,0.3C415.2,264,415.8,264.3,416.4,264.6 M503.9,267.7c0.1-0.1,0.1-0.2,0.2-0.4
			c0.1-0.2,0.2-0.3,0.4-0.4c-0.2,0-0.3,0-0.4,0c-0.1,0-0.2,0-0.3,0C503.8,267,503.9,267.3,503.9,267.7 M430.6,271.4
			c-0.6-0.3-1.2-0.6-1.8-0.9c0.1,0.1,0.2,0.1,0.3,0.2l0.3,0.2C429.8,271.1,430.2,271.3,430.6,271.4 M506.2,274.3c0.1,0,0.3,0,0.4,0
			c0.2,0,0.3,0,0.4,0c0-0.1-0.1-0.2-0.2-0.4c0-0.1-0.1-0.1-0.1-0.2l-0.3,0.4C506.3,274.3,506.2,274.3,506.2,274.3 M441,276.8
			c-0.3-0.4-0.5-0.8-0.5-1.1c-0.1-0.5,0-1.1,0.5-1.9c-0.8,0.9-1.7,1.3-2.7,1.4C439.3,275.7,440.2,276.2,441,276.8 M216,280.6
			c1.4-0.2,2.6-0.4,3.5-1.3c0.9-0.8,1.8-1.5,2.7-2.1c-1.6,0.8-3.2,1.7-4.6,2.7C217.1,280.4,216.5,280.5,216,280.6 M209,281.4
			c0.4,0,0.9-0.1,1.3-0.2c1-0.1,1.9-0.2,2.9-0.3c0.6-0.1,1.3-0.2,2-0.2c0.2,0,0.4,0,0.6-0.1c-0.2,0-0.4,0-0.6,0c-0.3,0-0.6,0-0.8,0
			c-0.2,0-0.4,0-0.6,0c-0.1,0-0.3,0-0.4,0C211.9,280.9,210.5,281.2,209,281.4 M468.8,283.7c1-0.1,2-0.1,3-0.1c5.1,0,10.5,1,16.8,3.1
			c1.9,0.6,3.5,0.9,5,0.9c0.2,0,0.3,0,0.5,0c1.1,0,2.2-0.1,3.2-0.1c5.7,0,11.2,0.6,16.4,1.3c0.5,0.1,1.2,0.2,1.9,0.6
			c1.7,1,3.5,2.1,5.2,3.1l1.7,1c1.4,1,2.8,1.9,4.2,2.8c3.1,2.1,6.4,4.2,9.5,6.5c1.1,0.8,2.2,1.6,3.3,2.4c-1.1-0.8-2.2-1.7-3.2-2.5
			c-2.4-1.9-4.9-3.9-7.5-5.5l-4.6-3l5.5,0.2c0.3,0,0.7,0,1,0c1.7,0,3.4-0.1,5.1-0.3c1.7-0.1,3.5-0.3,5.2-0.3c0.5,0,0.9,0,1.4,0
			l1.2-0.1c0.8-0.1,1.5-0.2,2.3-0.3c-1.6,0.2-3.2,0.3-4.8,0.3c-0.1,0-0.2,0-0.4,0c-0.2,0-0.4,0-0.6,0c-2.2,0-4.5,0.1-6.8,0.2
			c-1.5,0.1-2.9,0.2-4.4,0.2c-0.2,0-0.5,0-0.7,0c-3.4,0-6.1-0.8-8.3-2.5c-4.4-3.5-9.8-3.8-15.4-4.1l-0.5,0c-1.6-0.1-3.2-0.1-4.8-0.1
			c-4.4,0-8.9-0.1-13.3-1.7c-1.8-0.7-3.7-1.1-5.7-1.6c-0.6-0.2-1.3-0.3-1.9-0.5c-0.6-0.2-1.2-0.2-1.7-0.2c-0.1,0-0.1,0-0.2,0
			c-0.8,0-1.7,0-2.5,0c-5.9,0-11.7-0.7-17.4-1.3c-1.3-0.2-2.7-0.3-4-0.5c2.2,0.5,4.3,0.8,6.6,0.9c2.3,0.1,4.6,0.4,6.8,0.7
			C466.9,283.5,467.9,283.6,468.8,283.7 M182.4,285.3c0.3,0,0.5,0,0.8-0.1c1-0.1,2-0.2,2.9-0.4c3.4-0.7,6.8-1.2,10.1-1.6
			c2-0.3,4.1-0.5,6.2-0.9c-1.5,0.2-3,0.4-4.5,0.6c-3.7,0.4-7.4,0.9-11.1,1.5C185.3,284.7,183.8,285,182.4,285.3 M569,286.6
			c0.1,0,0.3-0.1,0.4-0.2c0.2-0.1,0.5-0.2,0.6-0.2c0.1-0.1,0.2-0.2,0.4-0.3C569.9,286.2,569.4,286.4,569,286.6 M578.3,288.1
			c-0.8-0.2-1.5-0.6-2.1-1c0.1,0.1,0.1,0.2,0.2,0.3C576.7,287.9,577.5,288,578.3,288.1 M588.1,288.8c-0.7-0.1-1.3-0.3-2-0.4
			c-0.8-0.2-1.6-0.3-2.4-0.3c-0.2,0-0.4,0-0.6,0C584.8,288.2,586.4,288.4,588.1,288.8 M549.8,293.1c2.7-0.4,5.5-0.9,8.2-1.5h0
			c0.3-0.1,0.7-0.1,1-0.1c0.1,0,0.3,0,0.4,0l-0.8-0.5l3.4-1.5C558.2,291,554.1,292.3,549.8,293.1 M332.3,300.3
			C332.3,300.3,332.3,300.3,332.3,300.3C332.3,300.3,332.3,300.3,332.3,300.3 M582.9,301.7c2.3,0,4.6-0.1,6.9-0.1
			c-0.9-0.1-1.8-0.3-2.6-0.5c-1.2-0.2-2.2-0.4-3.4-0.6c-0.5,0-0.9-0.1-1.3-0.2l4.8,1.1L582.9,301.7 M567.5,304.5l1.1-1.5
			c0.2-0.3,0.4-0.5,0.6-0.6c-3.2,0-6.4-0.2-9.7-0.7C562.3,302.7,565,303.7,567.5,304.5 M336,302.1C336,302.1,336,302.1,336,302.1
			C336,302.1,336,302.1,336,302.1 M588.1,309.4c2.7-0.5,5.4-1,8.2-1.3c-0.7-0.1-1.5-0.1-2.2-0.1c-0.5,0-1.1,0-1.6,0l-0.3,0
			c-0.9,0-1.8,0-2.8,0c-2.1,0-4.3-0.1-6.6-0.2L588.1,309.4 M552.1,313.8c-0.3-0.2-0.6-0.5-0.8-0.7l-3.4-2.9c0,0,0,0,0,0
			c-0.5,0-1.2-0.1-1.8-0.4c0.7,0.5,1.4,0.9,2.1,1.4C549.5,312.1,550.8,312.9,552.1,313.8 M636.1,311.3c1.3-0.2,2.7-0.3,4.1-0.4
			c-1.6-0.2-3.2-0.4-4.9-0.8l2,0.7L636.1,311.3 M280.3,314.9l-1.1-1l2.8-0.6c0.2,0,0.3-0.1,0.5-0.1c-1.6-0.2-3.3-0.5-5-0.9
			c-0.1,0-0.2,0-0.3,0c-0.1,0-0.1,0-0.1,0c0,0.1,0,0.2,0.4,0.5c0.5,0.4,1,0.7,1.5,1.1C279.5,314.2,279.9,314.5,280.3,314.9
			 M395.3,312.7c-0.4-0.1-0.7-0.1-1.1-0.2c-0.4-0.1-0.9-0.2-1.3-0.2c-0.3,0-0.6,0-0.8,0c1,0.1,2,0.2,2.9,0.3
			C395.1,312.7,395.2,312.7,395.3,312.7 M627.4,313.7L627,313l0.6-0.1c-0.7-0.1-1.4-0.3-2-0.4c0,0-0.1,0-0.1,0
			c0.3,0.2,0.5,0.4,0.8,0.5C626.6,313.2,627,313.5,627.4,313.7 M377.5,315.8c-0.2-0.2-0.5-0.5-0.7-0.8l-0.8-1.3l1.3-0.8
			c0.1-0.1,0.3-0.2,0.5-0.3c-1.7,0-3.3,0.1-4.9,0.3c-0.2,0-0.5,0.1-0.7,0.1c0.2,0.1,0.4,0.2,0.6,0.3c1.4,0.6,2.7,1.4,4,2.1
			C377,315.5,377.3,315.7,377.5,315.8 M410.4,315.4c-1.3-0.7-2.7-1.1-4.1-1.4C407.8,314.3,409.1,314.7,410.4,315.4 M437.5,333.2
			c-0.9-0.6-1.9-1.1-2.9-1.5c-1.6-0.7-2.7-2-3.7-3.1l-0.3-0.3c-1.8-2-3.9-3.7-6.2-5c-3.5-2-7.1-4-10.6-6l-1.6-0.9
			c2.9,1.8,6.2,3.6,10.2,5.8c3.7,2,6.7,4.4,9,7.1c1.2,1.4,2.8,2.5,4.7,3.3C436.6,332.7,437,333,437.5,333.2 M563.6,322.6
			c-0.1-0.2-0.2-0.5-0.3-0.7l-2.5-3.6c-0.4-0.1-0.8-0.3-1.2-0.4c-0.7-0.2-1.5-0.5-2.2-0.7c-0.3-0.1-0.7-0.2-1-0.4
			c0.7,0.5,1.4,1,2.1,1.5l2.9,2c0.5,0.3,0.9,0.8,1.3,1.2l0.3,0.4C563.3,322.1,563.5,322.4,563.6,322.6 M359.3,317.1
			C359.3,317.1,359.3,317.1,359.3,317.1C359.3,317.1,359.3,317.1,359.3,317.1 M583.5,318.6c0.2-0.4,0.4-0.6,0.6-0.8
			c0.1-0.1,0.2-0.2,0.4-0.2c-0.5-0.1-0.8-0.1-1-0.2C583.4,317.7,583.4,318.1,583.5,318.6C583.5,318.6,583.5,318.6,583.5,318.6
			 M615,321.6C615.1,321.6,615.1,321.6,615,321.6c0.9-1.1,1.9-1.5,2.8-1.5c0.1,0,0.2,0,0.3,0c-0.7-0.2-1.3-0.5-2-0.7
			c-0.2-0.1-0.3-0.1-0.4-0.1c0,0.1,0,0.1,0,0.2C615.8,320.5,615.5,321.1,615,321.6C615.1,321.6,615.1,321.6,615,321.6 M565.3,319.6
			c-0.1,0-0.1,0-0.2,0l0,0C565.3,319.6,565.3,319.6,565.3,319.6 M550.6,325.1c0-0.2-0.1-0.4-0.1-0.6l-0.2-1.3
			c-0.7-0.3-1.4-0.6-2.2-0.9c-2.6-1.1-5.1-2.1-7.7-2.8c0.9,0.3,1.8,0.7,2.7,1.1c0.9,0.4,1.8,0.8,2.7,1.1
			C547.8,322.6,549.3,323.7,550.6,325.1 M582.6,320.8c0.4-0.1,0.5-0.3,0.6-0.7C583,320.4,582.8,320.6,582.6,320.8 M288,323.2
			c-0.4-0.3-0.8-0.6-1.1-1.1c-0.1-0.2-0.3-0.4-0.4-0.6C286.8,322.3,287.3,322.8,288,323.2 M391.6,324C391.6,324,391.6,324,391.6,324
			c-0.8-0.7-1.7-1.4-2.6-2C390,322.7,390.8,323.4,391.6,324 M481.7,327.6l0.1-0.1l-1.8-2.1l2.7,0.5l0-0.2c-1.9-0.9-4-1.7-6.1-2.1
			c-1.2-0.3-2.5-0.6-3.7-0.9C475.8,324,478.8,325.6,481.7,327.6 M304,328.2c-3.2-0.9-6.3-1.9-9.4-2.8c-1.8-0.6-3.6-1.1-5.3-1.6
			c-0.1,0-0.2-0.1-0.4-0.1c0.5,0.2,1.1,0.4,1.8,0.6c0.4,0.1,0.7,0.2,1.1,0.3C295.8,325.9,299.9,327.1,304,328.2 M516.9,326.6
			l1.5-0.1c-1.1-0.3-2.2-0.7-3.3-1.2C515.7,325.7,516.3,326.2,516.9,326.6 M567,329.7c-1.1-0.8-2-1.9-2.2-3.7
			c-0.1,0.3-0.2,0.7-0.4,1c-0.2,0.4-0.6,0.7-0.9,0.9C564.7,328.4,565.9,329,567,329.7 M651.1,329.2l-1.1-0.2c-2-0.3-3.9-0.6-5.9-1
			c1.5,0.3,3.1,0.7,4.6,1C649.5,329.2,650.3,329.2,651.1,329.2 M449.2,362.4c0,0-0.1,0-0.1,0c-0.4,0-0.7,0-1.1,0
			c-2.5,0-5,0.3-7.5,0.5c-1.3,0.1-2.7,0.3-4,0.4c3.5-0.1,7.1-0.3,10.8-0.7C447.9,362.5,448.5,362.5,449.2,362.4
			c1.2,0.1,2.4,0.2,3.6,0.4c0.2,0,0.4,0.1,0.5,0.1c0.3,0,0.4-0.1,0.4-0.2c0.1-0.1,0-0.2-0.4-1c-0.4-0.7-1.1-1.2-1.9-1.9
			c-0.6-0.5-1.3-1-1.9-1.7l-1.6-1.7l2.2-0.7c0.6-0.2,1.2-0.3,1.8-0.3c0.8,0,1.6,0.2,2.2,0.3c0.3,0.1,0.6,0.1,0.8,0.2
			c2.4,0.4,4.8,0.5,7.3,0.5c0.3,0,0.7,0,1,0c-3,0-5.9-0.4-8.7-0.8c-2-0.3-4.1-0.6-6.1-0.7c-1.7-0.1-3.5-0.2-5.3-0.2
			c-1.8,0-3.2-0.9-4.1-2.5c-1-1.9-2.2-3.8-3.3-5.6c-0.4-0.7-0.9-1.5-1.3-2.2c-0.5-0.9-1.3-1.6-2.4-2.4c-5.2-4.3-11.8-7.5-19.4-9.3
			c-1.8-0.5-3.6-1-5.4-1.5c-2.7-0.8-5.4-1.5-8.1-2.1c-0.3-0.1-0.5-0.1-0.8-0.2c0.6,0.2,1.2,0.4,1.9,0.6c1.3,0.3,2.7,0.7,4,1
			c6.8,1.7,13.9,3.4,20.3,6.9c4.2,2.3,10.1,6.1,12.8,13c1,2.5,3,3.8,5.9,5.1c2.4,1,4.8,2.1,6.8,4l0.8,0.8l-0.5,1
			C450.3,362.2,449.7,362.4,449.2,362.4 M321.9,333.1c-3.6-1.1-7.3-2.1-11-3c-0.3-0.1-0.7-0.2-1-0.3c0.3,0.1,0.6,0.2,0.9,0.2
			C314.4,331,318.2,332,321.9,333.1 M575.4,336.6c-1.5-2.1-3.5-3.7-6-5.4C571.6,332.8,573.6,334.5,575.4,336.6 M328.2,335.2
			c-0.2-0.1-0.3-0.2-0.5-0.2c0,0-0.1,0-0.1,0C327.8,335,328,335.1,328.2,335.2 M558.3,339.5c0.2-0.6,0-1.3-0.6-1.7
			c-0.8-0.5-1.3-1.1-1.6-1.7c0,0.3,0,0.5-0.1,0.8l-0.2,1.4c0.4,0.2,0.8,0.4,1.2,0.5c0.2,0.1,0.5,0.2,0.8,0.4
			C557.9,339.4,558.1,339.5,558.3,339.5 M334.7,337.8c-0.6-0.1-1.1-0.2-1.7-0.3C333.6,337.6,334.2,337.7,334.7,337.8 M528.4,340.4
			C528.4,340.4,528.4,340.4,528.4,340.4c0-0.2-0.2-0.5-0.3-0.6c-0.3-0.4-0.7-1-0.8-1.6c-0.1-0.2-0.1-0.4-0.2-0.6
			c0,0.3,0,0.5-0.1,0.8l-0.3,1.4c0.2,0.1,0.5,0.2,0.7,0.3C527.7,340.2,528.2,340.4,528.4,340.4 M378.6,338.1c-0.4-0.1-0.7-0.2-1-0.2
			c-0.1,0-0.1,0-0.2,0c-0.1,0-0.2,0-0.2,0c0.1,0,0.2,0,0.3,0C377.8,338,378.2,338.1,378.6,338.1 M577.7,339.9
			c-0.4-0.4-0.8-0.8-1.1-1.4l-1.7,0.6c-0.3,0.1-0.7,0.2-1,0.3C575.2,339.6,576.4,339.8,577.7,339.9 M470.7,340.7l-0.3-0.9
			c0,0-0.1,0-0.1,0c0,0.1,0,0.1,0.1,0.2C470.5,340.2,470.6,340.5,470.7,340.7 M448.7,342.6c0-0.1-0.1-0.2-0.1-0.3l-0.2-0.4
			c-0.3-0.7-0.6-1.3-1-2l0.2,2.1c0.3,0.2,0.5,0.3,0.8,0.5v0C448.6,342.5,448.7,342.5,448.7,342.6 M353.4,340.8
			c-1.2-0.1-2.4-0.2-3.6-0.3C351,340.7,352.2,340.8,353.4,340.8 M737.2,341.4C737.2,341.4,737.2,341.4,737.2,341.4l-0.1-0.8
			c0,0,0,0,0,0L737.2,341.4C737.2,341.3,737.2,341.4,737.2,341.4 M561.1,344c0.1,0,0.2,0,0.3,0c0.8-0.1,1.5-0.1,2.2-0.2
			c0.5-0.1,0.8-0.2,0.8-0.3c0,0,0-0.3-0.4-0.8c-0.1-0.2-0.3-0.4-0.5-0.5c-0.1-0.2-0.3-0.3-0.4-0.5c-0.1-0.1-0.1-0.2-0.2-0.3
			c0.1,0.5,0,1.2-0.4,1.8C562.2,343.7,561.6,343.9,561.1,344 M646,343.5c1.1-0.3,2.3-0.4,3.5-0.5c0.2,0,0.3,0,0.5,0
			c-1.1,0-2.2,0-3.3,0L646,343.5 M557.3,344.5c-0.9,0.1-1.8,0.1-2.7,0.1c-0.5,0-1,0-1.5,0c0.5,0.1,1.1,0.2,1.6,0.2
			C555.5,344.7,556.4,344.6,557.3,344.5 M500.5,347c-0.3-0.4-0.6-0.8-0.9-1.3c0.2,0.4,0.5,0.7,0.8,1.1
			C500.5,346.9,500.5,347,500.5,347 M527.9,347.9c1-0.4,2.1-1,3.2-1.7c-0.7,0.3-1.3,0.7-2,1.1C528.7,347.6,528.3,347.8,527.9,347.9
			 M511,358.5c0,0,0.1,0,0.1,0c0.5-0.2,0.6-0.4,0.7-0.4c0,0-0.1-0.3-0.5-0.7c-0.7-0.8-1.7-1.5-2.6-2.2c-0.6-0.5-1.3-1-2-1.5
			l-1.2-1.1l1.2-1.1c0.5-0.4,0.9-0.7,1.4-0.8c-0.7,0-1.4,0-2,0c-0.3,0-0.7,0-1,0c0,0,0,0,0,0c-1.8,0-2.7-1-3.3-1.9c0,0,0,0,0-0.1
			c0.4,0.8,0.7,1.7,0.7,2.7c0.2,0.1,0.4,0.2,0.6,0.3c0.3,0.1,0.6,0.3,0.8,0.5c0.4,0.2,0.8,0.5,1.1,0.7c1.6,1,3.2,2,4.5,3.7
			L511,358.5 M623.4,352.1c-0.1-0.2-0.2-0.3-0.2-0.4c0-0.1-0.1-0.1-0.1-0.2l-1.1-1.9c-1.3,0.2-2.5,0.4-3.8,0.6l-0.1,0
			c-0.2,0-0.6,0.1-0.8,0.2c0.2,0.1,0.4,0.1,0.6,0.1l0.8,0.2C620.2,350.9,621.8,351.2,623.4,352.1 M474.7,350.7l-1.5-0.8
			c0.3,0.2,0.5,0.4,0.8,0.6l0.6,0.5c0.1,0.1,0.2,0.1,0.3,0.2c0-0.1,0-0.3,0-0.4c-0.1-0.3-0.2-0.6-0.3-0.9l-0.2-0.1L474.7,350.7
			 M615.6,350.7l1.5-0.3c0,0,0,0,0,0c0,0,0,0,0,0c0,0,0,0,0,0c0,0,0,0,0,0L615.6,350.7C615.6,350.7,615.6,350.7,615.6,350.7
			 M408.6,353.8c0.1,0,0.1,0,0.2-0.1c0.1-0.1,0.1-0.1,0.1-0.1c0-0.1-0.1-0.6-0.2-0.8c-0.1-0.2-0.1-0.4-0.2-0.6
			c0-0.1-0.1-0.3-0.2-0.6l0.2,2.1C408.6,353.8,408.6,353.8,408.6,353.8 M401.2,361l0.7-2.4c-2.2-2.7-4.6-4.8-7.2-6.4
			c1.9,1.3,3.7,2.9,5.4,4.9c1,1.2,1.1,2.4,1.1,3.5L401.2,361C401.2,360.9,401.2,361,401.2,361 M624.9,353.3
			C624.9,353.3,624.9,353.3,624.9,353.3C624.9,353.3,624.9,353.3,624.9,353.3L624.9,353.3 M627.8,354.4c-0.8-0.3-1.7-0.6-2.5-0.9
			c0.2,0.1,0.4,0.3,0.6,0.4C626.6,354,627.2,354.2,627.8,354.4 M364.4,357c0.1-0.2,0.1-0.4,0.2-0.7c0.2-0.6,0.7-1.2,1.5-1.4
			c-0.3-0.1-0.5-0.1-0.7-0.1c-0.4,0-0.7,0.1-0.9,0.4C364.5,355.6,364.4,356.3,364.4,357 M635.1,356.3c-0.3-0.1-0.6-0.1-0.9-0.2
			c0.2,0,0.5,0.1,0.7,0.1C634.9,356.3,635,356.3,635.1,356.3 M464.4,356.3c1,0,1.9,0,2.9-0.1l0.3,0c0.3,0,0.6,0,0.9,0
			c3.6,0,6.7,0.6,9.4,2c0.3,0.1,0.6,0.2,0.8,0.3c-0.1,0-0.1-0.1-0.2-0.1c-3.1-1.8-6.5-2.3-9.9-2.3c-1.1,0-2.3,0.1-3.4,0.1
			C465,356.3,464.7,356.3,464.4,356.3 M647.4,360.5c0.6-0.3,1.1-0.5,1.7-0.8c2.2-1.1,4.5-2.2,7-2.9c0.1,0,0.2-0.1,0.2-0.1
			c0,0-0.2-0.1-0.7-0.1c0,0,0,0,0,0l-2.5,0c-2.1,0-4.2,0-6.4,0c0.5,0,1,0,1.5,0l3.8,0.2l-2.9,2.4
			C648.5,359.9,647.9,360.2,647.4,360.5 M505.1,359.3c0.7-0.1,1.4-0.1,2.1-0.2l0.1,0c0.4,0,0.7-0.1,1.1-0.1l-0.6-0.2
			c-0.5-0.2-1-0.4-1.5-0.5c-1-0.3-2.1-0.7-3.1-1.1c0,0,0,0,0.1,0.1L505.1,359.3 M485,359.7c0.1,0,0.2,0,0.3,0c0.1,0,0.1,0,0.2,0
			c0.1,0,0.2,0,0.3,0c0.1,0,0.1,0,0.2,0c-2.1-0.1-4.2-0.3-6.2-0.8l-0.2,0c-0.2,0-0.4-0.1-0.6-0.2C480.7,359.3,482.7,359.7,485,359.7
			 M495,359.7c1.5,0,3.1,0,4.6,0c-0.7,0-1.4,0-2,0c-1.4,0-2.7,0-4,0.1C494.1,359.6,494.5,359.7,495,359.7 M386.4,373.5
			c-0.6,0-1.2,0-1.8,0c-2-0.1-4.3-0.2-6.6-0.6c-0.9-0.2-1.8-0.2-2.8-0.2c-3.4,0-6.8,1.1-11,3.5c-5.3,3-11.1,5.9-17.5,7
			c-2,0.3-4.1,0.4-6.1,0.5c-2,0.1-4,0.2-5.8,0.5c-0.3,0.1-0.7,0.1-1,0.1c1.8-0.1,3.5-0.2,5.3-0.3c3.7-0.2,7.4-0.4,11.1-1
			c0.5-0.1,0.9-0.1,1.3-0.1c1.4,0,2.8,0.4,4.1,0.8l0.1,0l-0.3-0.9c-0.2-0.8,0-1.3,0.2-1.7c0.3-0.5,0.7-0.8,1.3-0.9
			c3.2-0.8,6.1-2.5,9-4.4c3-1.8,6.3-2.8,9.9-2.8c1.5,0,3.1,0.2,4.8,0.5c2.1,0.4,4.2,0.5,6.3,0.5c2.9,0,5.8-0.3,8.5-0.7
			c4.1-0.6,8.2-0.9,12.7-1.2c1.3-0.1,1.6-0.3,1.7-0.4c0,0,0-0.4-0.5-1.5c-0.1-0.2-0.3-0.5-0.6-0.7c-0.6-0.7-2-2.3-0.7-4.1
			c0.3-0.4,0.7-0.6,1.1-0.8c0,0,0,0,0,0c-0.1,0-0.1,0-0.2,0c-1.8,0-3-0.7-4.1-2.3c-0.6-0.9-1.2-1.7-1.8-2.5l6.2,11.8l-2.4,0.1
			c-3.1,0.1-6.2,0.5-9.2,0.9C393.8,373,390.1,373.5,386.4,373.5 M317.2,360l0.3,0c0,0-0.1,0-0.1,0L317.2,360
			C317.1,360,317.2,360,317.2,360 M555.8,366.8c5.8-0.5,11.8-1.5,18.1-3c2.8-0.7,5.6-1.4,8.3-2.2c1.3-0.4,2.6-0.7,3.8-1.1
			c0.6-0.2,1.3-0.3,2-0.3c0,0,0,0,0,0c-0.1,0-0.3,0-0.4,0c-0.4,0-0.9,0.1-1.4,0.2c-2.6,0.6-5.2,1.3-7.7,2c-4.6,1.3-9.3,2.6-14.2,3.2
			c-1.2,0.1-2.3,0.3-3.5,0.5C559.2,366.3,557.5,366.6,555.8,366.8 M640.8,362.8c0.2,0,0.4-0.1,0.5-0.1c1.7-0.3,3.3-0.9,4.9-1.6
			c-0.5,0.2-1,0.4-1.5,0.5l-0.5,0.1C643.1,362.1,641.9,362.4,640.8,362.8 M415.9,363.5c1.7-0.2,3.4-0.3,5.1-0.3c1.1,0,2.2,0,3.3,0.1
			c0.6,0,1.2,0,1.8,0c1.7,0,3.4,0.1,5.2,0.1c0.9,0,1.8,0,2.6,0c-1.4-0.1-2.7-0.6-3.9-1.3l0.7,0.7l-3.3,0.2c-1.5,0.1-2.9,0.1-4.2,0.1
			c-2.2,0-4.3,0-6.3,0.3C416.5,363.4,416.2,363.4,415.9,363.5 M188.9,372.4c-0.7,0-1.3-0.2-1.6-0.3c0,0,0,0,0,0
			c1.4,0.6,2.7,1.4,3.9,2.3c0.2,0.2,0.4,0.2,0.5,0.2c0.1,0,0.2,0,0.2-0.1c0-0.1-0.1-0.6-0.1-0.8c-0.1-0.9-0.2-1.7-0.3-2.6
			c-0.2-2.2-0.5-4.3-1.3-6.2c-0.5-1.1,0-1.9,0.2-2.1c0.2-0.3,0.5-0.5,0.9-0.6l-1.7,0c-0.3,0.4-0.3,1,0.1,2.2l0.2,0.6
			c0.4,1.3,0.9,2.6,1.1,4c0.1,0.7,0.3,2.1-0.7,2.9C189.8,372.3,189.3,372.4,188.9,372.4 M197.3,362.5c0.6,0,1.2,0,1.8,0
			c0,0,0.1,0,0.1,0c-1.9,0-3.7-0.1-5.6-0.1C194.9,362.4,196.1,362.5,197.3,362.5 M400.1,363.5c0.1,0,0.2,0,0.2,0
			c0,0,0.1-0.1,0.2-0.4c0,0-0.1,0.1-0.1,0.1c-0.1,0.1-0.3,0.2-0.5,0.3C400,363.5,400.1,363.5,400.1,363.5 M633.5,367.3l2-1.8
			c0.6-0.5,1.1-0.9,1.7-1.2c-0.5,0.3-1.1,0.5-1.6,0.8c-1.8,1-3.8,1.1-5.6,1.1c-0.3,0-0.5,0-0.8,0c-0.2,0-0.4,0-0.6,0
			c0.8,0.2,1.6,0.4,2.4,0.6C631.9,367,632.7,367.1,633.5,367.3 M366.4,365.3c0.1,0,0.1,0,0.1,0c0,0,0-0.1,0-0.2c0-0.1,0-0.2,0-0.3
			c-0.1,0.2-0.3,0.4-0.5,0.5C366.2,365.3,366.3,365.3,366.4,365.3 M219.5,366.8c-1.2-0.1-2.3-0.3-3.5-0.5l-0.4-0.1c0,0-0.1,0-0.1,0
			C216.8,366.5,218.1,366.7,219.5,366.8 M239.5,366.7c0.5,0,1,0,1.5,0C240.6,366.7,240,366.7,239.5,366.7 M538.1,369.3l3-1.3
			c0.5-0.2,1-0.4,1.5-0.5c-0.8,0-1.6,0.1-2.4,0.1c-2.1,0-4.3-0.2-6.5-0.7c0,0,0,0,0,0c0,0.1,0,0.2,0,0.3l0.7,0.5
			C535.6,368.2,536.9,368.7,538.1,369.3 M246.4,367.8c-0.4-0.4-1-0.7-1.8-0.9c0,0,0,0,0,0C245.2,367,245.8,367.3,246.4,367.8
			 M227.6,367.1c0.7,0,1.4,0,2.1,0c-0.6,0-1.3,0-1.9,0c-1,0-1.9,0-2.9,0C225.8,367.1,226.7,367.1,227.6,367.1 M548.2,367.1
			c0.5,0,1,0,1.6,0c0,0-0.1,0-0.1,0C549.2,367.1,548.7,367.1,548.2,367.1 M275.5,369.5c0.1-0.5,0.4-0.9,0.8-1.3
			c0.1-0.1,0.3-0.2,0.5-0.3c-0.3-0.1-0.7-0.1-1.1-0.2c-0.1,0-0.2,0-0.2,0c-0.1,0-0.1,0-0.2,0c0,0,0,0.1,0,0.1
			C275.5,368.5,275.5,369,275.5,369.5 M144.1,368.9c0.5-0.1,1-0.2,1.5-0.2c0.8,0,1.6-0.1,2.4-0.1c1.5-0.1,3.1-0.1,4.6-0.2
			c-0.8,0-1.6,0-2.5,0c-1.7,0-3.5,0.1-5.2,0.3C144.6,368.7,144.4,368.8,144.1,368.9 M165.4,370.3c0.6,0,1.2-0.2,1.8-0.5
			c0.4-0.2,0.7-0.4,1.1-0.5c-0.4,0-0.7,0-1.1,0c-1.7,0-3.4-0.1-5-0.3c-0.6,0-1.1-0.1-1.7-0.1l-1.2-0.1c1.5,0.2,2.9,0.6,4.3,1.1
			C164.3,370.2,164.9,370.3,165.4,370.3 M183.9,371c-3.8-1.1-7.4-1.7-10.9-1.8c0.1,0,0.3,0,0.4,0.1c3.3,0.4,6.7,0.9,10.4,1.7
			C183.8,371,183.9,371,183.9,371 M135.9,370c0.2,0,0.4,0,0.5,0c0.4,0,0.7,0,1.1,0.1c0.3,0,0.5,0.1,0.8,0.1c0.5,0,1.1-0.1,1.7-0.2
			c-0.1,0-0.2,0-0.4,0c-0.5-0.1-1-0.1-1.5-0.1C137.3,369.8,136.6,369.8,135.9,370 M274.8,372.2c0.6-0.6,0.7-1.1,0.7-1.4
			c0,0,0-0.1,0-0.1C275.3,371.3,275.1,371.8,274.8,372.2 M126.4,375.5c1.7-1,3.4-2.1,4.9-3.5c0.3-0.3,0.6-0.5,0.9-0.7
			c-1.6,0.8-3,1.9-4.4,3.1C127.4,374.8,126.9,375.1,126.4,375.5 M556.6,378.9c3.5-0.7,6.9-1.7,10.3-2.6l1.2-0.4
			c0.1,0,0.3-0.1,0.5-0.2l0.1-0.1c0.5-0.3,0.6-0.4,0.7-0.4c0,0,0,0.1,0,0.1l1.2-0.9c0,0,0,0,0,0l-1.3,0.8c0,0,0,0,0,0
			c0,0-0.2-0.1-0.6-0.1c0,0,0,0-0.1,0c-0.2,0-0.4,0-0.7,0c-2.7,0-5.4-0.3-8-0.6c-0.5-0.1-1-0.1-1.4-0.2c0.7,0.1,1.3,0.2,2,0.3l5,1
			l-4.7,1.9C559.4,378.1,558,378.6,556.6,378.9 M494,386.6c1.8-0.3,3.7-0.6,5.5-1.1c0.2,0,0.4-0.1,0.5-0.2c-0.1,0-0.3-0.1-0.4-0.1
			l-0.2-0.1c-5.2-1.9-9.3-3.5-13.2-5l-4.7-1.9l5-0.9c0.4-0.1,0.8-0.1,1.1-0.1c-5.1-0.5-9.9-1.3-14.5-2.1c-0.2,0-0.5-0.1-0.7-0.1l0,0
			c0.1,0.1,0.5,0.4,0.7,0.5c2.3,1.7,5.1,2.4,8,3.2c0.5,0.1,1,0.3,1.6,0.4c3.6,1,7,2.4,10.6,3.8l4.2,1.7l-2.7,1.5
			C494.6,386.4,494.3,386.5,494,386.6 M673.1,378.5c0.1,0,0.3-0.1,0.4-0.1c1-0.2,1.9-0.4,2.9-0.5c-2.6-0.1-5-0.6-7.1-1.2
			c-1.8-0.5-3.4-1-5-1.6c0.8,0.4,1.7,0.8,2.6,1.1L673.1,378.5 M511,377.4c0.5-0.1,1-0.1,1.5-0.2C512,377.2,511.5,377.3,511,377.4
			 M531,379.1c-0.6-0.1-1.2-0.3-1.7-0.5c-1.9-0.6-3.8-1-5.7-1.3C525.9,378,528.4,378.6,531,379.1 M262.3,378.2
			c0.3-0.2,0.5-0.3,0.8-0.5c-0.1,0-0.2,0.1-0.4,0.1l-0.1,0.1C262.5,378,262.4,378.1,262.3,378.2 M433.3,380.9c0.1,0,0.1,0,0.2-0.1
			c2.7-0.8,5.3-1.8,7.9-2.8C438.7,378.8,436,379.8,433.3,380.9 M118.8,379.2c0.3-0.1,0.6-0.3,0.9-0.4c-0.2,0.1-0.4,0.2-0.6,0.2
			C119.1,379.1,119,379.1,118.8,379.2 M260,379.7c0.5,0,0.9-0.1,1.1-0.4c0.1-0.1,0.1-0.1,0.2-0.2C261,379.4,260.5,379.6,260,379.7
			c-0.1-0.1-0.2-0.1-0.3-0.1c-0.3-0.1-0.8-0.2-1.1-0.7c0,0.1,0.1,0.2,0.2,0.4c0,0.1,0.4,0.3,1,0.4
			C259.8,379.7,259.9,379.7,260,379.7 M626.7,379.1c0.6,0,1.2-0.1,1.8-0.1c-0.2,0-0.5,0-0.7,0c-0.3,0-0.5,0-0.7,0.1
			C626.9,379,626.8,379.1,626.7,379.1 M595.8,382.4l-1.4-1.6c-1.6,0-3.2-0.1-5-0.3C591.4,381.3,593.6,381.9,595.8,382.4
			 M426.1,385.1c0.2-0.2,0.4-0.4,0.6-0.5c1.4-1.1,2.9-2.1,4.5-2.8c-1.5,0.5-2.9,0.9-4.4,1.1l0.4,0L426.1,385.1
			C426.1,385,426.1,385,426.1,385.1 M360.8,383.7c-0.1,0-0.3,0-0.4,0c-0.3,0-0.6,0.1-0.9,0.1c-0.2,0-0.3,0-0.5,0c-0.2,0-0.5,0-0.8,0
			c-0.2,0-0.5,0-0.7,0c-0.3,0-0.5,0-0.8,0h-0.7l2.5,0.8c0.2-0.1,0.3-0.2,0.5-0.3c0.4-0.2,0.9-0.4,1.3-0.5
			C360.5,383.7,360.7,383.7,360.8,383.7 M378.4,386.1l1.3-1.4c0.1-0.1,0.2-0.1,0.2-0.2c-0.9,0.2-1.9,0.4-2.9,0.8c0,0-0.1,0-0.1,0
			c0,0,0,0,0,0C377.4,385.7,377.9,385.9,378.4,386.1 M702.3,385.3c-0.2-0.1-0.4-0.1-0.6-0.2c-0.7-0.3-1.3-0.4-1.9-0.5L702.3,385.3
			 M692.7,385.8c-0.5,0-0.9,0-1.3,0c-0.5,0-0.9,0-1.4,0c-0.1,0-0.1,0-0.2,0l-0.1,0c-0.2,0-0.4,0-0.5,0c0.1,0.1,0.3,0.2,0.7,0.3
			c0.1,0,0.2,0.1,0.3,0.1c0.8-0.1,1.5-0.2,2.3-0.2c2.5,0,4.8,0.6,7.1,1.4l1.2-0.9l-1.9-1.8c-0.3,0-0.5,0.1-0.8,0.2
			C696.2,385.7,694.4,385.8,692.7,385.8 M457.2,387.5c0-0.5,0.2-0.9,0.4-1.2c0.2-0.3,0.6-0.8,1.3-0.9c-0.3-0.1-0.5-0.1-0.8-0.2
			c-0.5-0.1-1.1-0.3-1.6-0.4l-0.8-0.2c-0.1,0-0.1,0-0.2,0c0,0,0,0,0,0c0,0.1,0,0.1,0,0.2C456.3,385.7,456.8,386.6,457.2,387.5
			 M322.2,385.5c1.5-0.1,2.9-0.2,4.3-0.4C325.1,385.2,323.7,385.4,322.2,385.5 M98.4,386.7c0.4-0.2,0.8-0.4,1.2-0.6l-1,0.1
			C98.5,386.4,98.4,386.6,98.4,386.7 M423.6,388.6c0.3-0.1,0.6-0.1,0.8-0.2c0.5-0.1,0.7-0.2,0.7-0.2c0,0,0-0.1,0-0.3
			c0-0.3,0-0.6,0-0.9C424.7,387.5,424.2,388.1,423.6,388.6 M702,388.5l0.2-0.5l0,0L702,388.5C701.9,388.4,701.9,388.5,702,388.5
			 M708.1,389.9C708.1,389.9,708.1,389.9,708.1,389.9l-0.1-1.5L708.1,389.9 M702.7,388.7l-0.3,0c0.5,0.2,1,0.4,1.4,0.7
			c-0.3-0.2-0.6-0.5-0.9-0.7L702.7,388.7 M352.1,389.4l-3.7-0.3l0.3-0.2c-0.3,0.1-0.6,0.1-0.9,0.2
			C349.2,389.3,350.7,389.4,352.1,389.4 M644.6,390.7c0,0,0.1,0,0.1,0c-0.2,0-0.4,0-0.6-0.1L644.6,390.7 M627.4,396.6l-2.7-0.5
			l3.2-0.7c-1.8,0.2-3.5,0.4-5.3,0.6c1.4,0.3,2.9,0.4,4.4,0.5C627.2,396.5,627.3,396.6,627.4,396.6 M397,398.5l-5.8-1.1l5.2-1.8
			c0,0,0,0,0,0c-1.5,0.2-3,0.5-4.4,0.7c-1.4,0.2-2.8,0.4-4.2,0.7c-0.2,0-0.3,0-0.5,0.1c0,0-0.1,0-0.2,0c0.1,0,0.3,0.1,0.5,0.1
			c1.6,0.2,3.2,0.5,4.8,0.7C394,398,395.5,398.3,397,398.5 M484.1,400.6c0.3,0,0.6-0.1,0.9-0.1c1.8-0.2,3.5-0.4,5.3-0.5
			c0.1,0,0.2,0,0.3,0c-0.1,0-0.2,0-0.3,0c-4.6-0.7-9-1.8-13.3-3.1c1.5,0.5,3,0.9,4.6,1.3l7.4,1.9L484.1,400.6 M228.6,406.1
			c-1.1-1.1-2.2-2.1-3.4-3.1c-0.3-0.2-0.5-0.4-0.7-0.8c-0.1-0.2-0.3-0.4-0.6-0.7l-1.9-2.1c0,0-0.1,0-0.1,0c-0.5,0-0.6,0-0.7,0.1
			c0.1,0.1,0.3,0.3,0.4,0.4c1.9,1.6,3.7,3.2,5.6,4.9L228.6,406.1 M579.9,401C579.9,401,579.9,400.9,579.9,401
			C579.9,400.9,579.9,400.9,579.9,401c0-0.1,0-0.1,0-0.1c0,0,0,0,0-0.1l-1.4-0.4L579.9,401 M263,402.7c2.1-0.4,4-0.7,5.9-0.8
			c1.8-0.1,3.6-0.2,5.5-0.3l0.1,0c0,0,0,0-0.1,0c-4.6,0-9.2-0.3-13.8-0.9c-0.5-0.1-1-0.1-1.5-0.2c0.3,0.1,0.6,0.2,0.8,0.2l4.5,1.4
			L263,402.7 M590.5,407.2l1.7-1.4c0.1-0.1,0.2-0.2,0.3-0.2c-4.2-1.1-8.4-2.3-12.3-4.6c0,0,0,0-0.1,0c0.1,0.1,0.1,0.1,0.2,0.2
			c1.8,1.5,3.9,2.9,6.5,4.2C588.1,406,589.3,406.6,590.5,407.2 M300.1,403.8c-0.1-0.2-0.2-0.5-0.3-0.9l-0.1-1.2
			c-0.9-0.1-1.7-0.1-2.4-0.1c-0.1,0-0.3,0-0.4,0c0.1,0.1,0.3,0.2,0.4,0.3C298.2,402.5,299.1,403.1,300.1,403.8 M195.5,403.7
			c0.8-0.2,1.5-0.5,2.3-0.8c0.3-0.1,0.6-0.2,0.9-0.2c0.3-0.1,0.7-0.2,0.9-0.3c0,0,0-0.1,0-0.1c-0.2,0-0.6-0.1-0.8-0.1
			c-0.4,0-0.7,0-1-0.1c-0.8-0.1-1.7-0.3-2.5-0.4l3.4,0.8L195.5,403.7 M676.4,406.5c-0.2-0.2-0.4-0.4-0.6-0.7c-0.3-0.5-0.7-1-1.1-1.4
			c0.2,0.2,0.3,0.4,0.5,0.7C675.5,405.6,675.9,406.1,676.4,406.5 M254.4,404.9c-0.3,0.1-0.6,0.1-1,0.1c-0.6,0.1-1.3,0.2-1.9,0.3
			c-1,0.2-2,0.3-2.9,0.3c1,0.3,2.1,0.3,3.3,0.3c0.3,0,0.7,0,1,0c0.2,0,0.5,0,0.7,0c1.5,0,3,0.1,4.4,0.2l-4.3-1.1L254.4,404.9
			 M189.8,408.3l-0.4-2.7l0.6-0.2c-1.1,0.2-2.2,0.3-3.3,0.3c-0.9,0-1.7-0.1-2.6-0.2l-0.3-0.1c-0.1,0-0.2,0-0.3-0.1
			c0.1,0.1,0.2,0.1,0.2,0.2c0.1,0.1,0.2,0.2,0.3,0.3C185.8,407.3,187.6,408.1,189.8,408.3 M303.2,409.4c0.8-0.1,1.6-0.2,2.5-0.2
			c0.4,0,0.8-0.1,1.2-0.1c0.7-0.1,1.4-0.1,2-0.2c0.4-0.1,0.5-0.2,0.6-0.2c0,0-0.2-0.1-0.6-0.2c-1.5-0.4-3-1-4.4-1.8l2.4,1.6l-3,0.9
			C303.6,409.3,303.4,409.4,303.2,409.4 M679.6,407.8c-0.3-0.1-0.6-0.2-0.9-0.3c-0.2-0.1-0.4-0.1-0.7-0.2
			C678.5,407.5,679,407.7,679.6,407.8 M593.5,408.6C593.5,408.6,593.5,408.6,593.5,408.6C593.5,408.6,593.4,408.6,593.5,408.6
			C593.4,408.6,593.5,408.6,593.5,408.6 M366.5,410.3c0.5-0.3,1-0.4,1.3-0.5c0.1,0,0.2,0,0.3-0.1c0.7-0.2,1.4-0.4,2.1-0.5
			c-1.5,0-2.9,0-4.4,0l1,0.7L366.5,410.3 M223.1,409.6c-1.7,0-3.5,0-5.2-0.1c1.9,0.1,3.7,0.1,5.6,0.1c1,0,2,0,3-0.1
			c0.1,0,0.3,0,0.4,0c0.9,0,1.7,0.1,2.5,0.2c0.6,0.1,1.2,0.1,1.8,0.2l0.4,0c0.1,0,0.3,0,0.5,0c0.1,0,0.1,0,0.2,0
			c0-0.1,0-0.3-0.5-0.7l-3.3,0.2C226.7,409.5,224.9,409.6,223.1,409.6 M364.1,412.9c0.1,0,0.2,0,0.3,0c0.2,0,0.7-0.1,0.9-0.2
			c0,0,0-0.1,0-0.2c0-0.2,0.1-0.4,0.1-0.6C365,412.3,364.6,412.6,364.1,412.9 M522.3,419.7c-0.1-0.1-0.3-0.3-0.4-0.4l-1.9-2.4
			c-3.3-0.4-6.5-1.1-9.6-2c0.3,0.1,0.6,0.2,0.8,0.4C514.8,416.8,518.5,418.3,522.3,419.7 M326.2,415.5l0.4,0
			C326.4,415.4,326.3,415.4,326.2,415.5C326.2,415.4,326.2,415.4,326.2,415.5 M607.8,417.8c0.8-0.1,1.6-0.1,2.4-0.1
			c1,0,1.9-0.1,2.9-0.2l0.4,0c-0.1,0-0.2-0.1-0.3-0.1l-0.2-0.1c-1.3-0.5-2.7-1-4-1.6l2.1,1L607.8,417.8 M199.2,419.5
			C199.2,419.5,199.2,419.5,199.2,419.5C199.2,419.5,199.2,419.5,199.2,419.5 M441.3,425.9l-2.8-1.1l5.2-1c0.1,0,0.3,0,0.4-0.1
			c-0.6,0-1.3,0-2,0c-0.1,0-0.2,0-0.3,0l-1.1,0c-0.7,0-1.3,0-2,0c-1.8,0-3.6-0.1-5.4-0.5c1.3,0.4,2.6,0.8,3.9,1.3
			C438.5,425,439.9,425.5,441.3,425.9 M550.5,428.2c0.4,0,0.5-0.1,0.5-0.1c0,0,0-0.2-0.4-0.5c-1.4-1.1-3.1-1.9-5.1-2.5
			c0.1,0.1,0.2,0.1,0.3,0.2c0.1,0,0.3,0.1,0.5,0.2l0.6,0.4l0,0.1l0.5,0.4l-0.5,0.5l0.1,1.1c0.9,0,1.8,0.1,2.7,0.1L550.5,428.2
			C550.5,428.2,550.5,428.2,550.5,428.2 M477.3,430.6c2.4-1.5,4.8-2.9,7.5-4l0.3-0.1c0.1,0,0.2-0.1,0.3-0.1c-3,1-6,1.4-9.1,1.7
			c0.2,0.1,0.4,0.2,0.7,0.3l1.1,0.8l-0.6,1.2C477.4,430.4,477.4,430.5,477.3,430.6 M413.5,428.2c-0.1-0.2-0.3-0.3-0.4-0.5
			c-0.1,0-0.4,0-0.5,0C412.8,427.8,413.2,428,413.5,428.2 M211.7,432c-0.1-0.1-0.2-0.2-0.4-0.3l-2.5-2.2c-0.5,0-1,0-1.5-0.1
			c-0.1,0-0.3,0-0.4,0c-0.1,0-0.3,0-0.4,0c0.1,0.1,0.2,0.2,0.7,0.4c0.9,0.4,1.7,0.8,2.6,1.2C210.4,431.4,211,431.7,211.7,432
			 M449,433.2c0.4-0.1,0.8-0.2,1.2-0.4c0.6-0.2,1.1-0.3,1.7-0.5c0.5-0.2,0.6-0.2,0.6-0.3c-0.1,0-0.2-0.2-0.6-0.4
			c-0.8-0.6-1.6-1.2-2.3-1.7c0.2,0.2,0.4,0.3,0.6,0.5l1.7,1.6l-2.2,0.9C449.4,433.1,449.2,433.1,449,433.2 M419.1,432.6
			c2.1-0.5,4.1-0.8,6-0.9c0,0,0,0,0,0c-1.1-0.4-2.2-0.5-3.5-0.7c-1-0.1-2-0.3-3-0.5l2.9,1.2L419.1,432.6 M465.2,438.2
			c1.8,0,3.5-0.1,5.3-0.1c0.6,0,1.1,0,1.6,0c0.2,0,0.3,0,0.5,0c0.2,0,0.4,0,0.6,0c0.1,0,0.2,0,0.3,0c-0.7,0-1.4,0-2,0l-4.4-0.1
			l2.8-2.1C468.3,436.8,466.8,437.6,465.2,438.2 M398.4,439.2l-2.2-1.2c-0.2,0-0.4,0.1-0.6,0.1l-0.8,0.2c-0.8,0.2-1.6,0.3-2.4,0.4
			c1.2,0.1,2.5,0.2,3.7,0.3C396.9,439.1,397.7,439.2,398.4,439.2 M370,439.9c0.1-0.1,0.3-0.2,0.4-0.3l0.1-0.1
			c0.6-0.7,0.6-0.8,0.6-0.9c-0.1-0.1-0.6-0.1-0.9-0.2l-0.1,0c-0.3,0-0.5,0-0.8,0c0,0,0,0,0,0l-0.5,0.6L370,439.9 M542,441.1
			C542,441.1,542,441.1,542,441.1S542,441.1,542,441.1 M366.4,441.8c0.3-0.1,0.5-0.3,0.8-0.4c-0.1,0-0.2,0-0.3,0c0,0-0.1,0-0.1,0
			C366.7,441.5,366.5,441.6,366.4,441.8 M547.6,445.8C547.6,445.8,547.6,445.8,547.6,445.8C547.6,445.8,547.6,445.8,547.6,445.8
			 M617,350.4C617,350.4,617,350.4,617,350.4C617,350.4,617,350.4,617,350.4 M579.9,400.9C579.9,400.9,579.9,400.9,579.9,400.9
			C579.9,400.9,579.9,400.9,579.9,400.9C579.9,400.9,579.9,400.9,579.9,400.9 M207.5,234.1c-0.3,0-0.5,0-0.8,0.1
			c-1,0.2-2.5,0.7-3.8,2.4c0,0.1-0.1,0.1-0.1,0.2l-0.1,0.2c0,0.1-0.1,0.1-0.1,0.2c-0.9,1.8-2.2,2.9-4.2,3.7
			c-0.4,0.1-1.1,0.2-1.9,0.2c-1.2,0.1-2.6,0.1-4.1,0.6c-0.6,0-1.1,0-1.7,0.1c-1.1,0.1-2,0.1-3,0.1c-1.7,0-2.9-0.2-4-0.5
			c-0.7-0.2-1.9-0.6-3.4-0.6c0,0,0,0,0,0c-0.7,0-1.3,0.1-2,0.2c0,0-0.1,0-0.1,0c-0.3,0.1-0.6,0.2-0.9,0.2l-0.1,0
			c-1.8,0.4-4.9,1.2-7,4.2c-0.8,1.2-1.9,2.1-3.2,2.8c-3.7,1.8-5.7,4.8-7.5,7.6c-0.4,0.7-0.7,1.3-0.9,1.9c-1.4-0.2-2.8-0.3-4.2-0.4
			c-0.6,0-1.1,0-1.5,0c0,0,0,0,0,0c-1.8,0-7.2,0-9.5,6.5c-0.3,0.7-0.8,1.5-1.3,2.4c-0.9,1.5-2,3.2-2.6,5.4
			c-0.9,3.6-2.3,7.1-3.7,10.6c0,0,0,0.1,0,0.1c-0.4,1-0.8,2.1-1.2,3.1c-0.8,2-1.6,4-2.4,6c-0.6,1.6-1.3,3.2-1.9,4.8
			c-0.2,0.6-0.7,1.7-0.7,2.9c-2.6,0.2-5.2,0.5-7.9,1.1c-0.1,0-0.3,0.1-0.4,0.1c-1.3,0.2-3.5,0.7-5.2,2.8c-1.1,1-2,2-2.9,3
			c-0.9,1-1.7,1.9-2.6,2.6c-5.4,4.7-11.4,10.6-15.2,18.4c-2.9,6.1-7.5,10.8-13.2,16.5c-3.5,3.4-6.8,6.9-9.3,11.5
			c-0.9,1.6-1.6,3.2-2.3,4.8c-1.3,2.7-2.4,5.3-4,7.5c-0.5,0.7-1.1,1.5-1.7,2.3l-2.6,3.6c-1.5,0.7-2.8,1.7-4,2.8
			c-0.3,0.3-0.8,0.6-1.2,0.9l-0.5,0.4c-3.2,2.3-6.8,4.3-10.3,6.2l-0.1,0.1c-1.8,1-3.6,1.9-5.4,3c-4.7,2.8-7.8,6.9-9.5,12.6l-0.6,1.9
			c-0.3,0.9-0.1,1.9,0.5,2.6c0.6,0.8,1.5,1.2,2.4,1.2h2c0.2,0,0.4,0,0.6,0c0.3,0,0.7,0,1,0c0.5,0,1,0,1.5-0.1
			c5.8-0.8,11.9-1,17.8-1.3c4-0.2,8.6-0.4,13-0.7c1.2-0.1,2.4-0.2,3.7-0.2c5.4,0,11,1,16.4,1.9c2,0.3,4,0.7,6,1
			c2.3,0.3,4.6,0.7,6.8,1.1c6.4,1.1,12.9,2.3,19.8,2.3c2,0,3.9-0.1,5.8-0.3c0.3,0,0.7-0.1,1.3-0.1c0.4,0,0.7,0,1.1,0l0.1,0
			c0.4,0,0.8,0,1.2,0c1,0,1.7,0,2.5-0.1c1-0.1,2.2-0.3,3.6-0.3c1,0,2,0.1,2.9,0.3l0.3,0.1c0.9,0.2,2,0.4,3.1,0.4
			c1.6,0,2.9-0.4,4-1.2c0,0,0.1,0,0.2,0c0.3,0,0.7,0,1.1,0.1c0.5,0.1,1.2,0.1,1.9,0.1c0.5,0,0.9,0,1.4-0.1c0.1,0,0.3,0,0.4,0
			c0.2,0,0.4,0,0.7,0l0.1,0c0.3,0,0.6,0,0.9,0c0,0,0,0,0,0c0,0,0.1,0,0.1,0l0.1,0c0.1,0,0.3,0,0.4,0c0,0.1,0.1,0.1,0.1,0.2
			c-3.8,0.6-7.4,1.5-10.9,2.4l-4,1c-1.2,0.3-2.1,1.3-2.3,2.6c-0.1,1.3,0.5,2.5,1.7,3l3.7,1.8c1.4,0.7,2.7,1,3.7,1.2l0.1,0
			c0.3,0.1,0.7,0.1,0.9,0.2c1.3,0.4,2.6,0.5,3.6,0.6c0.5,0,1.3,0.1,1.6,0.2c1.8,1.4,3.7,2.2,5.3,3c1.2,0.5,2.2,1,3.1,1.6
			c4.2,2.7,8.7,3.7,12.7,4.4c-2.5,1.1-5,2.4-7.4,3.7l-0.3,0.2c-1,0.5-2.3,1.2-3.5,2.6l-1.7,1.9c-0.7,0.8-0.9,1.9-0.6,2.9
			c0.3,1,1.2,1.8,2.2,2l2.4,0.6c0.2,0.1,0.5,0.1,0.7,0.2c0,0,0.1,0,0.1,0c0.6,0.1,1.2,0.3,1.9,0.4c0.8,0.1,1.6,0.2,2.3,0.2
			c0.2,0,0.4,0,0.5,0c1,0,2.1-0.1,3.1-0.1c6.6,0,12.5,0.7,17.9,2.3c2.8,0.8,5.6,0.8,8.1,0.9c1.6,0,3.1,0,4.5,0.2
			c1.3,0.2,2.7,0.4,4,0.6l0.1,0c5.8,0.9,11.9,1.9,18.1,2.1c1.1,0,2.2,0,3.3,0.1l0.6,0c0.5,0,0.9,0,1.4,0l1.2,0l2.2,0
			c1.3,0,2.5-0.9,2.9-2.1l1.2-4c0.3-0.9,0.1-2-0.5-2.7c-0.6-0.7-1.4-1.1-2.3-1.1c-0.1,0-0.1,0-0.2,0l-2.1,0.1c-0.2,0-0.4,0-0.6,0
			c-3.5,0-6.2-2.1-9.3-4.6c-0.5-0.4-1-0.8-1.5-1.2l3.5-0.3c1.2-0.1,2.3-1,2.6-2.1c0.7,0,1.3-0.1,2.1-0.1c1.9,0,4,0.1,5.9,0.2
			c1.7,0.1,3.5,0.2,5.2,0.2c4.4,0.1,9.2,0.1,14.7,0.1c4.8,0,9.5,0,14-0.1l0.4,0c0.2,1,1,1.8,2,2.1l4.8,1.6
			c8.3,2.8,15.5,4.3,22.6,4.6c1.2,0.1,2.5,0.1,3.8,0.1c3.9,0,7.7-0.3,11.4-0.5c2.5-0.2,5-0.3,7.4-0.4l0.4,0c2.9,0.1,5.7,0.6,8.6,1.5
			c5.3,1.6,10.7,2.4,16.1,2.4c1.4,0,2.7-0.1,4.1-0.2c0,0,0,0,0,0c-2.7,0.6-3.7,2.6-4.1,3.8l-0.7,2.1c-0.3,0.9-0.1,2,0.5,2.7
			c0.6,0.7,1.4,1.2,2.4,1.2c0.1,0,0.1,0,0.2,0l2.2-0.1c0.6,0,1.2-0.1,1.9-0.1c2.9,0,5.9,0.3,8.7,0.6l0.1,0c2.4,0.3,4.9,0.5,7.5,0.6
			c0.6,0,1.3,0,2,0c4,0,7.9-0.5,11.7-1l0.2,0c1.4-0.2,2.8-0.3,4.1-0.5l0.4,0c5.2-0.5,10.5-1.1,15.8-2.8c1.4-0.4,2.8-0.7,4.5-0.7
			c2.7,0,5.4,0.6,7.7,1.2c2.3,0.6,4.3,0.8,6.3,0.8c1,0,1.9-0.1,2.9-0.2c1.3-0.2,2.3-0.3,3.3-0.3l0.1,0c1.4,0,2.8,0.3,4.5,0.7
			c2,0.4,4.2,0.9,6.5,0.9c0.2,0,0.4,0,0.7,0c0,0,0.1,0,0.1,0c1.1,0,2.3,0.4,3.8,0.9l0.1,0c1.2,0.4,2.6,0.9,4.1,1.1
			c0.3,0.1,0.6,0.1,1,0.2c-8.1,1.3-16.4,2.6-24.6,3.7c-1.2,0.1-2.4,0.3-3.5,0.4c-3.2,0.3-6.5,0.7-9.9,1.6l-9.8,2.5
			c-1.4,0.4-2.4,1.7-2.2,3.2c0.2,1.5,1.4,2.6,2.9,2.7l10.1,0.4c3.7,0.2,7.5,0.4,11.1,1.4c3.9,1.1,8,1.7,12.3,1.7
			c3.7,0,7.6-0.4,11.8-1.2c6.6-1.3,12-1.9,17-1.9c0.5,0,1.1,0,1.6,0c1.8,0,3.6,0.2,5.3,0.3l0.1,0c1.4,0.1,2.8,0.2,4.2,0.3
			c0.9,0,1.8,0.1,2.7,0.1c6.3,0,12.5-1,18.4-1.9l0.1,0c3.3-0.5,6.7-1,10-1.4l1.8-0.2c3.9-0.4,7.7-0.8,11.3-0.8c1.8,0,3.4,0.1,5,0.3
			c0.4,0,0.8,0.1,1.3,0.2c1.4,0.2,2.9,0.4,4.6,0.4c1.5,0,2.8-0.2,4.2-0.5l3.1-0.7c1.1-0.3,2-1.2,2.3-2.3c0.2-1.1-0.2-2.3-1.1-3
			l-2.6-1.9c-2.3-1.7-4.6-2.5-6.4-3.1c-0.4-0.1-0.8-0.3-1.1-0.4c-2.3-0.8-4.1-1.8-5.6-3c0.5,0,1-0.1,1.5-0.2
			c0.6-0.1,1.2-0.1,1.9-0.1c1.6,0,3.3,0.3,4.9,0.5c0.7,0.1,1.4,0.3,2.1,0.5c1.6,0.4,3.4,0.8,5.4,0.8c0.4,0,0.8,0,1.2-0.1
			c1.4-0.1,2.8-0.2,4.3-0.2c3.3,0,6.5,0.3,8.8,0.6l2.4,0.3c5.1,0.6,10.2,1.2,15.3,1.2c4.3,0,8.4-0.3,12.5-0.6
			c4-0.3,8.1-0.6,12.2-0.6c0.9,0,1.7,0,2.6,0c5.1,0.2,10.4,0.3,15.5,0.3c1.5,0,2.9,0,4.4,0c5.3-0.1,9.6-0.6,14-1.8l4.7-1.3
			c1.3-0.4,2.2-1.5,2.2-2.8c0-1.3-0.8-2.5-2-2.9l-4.6-1.6c-2-0.7-3.9-1.5-5.8-2.5c0.2,0,0.5-0.1,0.7-0.1c1.7-0.3,3.2-0.5,4.7-0.5
			c0.3,0,0.5,0,0.8,0c7.1,0,14,1,20.5,2.9c2.8,0.8,5.4,1.2,8,1.2c3.8,0,7.4-0.9,10.8-2.6c0.4-0.2,0.8-0.3,1.2-0.3
			c0.3,0,0.7,0.1,1.1,0.2c3.4,1.1,6.9,1.7,11,1.7c0.4,0,0.8,0,1.2,0c5.4-0.1,10.6-1.1,15.4-2.1c0.6-0.1,1.2-0.2,1.8-0.4
			c2.6-0.5,5.2-1,8.2-2.1l3.5-1.3c1.2-0.4,1.9-1.5,2-2.7s-0.7-2.4-1.8-2.9l-4.1-1.8c-1.9-0.8-3.7-1.6-5.8-2.1
			c-1.2-0.3-2.5-0.5-3.7-0.8l-0.4-0.1c-2.3-0.5-4.7-0.9-7-1.4c-4.9-1.1-9.6-3.4-14.2-6c2.3-0.3,4.6-0.7,6.9-1l0.1,0
			c4.3-0.6,8.7-1.1,13.1-2l0.3-0.1c2.9-0.6,6.2-1.3,9.8-3.1l4.8-2.5c3.8-0.4,7.1-1,10.1-2c4.6-1.5,10.1-3.1,15.7-3.1
			c0.3,0,0.7,0,1,0c0.1,0,0.2,0,0.3,0c1.5,0,3-0.4,4.4-1.3l2.6-1.7c1-0.6,1.5-1.7,1.3-2.9c-0.1-1.1-0.9-2.1-2-2.5l-2.9-1
			c-0.3-0.1-0.6-0.2-0.8-0.3c-0.2,0-0.3-0.1-0.4-0.1c-1.8-0.9-3.5-1.3-5.1-1.6c-1.7-0.3-2.6-0.5-3.1-1.1c-0.9-1.1-2.2-1.7-3.7-1.7
			c-0.4,0-0.8,0-1,0.1l-0.1,0c-1.5,0.1-2.9,0.2-4.4,0.2c-3.5,0-7-0.4-10.5-1.2c0.4-0.3,0.8-0.7,1-1.1c1.8,0,3.7-0.1,5.9-0.3
			c3.9-0.3,8-0.6,12-0.6c2.4,0,4.6,0.1,6.7,0.3c4,0.4,7.4,0.6,10.6,0.6c3,0,5.8-0.2,8.5-0.5c1.8-0.2,3.4-0.7,4.9-1.1
			c1.8-0.5,3.4-0.9,4.9-0.9c3.3,0,6.7-0.2,9.9-0.4l0.1,0c3.5-0.2,7.1-0.4,10.6-0.4c1.3,0,2.5,0,3.7,0.1c0.4,0,0.7,0,1.1,0
			c0.3,0,0.5,0,0.8,0l0.1,0c0.2,0,0.4,0,0.5,0h9.9c1.5,0,2.7-1.1,3-2.6c0.2-1.5-0.7-2.9-2.1-3.3l-9.5-2.9c-3.8-1.2-7.6-2.1-11.3-2.7
			c-1.7-0.3-3.3-0.5-5-0.8c-8.2-1.3-16.7-2.6-24.8-5c-6.4-1.9-13-3.2-19.7-3.9c-5.9-0.6-11-1.9-15.4-3.7c-0.5-0.2-1.9-0.8-2.1-1.2
			c-1.4-3.1-3.8-4.9-5.7-6.1c-3.8-2.4-8-3.9-12.3-4.6c-2.8-0.5-5.7-0.8-8.4-1c-3.7-0.4-7.5-0.8-11.1-1.6c1.7-0.3,3.5-0.4,5.5-0.4
			c2.1-0.1,4.4-0.1,6.8-0.5c1.6-0.3,3.1-0.4,4.5-0.4c1.5,0,2.9,0.2,4.3,0.5c0.9,0.2,1.9,0.3,3,0.3c1,0,1.9-0.1,2.6-0.2
			c6.6-0.6,13.7-1.3,20.7-2.1c0.3,0,0.7-0.1,1.1-0.1c1.4-0.1,3.1-0.2,4.9-0.9l1.2-0.5c1.4-0.6,2.2-2.1,1.8-3.6l-0.3-1.3
			c-0.6-2.3-2.6-3.8-4.9-3.8c-0.1,0-0.2,0-0.3,0c-0.7,0-1.5,0-2.3,0c-3.5,0-7.2-0.2-10.7-0.5c-2.6-0.2-5.2-0.3-7.8-0.4l-0.4,0
			l-0.1,0c-2.9-0.1-5.8-0.2-8.7-0.4c-1.9-0.2-3.7-0.4-4.8-1.2c-0.5-0.4-1.1-0.7-1.7-1c4.3-0.9,8.9-1.4,13.5-1.4c0.8,0,1.5,0,2.3,0
			c0.4,0,0.8,0,1.2,0c1.5,0,3.8-0.1,6-1c1.5-0.6,3.2-0.6,5.2-0.6l0.6,0c0,0,0.1,0,0.1,0c0,0,0,0,0,0c0.2,0,0.4,0,0.6,0l0.3,0
			c0.5,0,1.1,0.1,1.7,0.1c1.5,0,2.8-0.3,4-0.9c1.6-0.8,3.4-0.9,5.1-0.9c0.7,0,1.3,0,2,0l0.3,0c0.2,0,0.5,0,0.8,0
			c3.6,0,7.1-0.8,10.8-2.3l4.1-1.7c1.2-0.5,1.9-1.7,1.8-3c-0.1-1.3-1-2.4-2.2-2.7l-4.3-1.1c-6.8-1.8-13.5-2-19.9-2.3l-1.9-0.1
			c-7.4-0.3-15.8-0.6-23.4-3c-4.1-1.3-8.5-2-13.3-2.1c-3.2-0.1-6.2-0.6-8.9-1.6c-1-0.4-2-0.8-3-1.2c1.6-0.1,3.2-0.2,4.8-0.4
			c1.7-0.2,3.3-0.6,4.8-0.9l0.1,0c1.4-0.3,2.9-0.6,4.3-0.8l3.3-0.4c1.2-0.2,2.2-1,2.5-2.1s0-2.4-0.9-3.1l-2.5-2.2
			c-1.1-1-2.3-1.5-3.6-1.5c-4.6-0.3-9.4-0.5-13.6-0.6c-6.5-0.3-13.1-0.5-19.7-1.1c-3.6-0.3-7.2-0.6-10.7-0.9l-0.3,0
			c-3.6-0.3-7.3-0.7-11-1c-0.9-0.1-1.8-0.3-2.9-0.6c-1.6-0.4-3.5-0.9-5.6-0.9c0,0,0,0-0.1,0c0,0,0,0,0,0c-3.3,0-6.7,0-9.6,0.1
			l-1.6,0l-0.1,0c-1.2,0-2.4,0-3.6,0c-5.4,0-9.8-0.4-14-2.1c-0.5-0.2-1.4-0.5-2.6-0.5c-0.7,0-1.3,0.1-1.9,0.3
			c-0.4,0.1-0.9,0.2-1.4,0.3c0-0.4,0-0.7-0.1-1.1c-0.2-0.8-0.7-1.4-1.4-1.8l-1.3-0.7c-0.3-0.2-0.6-0.3-0.9-0.5
			c-0.8-0.5-1.7-1-2.7-1.5c-4.7-2.1-9.3-5.2-14.4-9.8c-0.2-0.2-0.4-0.4-0.7-0.6c-0.1-1-0.6-1.8-1.5-2.3l-3.7-2.2
			c-1.5-0.9-2.7-2.1-3.9-3.5c-0.9-1-1.9-2-3.1-3c-0.3-0.2-0.5-0.4-0.8-0.6l-0.1-0.1c-2.1-1.8-4.9-4.2-9.1-4.4
			c-0.8,0-1.4-0.2-2.1-0.6c-1.1-0.6-2.3-1.2-3.4-1.8l-0.1,0c-0.6-0.3-1.2-0.6-1.7-0.9l-0.8-0.4c-2-1.1-3.8-2-5.1-3.3
			c-1.6-1.7-3.6-2.6-5.8-2.6c-1,0-2,0.2-3.1,0.5c-3.5,1.1-6.5,2.8-9,5l-0.4,0.3c-1.9-0.7-3.8-1.3-5.6-2c-2-0.7-4.1-1.3-6-2.1
			c-1-0.4-1.9-0.5-2.5-0.5l-0.3,0c-3.1-0.3-6.3-0.5-9.3-0.6l-0.1,0c-3.6-0.1-7.3-0.3-10.9-0.8l-0.2,0c-1-0.2-2.2-0.3-3.5-0.3
			c-2.7,0-5,0.8-7,2.4c-2,1.6-4.1,3.4-5.8,5.9c-2.1-1.3-4.2-2.8-5.8-4.4c-1.8-1.8-3.6-2.7-5.8-2.7c-0.9,0-1.9,0.2-2.9,0.5
			c-0.7,0.2-1.3,0.5-2,0.8c-1.6,0.6-3.2,1.2-4.5,1.4c-5.5,0.7-11.1,1.4-16.7,1.4c-1,0-2,0-3-0.1c-1.6-0.1-2.8-0.3-3.7-0.9
			c-1.4-1-2.9-1.6-4.4-1.6c-1.6,0-3.2,0.6-4.6,1.8c-1,0.9-2.4,1.5-4,2.3l-0.1,0c-0.4,0.2-0.8,0.4-1.3,0.6c-1.7,0.8-3.7,2-5,4.1
			c-0.5-0.1-0.9-0.1-1.4-0.1c-0.8,0-1.7,0.1-2.5,0.3c-2.8,0.7-5.7,0.8-8.7,1c-2.1,0.1-4.2,0.2-6.4,0.5c-0.9,0.1-1.6,0.2-2.2,0.2
			c-1.3,0-2.2-0.2-3.1-0.7c-0.9-0.5-1.8-0.9-2.6-1.2c0,0-0.1,0-0.1,0c-0.4-0.2-0.8-0.3-1.2-0.5c-4.1-1.9-7.8-3.5-12.2-3.8
			c-3-0.2-6-0.3-8.8-0.3c-0.7,0-1.4,0-2.1,0l-0.2,0l-0.9,0l-1.6,0l-0.7,0c-0.6,0-1.3-0.1-2.1-0.4c-0.8-0.2-1.5-0.5-2.3-0.7
			c-3.7-1.2-7.4-2.4-11.6-2.4c-1.9,0-3.7,0.2-5.4,0.8l-2.6,0.1l-0.2,0c-5.7,0.3-11.7,0.7-17.5,0.7c-0.6,0-1.3,0-1.9,0
			c-3.4,0-6.8-0.1-9.9-0.1c-15.9,0-29.2,0.6-41.8,1.8c-4.3,0.4-7.7,1.5-10.7,3.5c-0.4-0.5-0.8-0.9-1-1.1c-2.7-2.6-5.9-4-9.5-4.2
			c-0.9-0.9-1.8-1.7-2.7-2.5c-1.1-1-2.1-1.8-2.9-2.8c-0.9-1.2-2.7-2.6-5.7-2.6c-0.3,0-0.6,0-0.9,0c-0.1,0-0.3,0-0.4,0
			c-0.8,0-1.6-0.2-2.5-0.7c-3.3-1.6-6.5-3.5-10.3-5.9l0,0l-0.1,0C210.7,235.2,209.4,234.1,207.5,234.1L207.5,234.1z M367.4,356.2
			L367.4,356.2L367.4,356.2L367.4,356.2z M569.4,378.2L569.4,378.2L569.4,378.2L569.4,378.2z"/>
	</g>
	<g>
		<path class="st0" d="M303.4,189.5c-3.5,0-6.9-0.3-10.2-1c-4.3-0.8-4.9-3.8-4.7-6.1c0.1-1.8,0.1-3.6,0.1-5.5c0-0.8,0-1.7,0-2.5
			v-1.5c0-0.4,0.1-0.7,0.4-1v0c0-2,0-4.1,0-6.1c-0.1-2.6,1.2-4.5,3.6-5.4c4.6-1.7,9.1-2.6,13.3-2.6c5.9,0,11.5,1.7,16.6,5
			c3.7,2.4,6.2,5.9,7.3,10.2c1.4,5.7-1,10.7-6.4,13.1c-4.6,2-9.4,2.7-14,3.2C307.3,189.4,305.3,189.5,303.4,189.5z"/>
		<path class="st0" d="M305.7,159.2c5.6,0,10.9,1.6,15.7,4.8c3.4,2.2,5.7,5.4,6.6,9.3c1.3,5-0.8,9.2-5.6,11.3
			c-4.4,2-9.1,2.6-13.6,3.1c-1.9,0.2-3.7,0.3-5.6,0.3c-3.4,0-6.7-0.3-9.9-1c-1.6-0.3-3.8-1.1-3.5-4.5c0.2-1.8,0.1-3.7,0.1-5.7
			c0-0.8,0-1.7,0-2.5v-1.5h0.4c0-0.3,0-0.7,0-1c0-2,0-4.1,0-6.1c-0.1-2,0.8-3.3,2.6-4C297.4,160.1,301.7,159.2,305.7,159.2
			 M305.7,156.2c-4.4,0-9.1,0.9-13.9,2.7c-3,1.1-4.6,3.6-4.5,6.9c0.1,1.8,0.1,3.7,0,5.6c-0.2,0.4-0.4,0.9-0.4,1.5v1.5
			c0,0.9,0,1.7,0,2.6c0,1.9,0.1,3.7-0.1,5.3c-0.2,1.9,0.1,6.5,5.9,7.7c3.4,0.7,7,1,10.5,1c2,0,3.9-0.1,5.9-0.3
			c4.7-0.5,9.6-1.2,14.5-3.3c6.1-2.7,8.9-8.4,7.2-14.8c-1.2-4.6-3.9-8.5-7.9-11.1C317.8,158,311.9,156.2,305.7,156.2L305.7,156.2z"
			/>
	</g>
	<g>
		<path class="st0" d="M53.4,382c-1.1,0-2.2-0.1-3.2-0.2c-0.3,0-0.7-0.1-1-0.1c-2.7-0.3-5-1.3-7.2-2.4c-0.8-0.4-1.6-0.8-2.4-1.1
			l-3.5-1.5c-0.6-0.2-0.9-0.8-0.9-1.4c0-0.6,0.4-1.2,1-1.4l3.6-1.3c1.9-0.7,3.7-0.8,5.2-0.9c0.8,0,1.6-0.1,2.2-0.2
			c2.7-0.6,5.5-1.4,8.1-2.2c1.1-0.3,2.1-0.6,3.2-1c-0.2-0.1-0.3-0.2-0.5-0.3c-2.2-1.3-4.6-2-7.5-2c-1.3,0-2.6,0.1-4.2,0.4
			c-1.4,0.2-2.9,0.3-4.4,0.3c-2.2,0-4.6-0.2-7.3-0.8c-2.5-0.5-5.1-0.8-7.6-1.2c-4.1-0.6-8.3-1.1-12.5-2.2c-1.2-0.3-2.3-0.7-3.4-1
			c-0.5-0.2-1-0.3-1.5-0.5l-1.2-0.4c-0.7-0.2-1.2-0.9-1-1.7L8,356c0.1-0.7,0.7-1.3,1.5-1.3c0,0,1.4,0.1,1.4,0.1
			c0.7,0,1.4,0.1,2.1,0.1c2.2,0,4.4-0.2,6.5-0.3c2.2-0.2,4.6-0.3,7-0.3c1.3,0,2.5,0,3.6,0.2c3.1,0.3,6.3,0.4,9.4,0.4
			c3,0,6-0.1,8.9-0.4c2.5-0.2,4.9-0.9,7.2-2l-3.2,0c-0.8,0-3,0-3,0c-2.7,0-4.9-0.2-7.3-0.8l-8.1-1.9c-0.7-0.2-1.2-0.8-1.2-1.5
			s0.6-1.3,1.3-1.4l8.2-1.1c1.1-0.1,2.2-0.3,3.3-0.4c2.1-0.2,4.1-0.5,6-0.8c4.4-0.8,8.9-2.2,14.3-4.3c1.2-0.5,2.3-0.7,3.4-0.7
			c1.2,0,2.3,0.3,3.5,0.8c2.1,1,4.5,2,7,2.4c2.3,0.3,3.1,1.7,3.4,2.5c0.3,1,0.4,2.4-1.3,4.1c-4.1,4-6.6,9.1-8.7,13.9
			c-2.7,6-6.9,11.3-13.4,16.6C58.2,381.3,56.1,382,53.4,382z"/>
		<path class="st0" d="M69.6,341c1,0,1.9,0.2,2.9,0.7c2.2,1,4.7,2.1,7.4,2.5c1.2,0.2,1.9,0.7,2.2,1.5c0.4,1.2-0.6,2.2-0.9,2.5
			c-4.2,4.2-6.8,9.4-9,14.4c-2.6,5.8-6.7,10.9-13,16c-1.9,1.5-3.8,1.9-5.7,1.9c-1,0-2.1-0.1-3-0.2c-0.3,0-0.7-0.1-1-0.1
			c-2.4-0.2-4.6-1.3-6.7-2.3c-0.8-0.4-1.6-0.8-2.5-1.1l-3.5-1.5l3.6-1.3c1.7-0.6,3.3-0.7,4.7-0.8c0.9,0,1.7-0.1,2.5-0.2
			c2.8-0.6,5.6-1.4,8.3-2.3c2.6-0.8,5.2-1.6,7.9-2.2c0.4-0.1,0.5-0.2,0.6-0.3c0,0,0-0.1,0-0.1c0-0.1,0-0.1,0-0.1c0,0,0,0,0,0
			c0,0-0.2-0.1-0.6-0.1c-1.8,0-3.5-0.4-4.8-1.2c-2.4-1.5-5.1-2.2-8.3-2.2c-1.4,0-2.8,0.1-4.4,0.4h0c-1.3,0.2-2.7,0.3-4.2,0.3
			c-2.2,0-4.5-0.2-7.1-0.7c-2.5-0.5-5.1-0.8-7.7-1.2c-4-0.5-8.2-1.1-12.3-2.2c-1.1-0.3-2.2-0.7-3.3-1c-0.5-0.2-1-0.3-1.5-0.5
			L9,359.4l0.5-3.2l1.4,0.1c0.7,0,1.5,0.1,2.2,0.1c2.2,0,4.5-0.2,6.7-0.3c2.2-0.2,4.5-0.3,6.9-0.3c1.2,0,2.3,0,3.5,0.1
			c3.2,0.3,6.4,0.4,9.6,0.4c3,0,6-0.1,9-0.4c3.9-0.3,7.5-1.6,10.9-3.9c0.6-0.4,0.7-0.6,0.8-0.6c0,0,0,0,0-0.1
			c-0.1-0.2-0.1-0.3-1.1-0.3c-0.1,0-0.1,0-0.2,0c-0.1,0-0.3,0-0.4,0c-1,0-2,0-3,0c-1,0-2,0-3,0c-0.8,0-1.6,0-2.4,0
			c-0.2,0-0.4,0-0.6,0c-2.3,0-4.4-0.2-6.9-0.8l-8.1-1.9l8.2-1.1c1.1-0.1,2.2-0.3,3.2-0.4c2.1-0.2,4.1-0.5,6.1-0.8
			c4.5-0.8,9.1-2.2,14.6-4.4C67.8,341.2,68.7,341,69.6,341 M69.6,338C69.6,338,69.6,338,69.6,338c-1.3,0-2.6,0.3-4,0.8
			c-5.3,2.1-9.7,3.4-14,4.2c-1.8,0.3-3.8,0.6-5.9,0.8c-1.1,0.1-2.1,0.2-3.3,0.4l-8.2,1.1c-1.4,0.2-2.5,1.4-2.6,2.8
			c-0.1,1.4,0.9,2.7,2.3,3.1l8.1,1.9c0.2,0,0.4,0.1,0.6,0.1c-1,0-2,0-2.9,0c-3.1,0-6.2-0.1-9.3-0.4c-1.2-0.1-2.4-0.2-3.8-0.2
			c-2.5,0-4.9,0.2-7.1,0.3c-2.2,0.2-4.3,0.3-6.5,0.3c-0.7,0-1.4,0-2-0.1l-1.4-0.1c-0.1,0-0.1,0-0.2,0c-1.5,0-2.7,1.1-3,2.5L6,358.9
			c-0.2,1.5,0.7,2.9,2.1,3.3l1.2,0.4c0.5,0.1,1,0.3,1.4,0.5c1.1,0.4,2.3,0.7,3.4,1c4.2,1.1,8.5,1.7,12.6,2.3
			c2.5,0.3,5.1,0.7,7.5,1.2c2.8,0.5,5.3,0.8,7.6,0.8c1.6,0,3.1-0.1,4.6-0.4c1.4-0.2,2.7-0.3,3.9-0.3c1.3,0,2.5,0.1,3.6,0.4
			c-2.4,0.7-4.9,1.5-7.3,2c-0.5,0.1-1.2,0.1-2,0.2c-1.6,0.1-3.5,0.1-5.7,0.9l-3.6,1.3c-1.2,0.4-1.9,1.5-1.9,2.8
			c0,1.2,0.7,2.4,1.9,2.8l3.5,1.5c0.8,0.3,1.6,0.7,2.3,1c2.2,1.1,4.8,2.3,7.7,2.5c0.3,0,0.6,0.1,1,0.1c1,0.1,2.2,0.3,3.4,0.3
			c3,0,5.5-0.8,7.6-2.6c6.7-5.4,11.1-10.9,13.9-17.2c2.1-4.7,4.5-9.6,8.4-13.5c2.3-2.3,2-4.5,1.6-5.6c-0.6-1.9-2.3-3.2-4.6-3.5
			c-2.3-0.3-4.6-1.3-6.6-2.3C72.4,338.3,71,338,69.6,338L69.6,338L69.6,338z"/>
	</g>
	<g>
		<path class="st0" d="M315,254.6c-0.1,0-0.3,0-0.4,0c-1,0-2.1-0.1-3.3-0.1c-1.4,0-2.8,0-4,0.1l-0.2,0c-1.7,0-2.7-0.7-3.3-1.3
			c-0.2-0.2-0.3-0.4-0.5-0.6c0,0.1-0.1,0.1-0.1,0.2c-1.2,1.5-3.1,1.5-3.8,1.5l-0.6,0c-1.8,0-3.3,0-4.6-0.8c-0.7,0.6-1.7,1-2.8,1
			c-0.3,0-0.5,0-0.8,0c-0.1,0-0.2,0-0.3,0c-0.2,0-0.4,0-0.7,0c-1.1,0-2-0.4-2.7-1c-1.3-1.2-1.2-2.8-1.1-3.8c0.1-1,0.1-2,0.2-3
			c0.3-4.3,0.6-8.8,0.6-13.2c0-1.1,0.2-2,0.7-2.8c0,0,0,0-0.1-0.1c-0.6-0.6-1.2-1.6-1.1-3.3c0,0,0-0.1,0-0.1
			c-0.1-0.2-0.1-0.5-0.1-0.7c0,0,0.3-5.1,0.4-6.9c0.3-4.8,0.6-9.9,0.8-14.8c0.1-1.3,0.5-2.5,1.2-3.3c-0.9-1.3-0.8-2.8-0.7-3.3
			c0.2-2.8,0.4-5.6,0.5-8.3c0-0.6,0.1-2.3,1.5-3.4c0.7-0.5,1.4-0.8,2.3-0.8c0.6,0,1.1,0.1,1.5,0.2c3.4,0.8,6.9,1.2,10.4,1.2
			c5.4,0,11-0.9,17.1-2.7c2.6-0.8,4.3-2.1,5.8-4.4l2.3-3.7c0.3-0.4,0.8-0.7,1.3-0.7c0.1,0,0.2,0,0.3,0c0.6,0.1,1.1,0.7,1.2,1.3
			l0.5,4.3c0.6,6,1,11.6,1.3,17.5c0,0.5,0.1,1.6-0.5,2.6c0.6,0.8,0.9,1.8,0.9,2.9c-0.1,2.4,0.3,4.7,0.6,7.3c0.2,1.6,0.4,3.3,0.6,5
			c0.1,1.2,0.1,2.3,0.2,3.5c0.1,1.6,0.2,3.1,0.3,4.7c0.1,1.5,0.2,3-0.4,4.2c2.2,0.6,2.9,2.1,3.2,5.3c0.4,4.2,0.8,8.2,1.2,12
			c0.5,4.2-0.9,6.1-5.1,6.8c-0.3,0.1-0.7,0.1-1,0.1c-0.2,0-0.4,0-0.6,0.1c-0.7,0.1-1.4,0.3-2.1,0.3c-0.9,0-1.6-0.2-2.3-0.6
			c-0.6,0.5-1.6,0.9-2.8,0.9c-0.2,0-0.3,0-0.5,0l-0.2,0c-0.3,0-0.6,0.1-0.9,0.1c-0.2,0-0.4,0-0.6,0c-0.1,0-0.2,0-0.3,0
			c-0.3,0-0.6,0-0.8,0c-1.3,0-2.5-0.1-3.5-0.8C317.9,254.1,316.6,254.6,315,254.6z M297.8,224.8c1.3,2.3,1.6,4.3,1.8,5.9
			c0,0.3,0.1,0.5,0.1,0.8c0.6,3.6,1.5,7.3,2.5,10.9c0.1,0.5,0.3,1,0.4,1.5c0-0.1,0-1.2,0-1.3l-0.1-1.5c0-0.8,0-1.5,0-2.3l0-0.2
			c0-1.8,0-3.7,0-5.6c0-1.1,0-2.7,1.2-3.9c0,0,0,0,0,0c-0.7-0.7-1.4-2-1.2-4.1c0-0.3,0-0.8,0-1.2c0-0.6,0-1.3,0-2.1
			c0.1-1.1-0.1-1.7-1.4-2.2c-0.2,0-0.5-0.1-0.7-0.1c-0.5-0.1-0.9-0.1-1.3-0.1c-0.1,0-0.1,0-0.2,0c-0.2,0-0.4,0-0.7,0
			c-0.7,0-1.3-0.1-1.7-0.3c-0.3,0.4-0.5,0.7-0.8,1.1c-0.2,0.2-0.2,0.2-0.2,0.4l0,0.5L297.8,224.8z"/>
		<path class="st0" d="M330.3,177.1l0.5,4.3c0.6,6,1,11.5,1.3,17.4c0,0.6,0.1,1.7-0.7,2.4c-0.2,0.1-0.3,0.2-0.5,0.3
			c1.5,0.6,1.7,2,1.7,2.7c-0.1,2.5,0.3,4.9,0.6,7.5c0.2,1.6,0.4,3.3,0.5,5c0.1,1.2,0.1,2.3,0.2,3.5c0.1,1.6,0.2,3.2,0.3,4.8
			c0.1,1.8,0.2,3.1-0.6,4c-0.8,0.8-1.8,0.9-3.4,0.9c-0.2,0-0.5,0-0.7,0l-0.5,0c-0.2,0-0.4,0-0.5,0c-0.2,0-0.5,0-0.7,0
			c-0.4,0-1.5-0.1-2.1-1c-0.2-0.2-0.3-0.5-0.3-0.7c-0.2,0.2-0.4,0.4-0.6,0.6c-0.8,0.6-1.7,0.9-2.8,0.9c-0.2,0-0.4,0-0.6,0
			c0.1,0,0.2,0,0.3,0c0.4,0.1,0.8,0.1,1.2,0.1c0.1,0,0.1,0,0.2,0c0.1,0,0.3,0,0.4,0c1,0,1.8,0.3,2.4,0.8c0.2,0.2,0.4,0.5,0.5,0.7
			c0.1-0.2,0.2-0.4,0.4-0.5c0.6-0.6,1.5-0.7,2.1-0.7c0.2,0,0.4,0,0.6,0c0.6,0.1,1.2,0.1,1.8,0.1c0.4,0,0.8,0,1.2,0
			c3.7,0.2,4.3,0.8,4.6,4.4c0.4,4.2,0.8,8.2,1.2,12c0.4,3.4-0.5,4.6-3.9,5.2c-0.3,0.1-0.6,0.1-0.9,0.1c-0.2,0-0.5,0-0.7,0.1
			c-0.6,0.1-1.2,0.2-1.8,0.2c-0.9,0-1.8-0.3-2.5-1.1c-0.7,1.3-1.9,1.4-2.6,1.4c-0.2,0-0.3,0-0.4,0c-0.1,0-0.2,0-0.3,0
			c-0.1,0-0.1,0-0.1,0c-0.3,0-0.5,0.1-0.8,0.1c-0.2,0-0.3,0-0.5,0c-0.1,0-0.3,0-0.4,0c-0.3,0-0.6,0-0.8,0c-1.4,0-2.3-0.1-3-0.8
			c-0.3-0.3-0.5-0.6-0.6-1c-0.2,0.6-0.5,1.1-0.9,1.5c-0.7,0.7-1.7,1-2.9,1c-0.1,0-0.2,0-0.3,0c-1.1,0-2.2-0.1-3.3-0.1
			c-1.4,0-2.8,0-4.1,0.1h0c0,0-0.1,0-0.2,0c-0.5,0-1.5-0.1-2.2-0.8c-0.8-0.8-0.8-2.1-0.8-2.5c0.1-2,0-4.1,0-6.2c0-0.3,0-0.7,0-1h0
			l-0.1-1.5c0-0.8,0-1.6,0-2.4c0-1.9,0-3.8,0-5.7c0-0.9,0-2,0.8-2.8c0.6-0.6,1.4-0.8,2.4-0.8c0.1,0,0.1,0,0.2,0c1,0,2.1,0.1,3.1,0.1
			c1.1,0,2.3,0,3.4,0l1,0c1.4,0,2.3,0.5,2.9,1.7c0-0.2,0.1-0.5,0.3-0.7c0.5-0.8,1.4-0.9,2-0.9c0.2,0,0.4,0,0.5,0c0.1,0,0.1,0,0.2,0
			c-0.6-0.1-1.3-0.2-2.1-0.5c-0.8-0.3-1.3-0.8-1.5-1.4c-0.2,0.3-0.4,0.5-0.6,0.8c-0.6,0.5-1.4,0.8-2.4,0.8c-0.2,0-0.4,0-0.6,0
			c-0.4,0-0.9-0.1-1.3-0.1c-0.8,0-1.6,0-2.4,0.1c-0.8,0-1.5,0.1-2.3,0.1c0,0,0,0-0.1,0c-1.2,0-2.1-0.3-2.7-1c-0.7-0.7-0.9-1.7-0.8-3
			c0-0.4,0-0.9,0-1.4c0-0.6,0-1.2,0-1.9c0.2-2-0.5-3.1-2.5-3.8c-0.3,0-0.6-0.1-0.8-0.1c-0.5-0.1-1-0.1-1.5-0.1c-0.1,0-0.2,0-0.3,0
			c-0.1,0-0.3,0-0.5,0c-0.6,0-1.5-0.1-2.2-0.9c0,0,0-0.1-0.1-0.1c-0.4,0.8-0.8,1.5-1.5,2.2c-0.4,0.4-0.5,0.8-0.5,1.4
			c0,0.3,0,0.6,0,0.9l2.3,4.1c1.2,2,1.4,3.8,1.6,5.4c0,0.3,0.1,0.5,0.1,0.8c0.6,3.7,1.6,7.5,2.5,11.1c0.5,2.1,1.1,4.2,1.6,6.3
			c0.2,1,0.3,2-0.3,2.8s-1.7,0.9-2.6,0.9h-0.2c-0.1,0-0.3,0-0.4,0c-2.1,0-3.3,0-4.2-0.9c-0.3-0.3-0.4-0.6-0.6-0.9
			c-0.1,0.5-0.4,1-0.7,1.3c-0.6,0.6-1.3,0.7-1.9,0.7c-0.2,0-0.5,0-0.7,0c-0.1,0-0.3,0-0.4,0c0,0-0.1,0-0.1,0c-0.2,0-0.4,0-0.5,0
			c-0.7,0-1.3-0.2-1.7-0.6c-0.8-0.8-0.7-1.8-0.7-2.6c0.1-1,0.1-2,0.2-3c0.3-4.4,0.6-8.9,0.6-13.3c0-2,1-2.9,2.1-3.2
			c-0.6,0-1.3-0.1-1.9-0.7c-0.5-0.5-0.7-1.2-0.7-2.2v0c0-0.3,0-0.5,0-0.8l-0.1,0l0.1-1.5c0.1-1.8,0.2-3.6,0.3-5.4
			c0.3-4.9,0.6-9.9,0.8-14.8c0.1-2.2,1.3-3,2.3-3.4c-0.4-0.1-0.7-0.2-1.1-0.5c-0.8-0.8-0.8-1.9-0.8-2.6c0.2-2.8,0.4-5.6,0.5-8.4
			c0-0.4,0-1.6,0.9-2.2c0.4-0.3,0.9-0.4,1.4-0.4c0.4,0,0.9,0.1,1.2,0.2c3.5,0.8,7.1,1.2,10.7,1.2c5.5,0,11.4-0.9,17.5-2.8
			c2.9-0.9,5-2.4,6.6-5.1L330.3,177.1 M319,201.1c0.1-0.1,0.3-0.3,0.4-0.4c-0.3,0-0.7-0.1-1-0.1C318.6,200.7,318.8,200.9,319,201.1
			 M296.5,201.7c0.3-0.5,0.7-0.8,1.2-1c-0.8,0.1-1.5,0.2-2.3,0.3c0.4,0.1,0.7,0.3,1,0.6C296.4,201.6,296.4,201.7,296.5,201.7
			 M325.9,201.6C325.9,201.6,326,201.5,325.9,201.6c0.1-0.1,0.2-0.1,0.2-0.2c-0.2,0-0.4,0-0.5-0.1
			C325.7,201.4,325.8,201.5,325.9,201.6 M293.7,231.1l0-1.7c-0.1,0.1-0.2,0.3-0.4,0.4c-0.3,0.2-0.6,0.4-0.9,0.5
			c0.3,0.1,0.7,0.3,1,0.5C293.5,230.9,293.6,231,293.7,231.1 M320.2,247.8l-1.1,0c0,0,0,0,0,0L320.2,247.8 M330.3,174.1
			c-1,0-2,0.5-2.5,1.4l-2.3,3.7c-1.3,2-2.7,3.1-4.9,3.8c-6,1.8-11.4,2.6-16.7,2.6c-3.4,0-6.8-0.4-10.1-1.1c-0.4-0.1-1.1-0.2-1.8-0.2
			c-1.2,0-2.3,0.4-3.2,1.1c-1.3,1-2,2.5-2.1,4.5c-0.1,2.7-0.2,5.5-0.5,8.3c-0.1,1.3,0.1,2.4,0.5,3.4c-0.5,0.9-0.9,2.1-0.9,3.3
			c-0.2,4.9-0.5,9.9-0.8,14.8c-0.1,1.8-0.2,3.6-0.3,5.4l-0.1,1.5c0,0.4,0,0.7,0.1,1c0,1.5,0.4,2.7,0.9,3.5c-0.3,0.8-0.4,1.6-0.4,2.6
			c0,4.3-0.3,8.8-0.6,13.1c-0.1,1-0.1,2-0.2,3c-0.1,1.1-0.2,3.3,1.6,5c1,0.9,2.3,1.4,3.7,1.4c0.2,0,0.5,0,0.7,0c0,0,0.1,0,0.1,0
			c0,0,0,0,0.1,0c0.2,0,0.5,0,0.9,0c1.1,0,2.1-0.2,2.9-0.7c1.4,0.6,3,0.6,4.5,0.6l0.2,0l0.2,0h0.2c0.6,0,2.3,0,3.8-1
			c0.8,0.6,2.1,1.2,3.8,1.2l0.2,0c1.2,0,2.6-0.1,4-0.1c1.2,0,2.2,0,3.2,0.1c0.2,0,0.3,0,0.5,0c1.6,0,3-0.4,4.1-1.1
			c1.2,0.5,2.5,0.5,3.4,0.5c0.3,0,0.6,0,0.9,0c0,0,0.1,0,0.2,0c0.2,0,0.4,0,0.6,0c0.3,0,0.7,0,1-0.1l0,0l0.1,0c0.1,0,0.3,0,0.5,0
			c1.2,0,2.2-0.3,2.9-0.7c0.7,0.2,1.4,0.4,2.2,0.4c0.8,0,1.7-0.1,2.4-0.3c0.1,0,0.2,0,0.3,0l0.1,0c0.3,0,0.7-0.1,1.2-0.2
			c5-0.9,6.9-3.5,6.3-8.5c-0.4-3.8-0.8-7.8-1.2-12c-0.3-3.1-1.1-5-2.9-6c0.2-1.2,0.1-2.4,0-3.5c-0.1-1.6-0.2-3.1-0.3-4.7
			c-0.1-1.2-0.1-2.3-0.2-3.5c-0.1-1.8-0.3-3.5-0.6-5.1c-0.3-2.5-0.6-4.8-0.6-7c0-1.1-0.2-2.2-0.7-3.1c0.3-1.1,0.3-2,0.3-2.5
			c-0.2-6-0.6-11.6-1.3-17.6l-0.5-4.3c-0.1-1.3-1.1-2.3-2.3-2.6C330.8,174.1,330.5,174.1,330.3,174.1L330.3,174.1z M301.2,231.1
			c0-0.2,0-0.3-0.1-0.5l0-0.1c-0.2-1.7-0.5-3.9-2-6.5l-1.8-3.3c0.3,0.1,0.7,0.1,1.1,0.1c0.3,0,0.6,0,0.8,0c0.1,0,0.1,0,0.1,0
			c0.2,0,0.7,0.1,1.1,0.1c0.2,0,0.3,0,0.5,0.1c0.1,0.1,0.2,0.1,0.3,0.1c0,0.1,0,0.2,0,0.5c-0.1,0.9-0.1,1.6,0,2.3c0,0.4,0,0.8,0,1.1
			c-0.2,1.9,0.3,3.3,0.8,4.2C301.5,229.8,301.3,230.5,301.2,231.1L301.2,231.1z"/>
	</g>
	<g>
		<path class="st0" d="M330.3,176c-0.5,0-1-0.3-1.3-0.7l-2.8-4.5c-3.1-5.1-10.9-10.5-20.6-10.5c-3.6,0-7.3,0.8-10.9,2.3
			c-0.5,0.2-1.4,0.6-2.4,0.6c-0.8,0-1.5-0.2-2.1-0.7c-1.7-1.2-1.6-3.3-1.5-4.1c0.2-2.3,0.2-4.3,0.1-6.1c-0.1-1.6,0.4-2.9,1.3-3.8
			c-1-1.3-1-3-1-5.2c0-4.7,0.4-9.3,0.7-13.8c0.3-3.8,0.6-7.7,0.7-11.5c0-1.5,0-3,0-4.4c0-0.9,0-1.8,0-2.8c0-0.7,0.1-1.5,0.4-2.2
			c-0.7-0.3-1.9-1-2.2-2.9c-0.3-1.7,0.1-3.9,1.7-5c0.4-0.2,0.7-0.5,1.1-0.7c0,0-0.1-0.1-0.1-0.1c-1.1-1.1-1-2.5-0.9-3.1
			c-0.1-0.8,0-1.4,0.1-1.9c-0.1-0.2-0.1-0.4-0.1-0.6l0.2-2.7c0-0.4,0.1-0.6,0.1-0.9c0-3.5,3.1-4.4,4-4.7l0.2-0.1
			c0.3-0.1,0.7-0.2,1.1-0.2c0.2,0,0.4,0,0.6,0c0.2-0.2,0.4-0.3,0.6-0.4c0-0.2-0.1-0.4-0.1-0.7c0-0.6,0-1.2-0.1-1.8
			c0-0.9-0.1-1.9-0.1-2.8l-9.3,5.7c-0.2,0.2-0.5,0.2-0.8,0.2c-0.5,0-0.9-0.2-1.2-0.6c-0.5-0.6-0.4-1.5,0.1-2l10.1-9.7
			c1.2-1.2,2.7-2,4.4-2.4l2.2-1.9l-1.3-0.2c-0.7-0.1-1.2-0.7-1.2-1.3c-0.1-0.7,0.3-1.3,0.9-1.5l1.2-0.5V55.4c0-0.4,0.2-0.8,0.5-1.1
			c0.3-0.3,0.7-0.4,1-0.4c0,0,0.9,0,0.9,0c0.3-0.2,0.6-0.4,1-0.4c0,0,3.6,0,3.6,0c0,0,0.1,0,0.1,0c0.1,0,0.3,0,0.4,0
			c0.1,0,0.2,0,0.4,0c2,0.2,3.4,1.6,3.5,3.6c1.6,0.1,2.5,0.8,3.1,1.4c0.6,0.6,1.3,1.7,1.2,3.5c-0.1,1.5-0.8,2.8-1.9,3.6l0.2,0.1
			c0.5,0.2,0.9,0.7,0.9,1.3c0,0.6-0.3,1.1-0.8,1.4l-0.4,0.2c0.2,0.2,0.5,0.3,0.7,0.5l4.1,2.7c0.1,0.1,0.3,0.2,0.4,0.3
			c0.6,0.2,1.3,0.5,1.9,0.9l4.2,1.5c0.7,0.2,1.1,0.9,1,1.7s-0.7,1.2-1.5,1.2h-2.6l-1.1,1.6c-0.3,0.4-0.8,0.7-1.3,0.7c0,0,0,0-0.1,0
			c0.2,1.6,0.3,3.1,0.4,4.7c0,0.4,0,0.8-0.1,1.1c0.1,0,0.3,0,0.4,0c0.8,0.1,1.5,0.4,2,0.8c0,0,2,0.9,2,0.9c1.6,0.7,3.5,2.3,3.1,5.7
			c0,0.4-0.1,0.7-0.3,1c0.3,0.7,0.4,1.4,0.4,2.3l0,0c0,0.4,0,1.6-0.8,2.6c0.3,0.2,0.6,0.4,0.9,0.7c0.1,0,0.3,0,0.4,0l0.2,0
			c1.3,0,2.4,0.5,3.2,1.3c1,1,1.5,2.5,1.5,4.3c-0.1,3.1-2.2,4.5-4.3,4.6c0,0-0.1,0-0.1,0c-0.5,0-0.9-0.1-1.4-0.2l0.1,5.2
			c0.2,9.4,0.5,18.8,0.7,28.2c0,0.6,0.1,1.3,0.2,2.1c0,0.4,0.1,0.8,0.1,1.3l0,0.2c0,0.1,0,0.2,0,0.3l0,0c0,1-0.2,1.8-0.6,2.3
			c0.5,0.8,0.8,1.9,0.8,3.1c0,2.8,0.2,5.8,0.4,8.6c0.1,1.5,0.2,2.9,0.2,4.4c0,0.8,0,1.6,0,2.6c0,0.5,0,0.9,0,1.4v5.3
			c0,0.7-0.4,1.3-1.1,1.4C330.6,176,330.4,176,330.3,176z"/>
		<path class="st0" d="M310.1,55c0.1,0,0.1,0,0.2,0c1.4,0.1,2.2,1.2,2.1,2.6c0,0.3,0,0.5,0,0.8c0,0.1,0,0.3,0,0.4
			c0.4-0.1,0.8-0.2,1.2-0.2c0,0,0.1,0,0.1,0c1.2,0,1.9,0.6,2.2,1c0.4,0.4,0.8,1.2,0.8,2.4c-0.1,1.8-1.3,2.9-3.1,3l-0.1,0l-0.1,0
			c-0.4-0.1-0.8-0.2-1.1-0.3c0,0.3-0.1,0.6-0.3,0.9c0,0,0,0.1-0.1,0.1c0.4,0.1,0.8,0.2,1.2,0.4L316,67l-2.7,1.5c0,0-0.1,0-0.1,0
			c1,0.4,2,1,3,1.7l4.1,2.7h-1.5c0,0,0,0,0,0l0.4,0.2l0,0c1.2,0.2,2.4,0.4,3.4,1.2l4.4,1.6h-3.4l-1.5,2.3l-1.8-1.1l0.2,2.1
			c0.2,1.8,0.3,3.5,0.5,5.3c0.1,0.6-0.2,1.2-0.6,1.6c-0.2,0.2-0.4,0.3-0.7,0.4c0.4,0.3,0.6,0.7,0.7,1.3c0.1-0.1,0.1-0.2,0.3-0.3
			c0.3-0.3,0.7-0.6,1.5-0.6c0.1,0,0.3,0,0.5,0c0.8,0.1,1.3,0.5,1.6,0.8l0-0.1l2,0.9c2.6,1.2,2.3,3.5,2.2,4.2c0,0.5-0.3,0.9-0.6,1.1
			c0.7,0.8,0.7,1.9,0.6,2.3l0,0.1c0,0.4,0,1.2-0.6,1.8c-0.3,0.2-0.7,0.5-1.4,0.5c-0.1,0-0.2,0-0.3,0c-0.6-0.1-1.4-0.3-1.9-1.3
			l-0.1,1.5c0.8,0.2,1.6,0.6,2,1.5c0.4-0.3,0.8-0.3,1.2-0.4c0,0,0.1,0,0.1,0c0.8,0,1.2,0.3,1.4,0.6c0.2,0.2,0.3,0.5,0.4,0.8
			c0.3-0.2,0.7-0.3,1.2-0.3c0,0,0.1,0,0.1,0c0.9,0,1.6,0.3,2.2,0.9c0.7,0.7,1.1,1.8,1,3.2c-0.1,2.3-1.5,3.1-2.8,3.1h0
			c0,0-0.1,0-0.1,0c-1.1,0-1.8-0.5-2.2-0.9c-0.3-0.3-0.4-0.7-0.5-1.1c-0.3,0.2-0.7,0.2-0.9,0.3c0,0,0,0,0,0c0.3,0.4,0.6,0.8,0.7,1.6
			c0,0.3,0,0.6,0,0.8c0,0.1,0,0.2,0,0.3l0.1,5.6c0.2,9.4,0.5,18.8,0.7,28.2c0,0.7,0.1,1.4,0.2,2.2c0,0.4,0.1,0.8,0.1,1.2l0,0.2
			l0,0.2c0,0.4,0.1,1.4-0.8,2c-0.1,0.1-0.3,0.2-0.6,0.2c0.9,0.6,1.6,1.5,1.6,3.3c0,2.9,0.2,5.8,0.4,8.7c0.1,1.5,0.2,2.9,0.2,4.4
			c0,0.8,0,1.6,0,2.5c0,0.4,0,0.9,0,1.4v5.3l-2.8-4.5c-3.4-5.6-11.7-11.2-21.8-11.2c-3.6,0-7.5,0.7-11.5,2.4
			c-0.4,0.2-1.1,0.5-1.8,0.5c-0.4,0-0.8-0.1-1.2-0.4c-1-0.7-0.9-2.1-0.9-2.8c0.2-2.4,0.2-4.4,0.1-6.3c-0.1-1.9,0.7-3.1,2.5-3.8
			c-0.4-0.1-0.8-0.2-1.1-0.5c-1.1-0.9-1.1-2.2-1.1-4.8c0-4.6,0.4-9.2,0.7-13.7c0.3-3.8,0.6-7.7,0.7-11.6c0-1.5,0-3,0-4.5
			c0-0.9,0-1.8,0-2.7c0-2.3,2.1-4.6,4.4-4.8c0.1,0,0.2,0,0.3,0c0.4,0,0.8,0.1,1.1,0.2c0.2-0.4,0.4-0.8,0.7-1c-0.2,0-0.4,0.1-0.6,0.1
			c-0.3,0-0.7-0.1-1.1-0.3c-0.1-0.1-0.3-0.2-0.5-0.4c-0.5,0.7-1.2,1.3-1.7,1.7c-1,0.7-1.8,1.1-2.6,1.1c-0.2,0-0.3,0-0.5-0.1
			c-0.4-0.1-1.3-0.5-1.5-1.9c-0.2-1.2,0-2.8,1.1-3.5c1-0.7,2.1-1.2,3.1-1.4c0.2,0,0.4-0.1,0.6-0.1c0.4,0,0.7,0.1,1,0.3
			c0.4-0.7,1-1.2,1.8-1.5l0.2-0.1l-0.7-1.8c0,0,0,0,0,0c-0.1,0.3-0.2,0.6-0.3,0.8c-0.7,1-1.8,1.3-2.6,1.3c-0.1,0-0.3,0-0.4,0
			c-0.7,0-1.2-0.2-1.6-0.6c-0.7-0.7-0.5-1.6-0.5-2c0,0,0-0.1,0-0.1c-0.2-1.1,0.1-1.9,0.4-2.4c0-0.1,0.1-0.1,0.1-0.1l-0.5,0.1
			l0.2-2.7c0-0.4,0.1-0.7,0.1-1c0-2.4,2-3,2.9-3.2l0.2-0.1c0.2-0.1,0.4-0.1,0.6-0.1c0.4,0,0.8,0.1,1.1,0.3c0.1-0.2,0.2-0.3,0.3-0.5
			c0.4-0.5,1.1-0.8,1.8-0.8c0,0,0.1,0,0.1,0c0,0,0,0,0,0c-0.5-0.4-0.8-1-0.8-1.6c0-0.6,0-1.3-0.1-1.9c-0.1-1.6-0.2-3.3,0.2-5
			c0.1-0.2,0.1-0.5,0.2-0.7l0,0c-0.1,0-0.1,0.1-0.2,0.1l-11.9,7.4l10.1-9.7c1.2-1.2,2.6-1.8,4-2.1l2.7-2.3c0.7-0.6,1.5-1.3,2.4-1.8
			l-4.7-0.8l2.8-1.1l-0.7,0V55.4l1.9,0.1l0-0.4l3.6,0V55C309.7,55,309.9,55,310.1,55 M312.4,75.5l2.6-1.6l-1.6-1h-3.8v1.8
			C310.4,74.7,311.5,74.8,312.4,75.5 M305.9,76.2c0.1-0.1,0.2-0.3,0.3-0.4c0.8-1,2.1-1.1,3.2-1.1c0,0,0.1,0,0.1,0l-0.5-1.8h-3
			l0.1,2.4l-0.9,0.1c0,0-0.1,0-0.1,0C305.4,75.7,305.7,75.9,305.9,76.2 M302.3,76.6c0.1-0.3,0.3-0.5,0.5-0.7
			c-0.4,0.1-0.8,0.2-1.2,0.3L302.3,76.6 M317.3,76.4l1.5-0.3l-0.5-0.3h-1.4C317,76,317.2,76.2,317.3,76.4 M312.9,76.1
			c0.1-0.1,0.1-0.2,0.2-0.2h-0.4C312.8,76,312.9,76,312.9,76.1 M319.7,84.4C319.7,84.4,319.7,84.4,319.7,84.4l-0.2,0c0,0,0,0,0,0
			L319.7,84.4 M313.2,85.5c-0.2-0.2-0.3-0.5-0.4-0.7c-0.1,0.2-0.2,0.3-0.3,0.4c-0.1,0.1-0.2,0.2-0.3,0.2c0.2,0,0.3,0,0.5,0
			C312.8,85.4,313,85.4,313.2,85.5 M306.2,85.3c0,0,0.1,0,0.1,0c0,0-0.1-0.1-0.1-0.1L306.2,85.3 M300.8,86.7
			C300.8,86.7,300.8,86.7,300.8,86.7C300.8,86.7,300.8,86.7,300.8,86.7C300.8,86.7,300.8,86.7,300.8,86.7 M300.5,93.2
			c0.1-0.6,0.4-1.2,1-1.7c-0.1-0.1-0.2-0.1-0.3-0.2c0,0-0.1-0.1-0.1-0.1c-0.1,0.2-0.2,0.4-0.4,0.6c-0.1,0.1-0.4,0.3-0.6,0.4l0.3,0.7
			C300.4,93,300.5,93.1,300.5,93.2 M297.4,93.6c0.1-0.3,0.2-0.5,0.3-0.8l0.4-0.7c-0.1,0-0.2-0.1-0.2-0.2c-0.2,0.4-0.5,0.8-1.1,1.1
			c0.2,0.1,0.4,0.3,0.5,0.4C297.3,93.6,297.4,93.6,297.4,93.6 M321,92.2L321,92.2c0.1,0.1,0.1,0.1,0.2,0.2l0-0.1
			c-0.1-0.1-0.1-0.1-0.2-0.2L321,92.2 M324.6,93.9c0-0.1,0.1-0.1,0.1-0.2c0.1-0.1,0.1-0.1,0.2-0.2c-0.3-0.4-0.6-0.8-0.7-1.2
			c-0.1,0.1-0.2,0.1-0.2,0.2C324.3,93,324.5,93.5,324.6,93.9 M326.2,94.7L326.2,94.7L326.2,94.7 M299.9,98.6
			c1.1-0.3,2.3-0.5,3.5-0.5c0,0,0.1,0,0.1,0c0,0,0.1,0,0.1-0.1c0.3-0.1,0.8-0.3,1.3-0.3c0.1,0,0.2,0,0.2,0c0.1,0,0.2,0,0.3-0.1
			c0.3-0.1,0.6-0.1,1-0.1c0.4,0,0.9,0.1,1.4,0.5c0.3,0.3,0.6,0.6,0.7,0.9c0.2-0.3,0.4-0.5,0.6-0.7c0.6-0.5,1.3-0.7,2.1-0.7
			c0.3,0,0.7,0,1,0.1c0,0,0.1,0,0.1,0c0.1,0,0.2,0,0.3,0c0.1,0,0.3,0,0.4,0h1.4c0.2,0,0.4,0,0.5,0c0.7,0,1.5,0.1,2.1,0.7
			c0.2,0.2,0.3,0.4,0.5,0.6c0.1-0.1,0.1-0.1,0.2-0.2c0.5-0.5,1.2-0.6,1.7-0.6c0.5,0,0.9,0.1,1.2,0.2c0.6,0.1,1.2,0.2,1.8,0.3
			l-0.7-1.1c-0.2-0.4-0.4-0.7-0.5-1c-0.1,0.2-0.2,0.3-0.3,0.4c-0.5,0.4-0.9,0.5-1.4,0.5c-0.4,0-0.7-0.1-0.9-0.1l-0.2,0
			c-1.4-0.3-2.9-0.3-4.5-0.4c-0.8,0-1.7-0.1-2.5-0.1l-4.3,0c-0.3,0-0.6,0.1-0.9,0.1c-0.8,0.1-1.6,0.3-2.4,0.3l-0.2,0
			c-0.2,0-0.5,0.1-0.7,0.1c-0.5,0-1.1-0.1-1.6-0.6c-0.2-0.2-0.4-0.4-0.5-0.6c-0.1,0.4-0.2,0.8-0.4,1.3L299.9,98.6 M308.3,104.4
			C308.3,104.4,308.3,104.4,308.3,104.4c0.2-0.3,0.5-0.5,0.8-0.6c-0.1-0.1-0.2-0.1-0.3-0.2c-0.2-0.2-0.4-0.5-0.5-0.7
			c-0.1,0.2-0.3,0.4-0.5,0.6c-0.1,0.1-0.3,0.2-0.4,0.3C307.8,103.9,308.1,104.2,308.3,104.4 M316,105c0.2-0.3,0.5-0.5,0.8-0.7
			c0.3-0.2,0.6-0.3,1-0.4c-0.2-0.1-0.3-0.3-0.4-0.5c0,0,0-0.1-0.1-0.1c-0.1,0.1-0.2,0.3-0.4,0.4c-0.5,0.4-1.1,0.6-1.6,0.6
			c0,0,0.1,0,0.1,0l0,0C315.6,104.6,315.8,104.8,316,105 M324,105.6c-0.3,0-0.6,0-0.8-0.1c0.1,0.2,0.3,0.3,0.4,0.6
			c0.3-0.2,0.7-0.5,1.4-0.5c0.1,0,0.2,0,0.3,0l0.1,0c0.1,0,0.2,0,0.4,0c-0.1-0.2-0.2-0.3-0.3-0.5c0,0,0,0,0,0
			C325,105.5,324.4,105.6,324,105.6 M315.9,146.5c-0.4-0.3-0.7-0.6-0.9-1.1c-0.1,0.4-0.4,0.7-0.7,0.9c0,0,0,0,0,0
			C314.8,146.4,315.3,146.4,315.9,146.5 M306.4,146.3c0.2,0,0.5,0,0.7,0l0.3-0.5C307,146,306.7,146.2,306.4,146.3 M299.2,147
			c0.1,0,0.2,0,0.3,0c0,0-0.1-0.1-0.1-0.1c0,0,0,0,0-0.1C299.3,146.9,299.2,146.9,299.2,147 M323.4,147.6c-0.1-0.2-0.2-0.4-0.3-0.6
			c-0.3,0.2-0.6,0.3-0.9,0.4C322.7,147.4,323.1,147.5,323.4,147.6 M310.1,52c-0.2,0-0.3,0-0.5,0c0,0-0.1,0-0.1,0c0,0,0,0,0,0l-3.6,0
			c-0.5,0-1,0.1-1.4,0.4l-0.4,0c0,0-0.1,0-0.1,0c-0.8,0-1.5,0.3-2.1,0.8c-0.6,0.6-0.9,1.3-0.9,2.2v9.4l-0.3,0.1
			c-1.3,0.5-2,1.7-1.9,3.1c0.1,0.8,0.4,1.5,1,2c-1.8,0.5-3.3,1.4-4.6,2.7l-10.1,9.7c-1.1,1.1-1.2,2.8-0.3,4c0.6,0.8,1.5,1.2,2.4,1.2
			c0.5,0,1.1-0.1,1.6-0.4l7.1-4.4c0,0.1,0,0.2,0,0.3c0,0.4,0,0.9,0.1,1.3c-0.4,0-0.7,0.1-1,0.2l-0.2,0.1c-4.2,1.2-5.1,3.9-5.1,6.1
			c0,0.2,0,0.4,0,0.7l0,0.1l-0.2,2.7c0,0.2,0,0.4,0,0.7c-0.1,0.6-0.2,1.3-0.1,1.9c-0.1,1,0,2,0.4,2.8c-2.2,1.6-2.5,4.5-2.2,6.4
			c0.3,1.4,0.9,2.6,1.9,3.4c-0.1,0.5-0.2,1-0.1,1.5c0,0.9,0,1.8,0,2.8c0,1.4,0.1,2.9,0,4.4c-0.1,3.8-0.4,7.6-0.7,11.4
			c-0.4,4.6-0.7,9.2-0.7,14c0,1.9,0,3.7,0.7,5.1c-0.7,1.1-1,2.4-1,4c0.1,1.8,0,3.7-0.1,6c-0.2,2.5,0.6,4.3,2.1,5.4
			c0.9,0.6,1.9,0.9,3,0.9c1.3,0,2.4-0.5,3-0.7c3.4-1.4,6.8-2.2,10.3-2.2c9.1,0,16.4,5.1,19.3,9.8l2.8,4.5c0.6,0.9,1.5,1.4,2.6,1.4
			c0.3,0,0.5,0,0.8-0.1c1.3-0.4,2.2-1.5,2.2-2.9v-5.3c0-0.5,0-1,0-1.4c0-1,0-1.8,0-2.7c-0.1-1.5-0.2-2.9-0.2-4.4
			c-0.2-2.8-0.3-5.7-0.4-8.5c0-1.2-0.3-2.2-0.6-3.1c0.3-0.6,0.4-1.4,0.4-2.3c0-0.2,0-0.4,0-0.5l0-0.2c0-0.4-0.1-0.9-0.1-1.3
			c-0.1-0.8-0.1-1.4-0.2-1.9c-0.3-9.4-0.5-18.8-0.7-28.2l-0.1-3.5c2.7-0.1,5.6-2,5.7-6c0.1-2.2-0.6-4.1-1.9-5.4
			c-1-1-2.3-1.6-3.7-1.7c0.1-0.5,0.2-1.1,0.2-1.8l0,0c0-0.8-0.1-1.6-0.3-2.3c0.1-0.3,0.2-0.6,0.2-0.9c0.5-4.5-2.3-6.5-4-7.3
			l-1.9-0.8c-0.5-0.4-1.1-0.6-1.7-0.8c0,0,0,0,0,0c-0.1-1.2-0.2-2.3-0.3-3.5c0.4-0.2,0.7-0.5,1-0.9l0.6-0.9h1.8c1.5,0,2.7-1.1,3-2.5
			c0.2-1.4-0.6-2.8-2-3.3l-4-1.4c-0.6-0.4-1.2-0.7-1.8-0.9c-0.1-0.1-0.2-0.2-0.4-0.3l-3.3-2.2c0.2-0.4,0.3-0.9,0.3-1.4
			c0-0.5-0.2-1-0.4-1.4c0.7-0.9,1.1-2.1,1.2-3.4c0.1-1.7-0.5-3.4-1.6-4.5c-0.8-0.8-1.8-1.4-2.9-1.7c-0.6-2.1-2.4-3.6-4.7-3.8
			C310.4,52,310.2,52,310.1,52L310.1,52z"/>
	</g>
</g>
</svg>
